<?xml version="1.0" encoding="utf-8"?>
<!-- Generator: Adobe Illustrator 24.0.1, SVG Export Plug-In . SVG Version: 6.00 Build 0)  -->
<svg version="1.1" id="Layer_1" xmlns="http://www.w3.org/2000/svg" xmlns:xlink="http://www.w3.org/1999/xlink" x="0px" y="0px"
	 viewBox="0 0 100 100" style="enable-background:new 0 0 100 100;" xml:space="preserve">
<style type="text/css">
	.st0{display:none;}
	.st1{display:inline;}
	.st2{fill:#6D6F71;}
	.st3{font-family:'Arial-BoldMT';}
	.st4{font-size:17.5716px;}
	.st5{fill:#706F6F;}
	.st6{fill:#71706F;}
	.st7{fill-rule:evenodd;clip-rule:evenodd;fill:#005676;}
	.st8{fill-rule:evenodd;clip-rule:evenodd;fill:#528F32;}
	.st9{fill-rule:evenodd;clip-rule:evenodd;fill:#BA6621;}
	.st10{fill-rule:evenodd;clip-rule:evenodd;fill:#D6C8AC;}
</style>
<g id="Layer_2_1_" class="st0">
	<g class="st1">
		<g>
			<text transform="matrix(1 0 0 1 22.7036 84.9404)" class="st2 st3 st4">UNAM</text>
		</g>
		<g>
			<path class="st2" d="M76.9,50.1c0.2,0,0.3-0.1,0.4-0.2c0.3-0.7-0.7-1.1-1.3-0.6c0,0.1,0.1,0.2,0.1,0.4c0.2,0.4,0,0.7-0.5,0.5
				c-0.8-0.4-1,0.7-1,1.3c-0.6,0.2,0.1,0.6-1.7,0.8c-0.2-0.5-0.4-0.7-0.5-0.7s-0.3,0-0.6,0.1c0.2-0.1-0.7,0.4-0.7,0.4l0,0
				c-0.4,0.7-0.4,1,0.7,1.2c0.1,0.4-1.3,1.5-1.9,1.1l-0.4-0.3c-1.4-1-4.3,0.6-4.7,1.1c-1,1.2-1.5,2.7-1.8,4.3c0,0.3-0.1,0.5-0.1,0.7
				c-0.3,0-0.6,0.1-0.7,0.2l-3,1.3c0,0-1.8,0.6-1.8,0.4c0.4-0.6,0.7-0.9,1.1-1c2.1-0.6,3.7-2.8,3.4-4.7c0.4-0.1,0.6-0.2,0.7-0.4
				l0.3-0.7l0.3-0.8v-0.1c-0.8-1.6-2.4-0.5-2.7,0.4c-0.1,0.2-0.3,0.3-0.6,0.4c-1.7-0.2-3.1,1.8-3.6,3.5c-0.1,0.3-0.6,0.1-1.5-0.5
				c-1-1.4-2.5-0.8-3.5-0.1c-1.7,0.4-5.1-1.7-5.3-2.1l-0.5-0.7c-0.7-1-1.7-1.4-2.7-1.1l-1.4,0.2c-0.2,0-0.5,0.4-1,1.2L39.7,55
				l-1.2-1c-0.5-0.2-0.9-0.5-1.2-1c-0.1-0.2-0.3-0.3-0.7-0.3c-0.3,0.2-0.5,0.4-0.7,0.6c-0.7,0.7-1.3,1.3-1.9,1.6l-1.7-2.8
				c-0.1-0.2-0.2-0.4-0.5-0.7c0-0.1,0.1-0.1,0.2-0.2c0,0,0.1,0,0.2,0c0,0,0.1,0.1,0.1,0.2c0.1,0.2,0.2,0.3,0.2,0.3
				c0.8,0.3,0.8-1.9-1.1-0.8L30,51.5c0-0.5-0.1-0.8-0.2-0.9c-1,0.4-1.3,0.6-2.1,1.4l-0.1,0.8c0,0.1,0,0.1-0.1,0.1
				c-0.7-0.1-1.1-0.3-1.1-0.3c0-0.5-0.4-1-1-1c0,0-0.1-0.1-0.2-0.2v-0.3c0.4-0.2,0.1-0.6-0.3-0.5c-0.3,0.1-0.5,0.2-0.6,0.4
				c0,0.1,0,0.2,0,0.3c0.3,0.2,0.4,0.4,0.2,0.7c-0.3,0.4-0.4,0.6-0.2,0.7l1,0.8c0,0.2-0.2,0.5-0.6,0.9c-0.2,1.6,0.9,3,2.1,3.6
				c0.2,0.1,0.3,0.3,0.5,0.7c0.9-0.2,1.7,0.8,1.2,1.1l-1.2,0.8c-0.4,0.4-0.3,1-0.2,1.4c-0.1,0.1,0.4,0.4,0.5,0.5c0,0.1,0,0.2,0,0.3
				c-1.2,0.7-1.5,1.3-0.7,1.6c0,0.2,0,0.3-0.3,0.5c-0.3,0-0.5,0-0.5,0.1l0.8,0.7c0.1,0,0-0.6,0.1-0.6c0.1-0.2,0.4-0.2,0.7-0.1
				l0.8-0.6c0-0.1,0.1-0.2,0.2-0.4c0.2,0.1,0.4,0.1,0.6,0.4c2.3,0.8,4.8,0.2,7-0.3c0.4,1.4,1.9,1.7,3.2,2.1c1.4,0.5,2.8-0.1,4-1
				c1-0.7,1.4-0.7,1.3,0.1c0,0.1-0.2,0.4-0.5,0.7c-0.8,0.9-1.1,1.5-0.6,1.8L46,67c0.4-0.2,1.2,0.9,1.2,0.1c0-0.4,0.1-0.8,0.4-1.1
				c1.8,0.9,2.8,1.3,3.1,1c0.2-0.2,0-0.4-0.4-0.7v-0.2c0.5,0.1,0.8,0.2,0.9,0.4c0.5,0.7,0.6,1.1,2.1,1.2c0-0.1-0.3-0.3-0.3-0.6
				c0.4-0.3,1.6,1.1,2.3,0.4l0.3-0.4c-0.3,0-0.6-0.2-0.9-0.5v-0.1c0.7-0.5,1.2-1,1.6-1.5c0.2,0.1,0.5,0.1,0.8,0.1
				c0.7,0.1,1.5,0.3,2.2,0.5c3.2,1,5.4,0.1,6.8-2.5c0.9,0,4.1,2.4,6.4,1.5c1.4-0.4,1.7-2.4,1.2-3.5c-0.8-2.6-4.8-1.1-7.2-0.5
				c-1.1,0.3-1.6,0.1-1.6-0.3c0-0.4,1-0.9,2.8-1.6c1.5-0.6,1.9-1.1,2.9-2.6c1.7,0,2.8-0.1,3.3-0.3c1.8-0.7,2.4-2.1,2.3-2.4
				c-0.2-0.5-0.6-1.1-0.1-1.5c0.4-0.3,0.6-0.5,0.5-0.6c0-0.2-0.2-0.4-0.5-0.6C76.3,50.3,76.5,50.1,76.9,50.1z M71.6,52.8
				c-0.4-0.2,0-0.7,0.4-0.7c0.2,0,0.3,0.1,0.4,0.4C72.7,53.1,72.4,53.2,71.6,52.8z M56.5,59.7c0.7-2.5,2.2-3.7,2.8-3.9
				c0.3-0.1,0.5-0.1,0.8,0c0,0,0.1,0.2,0.2,0.5c0.1,0,0.4-0.2,0.9-0.5c0-0.2-0.1-0.3-0.3-0.3c-0.1-0.8,0.9-1.5,1.4-1
				c0.5,0.6,0.1,1.3-1.3,2.2c0,0,0.1,0.1,0.2,0.2c0.9,0.6-0.9,3.3-2.4,3.9L58,61c-0.2,0.1-0.4,0.2-0.7,0.5l-0.5,0.7
				c-0.1,0.1-0.3,0.3-0.6,0.6c-0.2,0.1-1-0.4-0.8-0.8l0.5-0.7C56,61.2,56.2,60.7,56.5,59.7z M41.3,55.1c0.1,0,0.5-0.1,1.3-0.2
				c0.4-0.1,1.5,0,1.7,0.1c0,0,0.2,0.2,0.6,0.6c0.8,0.9,1.4,1.4,1.9,1.7l0.7,0.4c0.2,0.1,0.4,0.2,0.7,0.4C48,58.6,48.5,59,48.6,59
				h0.2c0,0,0,0,0.1-0.1c0-0.1,0-0.2-0.1-0.3s-0.1-0.2-0.1-0.2s0.3,0,0.8,0.2c0.9,0.3,1.8,0.2,2.8-0.3l0.8-0.3
				c0.2-0.1,0.7,0.2,1.5,0.7c0.6,0.4,1.1,0.7,1.3,0.8c0,0.8-0.3,1.5-1,2.4c-0.8-0.3-1.6-0.3-2.6,0.1c-1.2,0.5-1.9,0.8-2,0.8
				c-1-1.2-1.7-1.9-2.1-2.2c-0.9-0.7-2.2-1.5-3.9-2.4c-0.6-0.3-1-0.6-1.2-0.9V56h-0.3c0,0,0,0,0,0.1c0,0,0,0,0,0.1v0.1V57
				c0,0-0.2,0.2-0.5-0.1c-0.1-0.1-0.2-0.4-0.4-0.8h-0.2c-0.1,0.1-0.1,0.2-0.2,0.6c-0.4,0.2-0.7,0.1-0.9-0.1
				C40.8,55.8,41.1,55.3,41.3,55.1z M46.4,60.1l0.3,0.1c0.2,0,1.8,1.1,2.6,2.2c-0.2,0.1-0.4,0-0.7-0.2L48.3,62h-0.4h-0.4
				c-0.3,0-0.4,0-0.4,0l-1.4,0.1c-0.1,0-0.8-0.3-0.9-0.4c-0.3-0.3-0.2-1.1,0-1.1H45C45.3,62.1,46.9,61.1,46.4,60.1z M32.3,53.6
				c0.3,0.2,0.4,0.4,0.5,0.5l0.4,0.6l0.5,0.4c0.1,0.1-0.3,0.5-1.4,1.3L31.6,57c-0.5,0.4-0.7,0.5-0.8,0.5c-0.1,0-0.2-0.1-0.2-0.2
				L30.5,57c0-0.1-0.1-0.2-0.2-0.3c0.2-0.5,0.2-0.8-0.2-0.8c-0.1-0.3,0.9-1.7,1-1.6C31.9,54.4,32.3,54.2,32.3,53.6z M29.9,55h-0.2
				c0-0.3,0-0.4-0.2-0.5l-0.4-0.3c-0.3-0.2-0.4-0.4-0.3-0.6c1.5-0.6,2.3-0.8,2.3-0.5v0.2v0.2l-0.3,0.4l-0.3,0.4
				c-0.1,0.1-0.2,0.3-0.3,0.4L29.9,55z M29.6,52.3c0.1-0.2,1.9-1,2.3,0.1c0.1,0.1,0,0.4-0.1,0.9c0,0.1-0.1,0.2-0.1,0.3
				c0,0.2-0.1,0.4-0.1,0.4h-0.2c-0.1,0-0.1,0-0.1-0.1v-0.2c0-0.1,0.1-0.1,0.2-0.1v-0.7c0,0-0.1-0.4-0.3-0.4h-0.7l-1,0.3h-0.1
				c0,0-0.1,0-0.2,0L29.6,52.3z M28.3,52.7L28.3,52.7c0.1,0.1,0.2,0.1,0.3,0.1l0,0l0,0l0.1-0.5c0-0.1,0-0.2-0.1-0.2h-0.4V52
				c0-0.1,0.2-0.2,0.5-0.3c0,0.2,0,0.4,0.2,0.5c0,0,0,0.1-0.1,0.1l-0.1,0.1l-0.1,0.1v0.2l0.3,0.2H29L28.4,53c0,0-0.2-0.1-0.3-0.3
				H28.3z M25.2,52.8c-0.2-0.2-0.2-0.3,0-0.5c0.1-0.1,0.2-0.1,0.3-0.1h0.4c0.1,0,0.1,0.2,0.1,0.5C25.9,53.2,25.6,53.2,25.2,52.8z
				 M28.1,64.1L28,64.2v0.1h-0.3l-0.2-0.2L27.3,64c-0.4-0.2-0.2-0.6,0.4-0.7C28.3,63.3,28.2,64.1,28.1,64.1z M36.4,63.2
				c0,0.4-0.1,0.5-0.2,0.6h-0.8c-0.2,0-5.1,0.4-5.6,0.2c-2.4-0.9-2.4-3.2-0.1-4c0-0.4-0.5-1-1.6-1.8c-1.8-1.2-2.5-2.4-2.3-3.6
				c0.1-0.9,0.4-1.3,0.8-1.3h0.7c1.5,0,3.4,4.8,3.5,5.5c0.1,0.3,0,1.6,0.1,1.6l0.9-0.6c0.5-0.1,2.1,0.4,2.1,0.4l2.6,2.2h0.2
				C36.4,62.6,36.4,62.9,36.4,63.2z M34.9,60.8c0.3-0.8,0.3-1.2,0-1.1c-0.2,0-0.3,0.2-0.4,0.4h-0.2L34.2,60
				c-0.1-0.1-0.2-0.1-0.4-0.2v-0.6c0,0-0.1-0.1-0.2-0.1c-0.2,0.1-0.3,0.2-0.4,0.4c-0.3,0-0.6,0-0.9-0.2c0.2-0.8,0.1-0.9-0.4-0.4
				c-0.3,0.4-0.6,0.6-0.7,0.5c-0.2-0.4-0.3-0.7-0.3-1.1c0-0.4,2.9-2.3,2.9-2.3c0.1-0.2,0.4-0.4,0.8-0.7l0.7-0.5l0.6-0.7
				c0.1-0.1,0.3-0.4,0.6-0.6c0.3,0.1,0.5,0.2,0.7,0.3l0.5,0.6l0.7,0.4c0.1,0.1,0.5,0.5,1,1.2c0.6,0.8,0.9,1.2,1.1,1.2l0.8,0.1
				c0.2,0,0.4,0.1,0.8,0.2l0.6,0.5c0.1,0.1,0.5,0.3,1.4,0.8c0.2,0.1,0.5,0.3,0.7,0.4v0.2c-1.1,0.1-1.7,1.1-1.8,1.4l-0.2,0.8
				c0,0.1-1.5,0.1-1.9-1.5h-0.2c-0.1,0.1-0.1,0.1-0.1,0.2v0.3l0.1,0.1c0.4,0.4-0.3,0.4-0.9,0.1l-0.1-0.5h-0.2l-0.2,0.6
				C38.5,61,38,61,38,60.8V60c0,0,0,0-0.2,0c-0.3,0.1-0.5,0.9-0.1,1c0,0-0.1,0.1-0.4,0.3c-0.3,0.2-0.5,0.4-0.5,0.6
				C36.1,61.8,35.5,61.4,34.9,60.8z M36.9,63.6c-0.2-1.3,0.5-2.1,1.9-2.3l4,0.7c0.1,0,1.2,2.2,1.1,2.4
				C42.5,66.1,37.3,66.8,36.9,63.6z M48.2,65.9c0.1-0.1,0.2-0.3,0.3-0.4c0.8-0.9,0.6-1.7-0.5-2.4c-0.5-0.3-1.8-0.4-2.1-0.1v0.2
				c0,0.1,0.1,0.2,0.2,0.2h1c0.7,0,2,1.2,1.3,1.7c-0.7-0.6-1.4-1-2-1.3c-0.8-0.3-1.2-0.6-1.4-0.7c-0.3-0.2-0.6-0.6-1-1.2
				c0,0.8,0.4,1.5,1.3,1.9l0.7,0.3c0.6,0.3,1,0.6,1.2,1l-0.4,2h-0.2c-0.1,0-0.1-0.1-0.1-0.2v-1.6c0-0.2-0.1-0.3-0.2-0.4h-0.2l0,0
				l0,0l0,0v0.8c0,1.1-1.2,1.4-1.5,1.1v-0.2l0.4-0.5c0.3-0.4,0.5-0.8,0.4-1.2c0-0.1-0.3-0.5-0.9-1.2c-2.3-3,0.2-4.3,0.8-4.1
				c0.6,0.1,0.8,0.5,0.7,0.9l-0.1,0.1c-1.1-1.6-2.7,0.4-1.3,1.6c0.5,0.4,1.2,0.5,2.3,0.4c1.3-0.2,2.2,0,2.7,0.7L50,64
				c0.1,0.2,0.4,0.2,0.8,0.3c0,0,0,0.1,0.1,0.1c0,0.2-0.1,0.2-0.2,0.2h-1.2l0,0l0,0l0,0v0.7C49.3,65.4,48.9,66,48.2,65.9
				C48.2,66,48.2,65.9,48.2,65.9z M49.8,66.6h-0.2c-0.2,0-0.6-0.3-0.6-0.3v-0.2c0-0.1,0.4-0.2,0.7,0.2
				C49.8,66.4,49.8,66.5,49.8,66.6z M54.3,67.2L54.3,67.2c-1.2-0.6-1.9-0.9-2-0.9c0,0,0,0-0.1,0.1c0,0,0,0.1,0.1,0.3
				c0.1,0.2,0.1,0.4,0,0.5c-0.9-1-1.6-1.5-1.9-1.5h-0.7v-0.4c0-0.3,1.4-0.3,2.6,0.3c0.1,0,0.5,0.4,1.3,1L54.3,67.2
				C54.3,67.1,54.3,67.2,54.3,67.2z M55.5,63.8l-0.1,0.3v0.7l0,0l0,0l0,0l0.1,0.4c-0.8,0.7-1.3,1-1.6,0.8l-0.5-0.4l-0.5-0.4
				l-0.2-0.6c-0.2-0.1-0.5,0-0.5,0.2h-0.4c-0.1,0-0.3-0.1-0.4-0.2c0.1-0.4,0.1-0.6,0.1-0.6c-0.1,0-0.2-0.1-0.3-0.1
				c-0.4-0.1-0.6-0.2-0.7-0.3v-0.2c0.1,0,0.8-0.4,2.1-1c0.8-0.4,1.5-0.4,2.1-0.2c0.4,0.2,0.8,0.5,1,0.8
				C55.6,63.5,55.6,63.7,55.5,63.8z M62.7,65.5c-1,0.2-2.4,0-4.2-0.6v-0.2c0.3,0,0.4-0.1,0.3-0.4c-0.1,0-0.1,0-0.1,0h-0.1l-0.4-0.1
				c-0.1,0.4-0.2,0.6-0.4,0.7l-1.7-0.1c0,0-0.1-0.1-0.3-0.2c-0.2-0.9,0.5-1.4,2.2-1.6v0.4v0.1l0.1,0.1c0,0,0,0,0,0.1h0.3
				c0-0.1,0.1-0.2,0.2-0.2V63c0,0-0.1-0.1-0.2-0.1c3.5-1.8,5.5-2.4,6.1-1.7c0,0.1,0,0.2-0.1,0.2c-0.1,0.1-0.1,0.2-0.1,0.2v1
				c0,0.2,0.3,0.5,1,0.7C65.5,63.4,65,64.9,62.7,65.5z M66.3,61.3c0.6-0.1,1.1-0.2,1.6-0.4c0.9-0.3,1.7-0.5,2.3-0.5
				c3.4-0.3,3.5,2.4,3.4,2.7c-0.4,1.6-3.3,1.2-4.3,0.9c-0.1,0-0.3-0.1-0.7-0.4c-1.1-0.5-1.8-0.8-2.3-0.9l-0.8-0.1
				c-0.2,0-0.4-0.1-0.7-0.4C64.8,61.8,65.2,61.5,66.3,61.3z M67.7,58.2c-0.2,0.1-0.4,0.2-0.7,0.3c-1.2,0.5-2.1,1.1-2.6,1.8
				c-0.5,0-0.7,0-0.9-0.2c0-0.5,0.2-2.9,1.6-4.4c0.8-0.8,1.8-1.3,2.8-1.4c0.7-0.1,1.2,0,1.4,0.4V56c0.1,0.1,0.3,0.2,0.6,0.3
				C69.8,56.9,69.1,57.6,67.7,58.2z M71.4,55.7c-1,0-1.6,0-1.7-0.1c-0.2-0.2,0-0.5,0.2-0.5l0.8-0.1c0.2,0,0.9-0.5,1.9-1.4
				s1.6-1.4,1.9-1.4c0.4-0.1,1.3,0.1,1.5,0.7C76.1,53.4,75.8,55.6,71.4,55.7z M75.7,51.7c-0.7-0.1-0.5-1-0.4-1h0.3
				c0.2,0,0.4,0.1,0.7,0.3C76.7,51.4,76,51.8,75.7,51.7z"/>
			<path class="st2" d="M26,17.2c0,0.2,0.4,0.8,1.2,0.9c0.3,0,1.7-0.2,4.1-0.7c1.6-0.3,2.5-0.4,2.7-0.2v0.2c-0.4,0.4-1,0.6-1.6,0.8
				c-0.5,0.2-0.8,0.2-0.9,0.2l-4.6-0.3c-0.3,0-2,0.7-2.1,1.5l0.3,2l0,0l0,0l0,0c0.5,0,1-0.4,1.3-1l-0.2-1.3c0.9-0.2,1.9,0.8,2.9,0.5
				c1.6-0.6,4.5-0.9,6,0.2c0.1-0.1,0.8-0.9,1-1c0.5-0.4,0.7-0.9,0.6-1.4c-0.1-0.6-0.6-1.5-1.6-2.6c2.8-1.5,21.3-2.1,30.5-0.2
				c-0.5,0.4-0.7,0.6-1,0.9c-0.6,0.6-0.9,1.8-0.6,2.6c0.1,0.5,0.6,0.9,1.4,1.2c0.6,0.1,1.3-0.5,2.7-0.8c0.6-0.1,4.4,0.1,5.4,0.2
				c0.8,0,1.7,0,1.7,0.3L75,20.6c0,0.1,0.6,1.2,0.7,1c0.9-1.5,1.1-2,0.2-2.9c-0.4-0.4-1.4-0.6-1.8-0.6h-4.7c-2.1,0-3-0.5-2.9-1
				C67.3,17,69,17,72,17.6c1.7,0.4,2.6,0.1,2.7-0.7l0.1-0.8c0-0.2,0.1-0.4,0.3-0.7l0.5-0.7c0.3-0.4,0.7-1.5-0.1-2.2
				c-0.5-0.7-10.3-3.8-20.2-4s-18.9,0.6-26.9,2.6c-2,0.5-3.2,1-3.5,1.5c-0.4,0.6-0.2,1.4,0.5,2.5L26,17.2z M26,20.7
				c0,0-0.2,0.4-0.3,0.4c-0.1,0-0.2,0.1-0.2,0.1l-0.2-0.8c-0.2-0.6,0.2-1.1,0.5-1.2l0.3,0.8L26,20.7L26,20.7z M35.6,19.1
				c-0.2,0.2-0.5,0.3-0.7,0.5c-2-0.7-4.6-0.1-6.6-0.3C27.7,19.1,26.9,19,26,19v-0.2c0.4-0.2,1.5-0.3,3.4-0.2l2.5,0.1
				c0.2,0,0.9-0.3,2.2-1c0.4-0.2,0.6-0.3,0.7-0.3c0,0,1.4,0.5,1.5,0.7C36.4,18.4,36,18.8,35.6,19.1z M35.9,16.8
				c0.2,0.3,0.3,0.6,0.4,0.9l-0.8-0.3l-0.8-0.3L34,16.8c-0.2-0.1-1.7,0.1-4.3,0.6c-1.1,0.2-1.8,0.3-2,0.3s-0.4-0.1-0.4-0.1
				s0-0.1-0.1-0.1c0.9-0.7,3-1.4,6.3-2.1c0.6-0.1,1-0.2,1.1-0.2C34.6,15.3,35.6,16.4,35.9,16.8z M76.1,19.9c0.1,0.3-0.4,1.1-0.5,1.1
				h-0.1c-0.1,0-0.2-0.2-0.2-0.3l0.1-1.1C75.7,19.5,76,19.8,76.1,19.9z M66.7,18c0.2,0.2,1.4,0.5,1.9,0.5l2.1-0.1H74
				c0.6,0,1,0.1,1.3,0.3c0.3,0.2,0.5,0.4,0.4,0.5l-1-0.2h-1.2L68,18.8c-0.2,0-2.5,0.7-2.7,0.7c-0.3-0.1-0.6-0.3-0.7-0.4
				c-0.2-0.2-0.3-0.5-0.3-0.7c0.5-0.6,1.4-1.1,1.5-1L66.7,18z M71.7,17.3c-3.1-0.7-5.2-0.7-6.5,0c-0.3,0.2-0.7,0.5-1,0.9
				c0-0.3,0-0.7,0.1-1c0.2-0.7,0.9-1.3,1.6-2c1.1,0,6.9,1.3,8.2,2C73.5,17.6,72.6,17.5,71.7,17.3z M26.8,11.9c2.2-0.7,5.2-1.3,9-1.9
				c0.2,0,8.1-1.1,10.7-1.1H48h0.8c5.4-0.1,9.3-0.2,16.5,1.1c4.1,0.7,7.2,1.5,9.1,2.3c1.2,0.5,1.5,1.3,0.8,2.3l-0.5,0.7
				c-0.3,0.4-0.4,0.9-0.5,1.6c-2.9-1-10.6-2.8-16.7-3.1c-10.3-0.6-19.4,0.1-27.3,2.2c-1.3,0.4-2.3,0.7-3,1.1
				c-0.5,0.3-0.8,0.4-0.8,0.4c-0.1-0.3-0.2-0.6-0.2-0.7L26.1,16c0-0.2-0.1-0.4-0.3-0.7l-0.5-0.6C24.4,13.4,24.9,12.5,26.8,11.9z"/>
			<path class="st2" d="M62.5,39.1V24.9H47.7h-4.1h-5.4v15.3v1.7c0.4,3.4,4.1,10.5,11,13.9l0.8,0.3c0.3,0.1,3.6-2,4.2-2.5
				c2.6-2.1,5.1-4.2,7.1-8.9C61.9,43.6,62.7,41.4,62.5,39.1z M60.4,46.2c-0.1,0.2-0.4,0.6-0.9,1.3c-1.7,2.6-5.1,5.6-5.8,6.1
				c-0.6,0.5-1.6,1.1-2.6,1.6c-0.5,0.3-1.1,0.5-1.1,0.5c-0.6,0-2.5-1.1-3.6-2c-1.3-1.1-8.3-7.1-7.8-14.1c0-0.1,0-3,0-8.7v-5.7h23.6
				c0-0.1,0.1,0.1,0,0v15c-0.1,1.7-0.6,3-1.5,5L60.3,46L60.4,46.2z"/>
			<path class="st2" d="M50,52.7c1.9-0.1,7.3-5.2,8.9-9.2c0.3-0.9,0.5-1.2,0.5-2.1V27.9h-18v13.5c0,0.8,1.2,5.5,4.6,8.7
				C47.9,51.8,49.2,52.7,50,52.7z M41.7,41.3V28.2c0,0,0.1,0.8,0.1,0.9c0.4,0.5,0.5,0.8,0.3,1c0.1,0.1,0.1,0.2,0.2,0.3
				c0.3,0.4,0.5,0.6,0.6,0.5c0.1,0,0.1-0.1,0.1-0.1l-0.7-2.1h0.2c0,0.1,0.2,0.6,0.5,1.5s0.7,1.5,1.3,1.8c0.4,0.2,0.7,0.3,1.2,0.2
				c0.4-0.1,0.6-0.1,0.6-0.1l0.6,0.6l0.8,0.2c0.2,0.1,0.4,0.2,0.7,0.4l0.5,0.5h0.5c0.3,0,0.8,0.4,0.8,0.7c0,0.2-0.2,0.6-0.4,1
				l-0.6,1c-0.3,0.5-0.3,0.9-0.1,1.2l0.4,0.7c0.1,0.2,0.2,0.4,0.3,0.8l0.2,0.8c0.1,0.5,0.5,0.9,1,1.1c0,0,0,0.1,0,0.2
				c-0.3,0.9-0.4,1.4-0.4,1.6v0.8c0,0.2-0.1,0.5-0.2,0.8L50,45.3L49.8,46l-0.1,0.8l-0.2,0.8c0,0.2,0.1,1.9,0.1,2
				c0.2,0.7,0.7,1,1.3,1c0,0,0-0.1,0.1-0.1c0-0.1,0.1-0.4,0.1-1s0.2-1.1,0.4-1.5l0.4-0.6l0.3-0.7c0.1-0.2,0.3-0.3,0.6-0.5
				c0-0.1,0-0.1,0-0.2c-0.1,0-0.2-0.1-0.2-0.1v-0.2c0-0.1,0.1-0.1,0.3,0c0.1,0.1,0.4-0.1,0.8-0.5l0.6-0.6l0.6-0.5
				c0.1-0.1,0.3-0.3,0.6-0.5l0.4-0.7c0.1-0.2,0.3-0.3,0.6-0.6l0.8-0.3c0.3-0.1,0.5-0.3,0.6-0.5c0.1-0.1,0.1-0.4,0.1-0.8v-0.8
				l0.3-0.4c0.5-0.8,0.5-1.5,0-2.1c-0.1-0.2-1.4-1.1-1.6-1.1c-0.3-0.1-0.6-0.1-0.9,0c-0.1-0.6-0.4-1-0.9-1.4l-0.7-0.5l-0.6-0.6
				l-0.9-0.1l-0.4-0.2c-0.9-0.3-1.5-0.3-2,0c-0.1,0-0.1,0-0.2,0c-0.2-0.3-0.5-0.4-0.7-0.3c-0.5,0.2-0.8-0.2-0.9-1.2
				c-0.5,0-0.8-0.1-0.9-0.2v-0.3c0-0.3,0.1-0.6,0.2-0.9l0.1-0.3c-0.1-0.2-0.4-0.1-0.9,0.4s-1,0.4-1.4-0.1c-0.3-0.4-0.3-0.7-0.1-0.9
				c0.1-0.1,0.1-0.3,0.1-0.5c-0.2-0.1-0.5-0.3-0.9-0.6c0,0-1.4-0.5-1.5-0.8h16.1v13.3c0,1-1.3,3.5-3.2,6.1c-1.3,1.6-3,3.2-5.1,4.4
				L50.3,52c-0.1,0-4.1-1.5-6.4-5.8C42.5,44.4,41.7,42.4,41.7,41.3z"/>
			<path class="st2" d="M52.8,23.1L51.7,23c0,0,0,0-0.1,0.1c1.2,2.7,3.9,0.9,4.7,0.1h0.3c0.6,0.8,1,1.2,1.1,1.2
				c0.3,0.1,0.6-0.1,0.8-0.6h0.1h0.1l0.4,0.3c0.9,0.6,2.4,0.2,2.4-1L61,23.2l-0.1,0.1c-0.3,0.3-1.1,0.2-1.6-0.4
				c0-0.1,0.1-0.1,0.1-0.1c-0.7-0.2-0.9-1.2-0.7-3.2c0-0.2,0.2-0.4,0.6-0.5c1.8,0.5,2.6,0.2,2.5-0.7c-0.1-0.1-0.3-0.1-0.5-0.1v-0.1
				c0.2-0.3,1.2-0.1,1.1,0.8c0.8-0.3,1.4-2-0.6-2.4L61,16.4c-0.8-0.2-1.4-0.4-1.6-0.7L58.9,15c-0.1-0.1-0.3-0.4-0.5-0.7
				c-0.3,0.1-0.5,0.3-0.6,0.6l0,0c-0.2-0.1-0.4-0.2-0.7-0.5c-0.2-0.2-0.4-0.3-0.5-0.3c-0.1,0.2-0.2,0.4-0.2,0.7
				c-0.1,0-0.1-0.1-0.2-0.1c-0.2-0.2-0.4-0.3-0.5-0.3c-0.6,0.4-0.6,1.1-0.2,1.9c0.1,0.2,0.2,0.3,0.2,0.4c-0.3,0.2-0.6,0.3-0.9,0.3
				h-1.6c0,0,0,0-0.1,0.1c0,0.9,1,1.4,1.9,1.3c-0.3,0.2-0.7,0.3-1.2,0.3h-1l-0.1-0.1c0,0-0.1,0-0.3,0c0,0,0,0.1-0.1,0.1
				c0.4,1.2,2,1.5,2.6,1.2V20c-0.8,0.8-1.5,1.1-2.2,1h-0.3l-0.3-0.1c-0.4-0.1-0.4,0.2-0.2,0.7s0.7,0.8,1.3,0.8s1.1-0.1,1.4-0.4
				l0.4-0.2h0.1V22C54.4,22.8,53.6,23.2,52.8,23.1z M59.1,23.6c0.2-0.1,0.4-0.1,0.7,0.1l0.2,0.1h0.5V24h-0.7
				C59.6,24,58.9,23.7,59.1,23.6z M56.1,21.4c-0.4-0.2,0.8-1.7,1.1-1.5C57.6,20.3,56.6,21.7,56.1,21.4z M56.7,22.9
				c-0.1,0-0.2-0.1-0.2-0.3c0,0,0-0.1,0-0.2c0.1-0.3,0-0.4-0.1-0.5c0.1-0.3,0.4-0.4,0.7-0.5v0.1l0.1,0.2c0.1,0.5-0.1,1.2-0.2,1.2
				C57,22.9,56.7,22.9,56.7,22.9z M57.9,24c-0.4,0-0.8-0.5-0.8-0.8C57.2,23,58,22.9,58,23v0.2c0,0.1,0,0.2,0,0.3
				C58,23.7,58,23.9,57.9,24z M58.1,21.4c0,0.2-0.1,0.4-0.3,0.5c-0.5-0.4-0.2-1.5-0.1-1.6c0.2-0.1,0.4,0.2,0.4,0.2
				S58.1,21.4,58.1,21.4z M58.3,19.3c0,0.3-0.1,0.5-0.3,0.7c-0.2,0-0.4-0.2-0.6-0.7l-0.2,0.1c0,0-0.1,0-0.1,0.1
				c-0.8,0.7-0.6-1.5,0.5-0.8c0.1,0,0.3,0,0.6,0c0.1,0,0.2,0,0.2,0.1v0.5H58.3z M60.5,16.9h0.4c1.7,0,2.3,1.4,1.6,1
				c-0.8-0.4-1.7-0.3-2.7,0.4v0.2l1.4,0.3v0.1c0,0,0,0.1-0.1,0.1h-0.3l-1.7-0.4c0.2-0.2,0.4-0.4,0.5-0.5l0.6-0.5L60.5,16.9z
				 M60,16.9c0,0.1-0.1,0.2-0.4,0.6c-0.4,0.4-0.5,0.6-0.6,0.6V18C59.1,17.7,59.9,16.7,60,16.9z M58.4,15.1c0,0,0.1,0.1,0.2,0.2
				c0.2,0.3,0.3,0.4,0.2,0.5c-0.1,0-0.2,0-0.3-0.1s-0.2-0.2-0.2-0.2C58.1,15.2,58.2,15.1,58.4,15.1z M58,16c0.2-0.1,0.1,0.5,0.3,0.5
				s0.5-0.1,0.5-0.1c0.1,0.1-0.1,0.3-0.3,0.3h-0.3c-0.1,0-0.3-0.1-0.3-0.3S57.8,16,58,16z M57.8,17.1l0.4,0.1c0,0.1,0.7,0.2,1-0.5
				c0.1-0.1,0.1,0.1,0.1,0.2c0,0.2-0.2,0.4-0.4,0.5l-0.6,0.3c-0.2,0.1-0.4,0.7-0.5,0.5l-0.1-0.4c-0.1-0.1-0.2,0.1-0.3,0.2
				c-0.4,0.3-0.6,0.4-0.7,0.3C56.6,17.9,57.3,17.1,57.8,17.1z M53.5,19.3v-0.2H54c0.9,0,1.5-0.3,1.9-0.8c0.2-0.4,0-0.6-0.7-0.5
				c-0.8,0.1-1.3,0-1.6-0.3v-0.1H55c0.5,0,1-0.2,1.5-0.5c-0.7-0.5-1-1.1-0.9-1.7c0-0.1,0-0.1,0.1-0.1h0.1l0.3,0.5
				c0.2,0.4,0.5,0.6,0.9,0.7L56.9,16c-0.1-0.6-0.2-0.9-0.1-0.9H57c0,0,0.2,0.2,0.5,0.5c0,0.2,0,0.4-0.1,0.4v0.9
				c-0.7,0.4-1,0.8-1.2,1.3c0,0,0.1,0.2,0.2,0.4C55.6,19.5,54.2,19.6,53.5,19.3z M53.8,22c-0.8,0.1-1.2,0-1.3-0.4
				c0.1-0.1,0.1-0.1,0.1-0.1l0.8-0.1c0.2,0,1.7-0.6,2.2-1.3l0.5-0.7h0.2c0.1,0,0.1,0.2,0.1,0.5C56.4,20.1,54.9,21.8,53.8,22z
				 M55.3,22.5c2-1.7,0.6,2.2-2.2,1.6c-0.5-0.1-0.7-0.2-0.6-0.5c0.1,0,0.3,0,0.7-0.1l0.8-0.3l0.8-0.3L55.3,22.5z"/>
			<path class="st2" d="M66.5,22.6c-0.8,0.5-1.7,1.1-2.2,1.6v0.3c0,0.1,0.1,0.2,0.4,0.3c1.1-0.3,2-1,3.1-2c0.2-0.3,0.5-0.7,0.6-1.1
				c-1.7-0.6-0.7-1.9,0.3-1c0.7,0.6,0.3,1.4-0.3,2.1c-0.4,0.5-1,1.1-3,2.4c0.2,0.3,0.3,0.5,0.5,0.7c0.1,0.2,0.3,0.1,0.3,0
				s0-0.2-0.2-0.4c-0.1-0.2,0.1-0.4,0.2-0.2l0.3,0.4c0.1,0.1,0.3,0,0.2-0.1L66.5,25c-0.1-0.2,0.2-0.4,0.3-0.2
				c0.1,0.2,0.2,0.3,0.3,0.5c0.2,0.3,0.3,0.1,0.3-0.1c-0.1-0.2-0.2-0.3-0.3-0.5c-0.2-0.2,0.1-0.4,0.2-0.2c0.1,0.2,0.2,0.3,0.3,0.4
				c0.2,0.2,0.4,0,0.3-0.1c-0.2-0.3-0.3-0.4-0.3-0.5c-0.2-0.2,0.1-0.4,0.2-0.2c0.1,0.2,0.2,0.3,0.3,0.5c0.1,0.2,0.4,0,0.3-0.2
				s-0.2-0.3-0.4-0.5c-0.1-0.2,0.1-0.4,0.3-0.2c0.2,0.2,0.3,0.3,0.5,0.5c0.1,0.1,0.4,0,0.2-0.2c-0.2-0.3-0.3-0.4-0.4-0.5
				c-0.1-0.2,0-0.4,0.2-0.2c0.2,0.2,0.4,0.4,0.6,0.5c0.2,0.2,0.4,0,0.2-0.2c-0.2-0.3-0.4-0.4-0.5-0.5c-0.2-0.2,0-0.5,0.2-0.2
				c0.2,0.2,0.4,0.3,0.5,0.4c0.2,0.2,0.5,0.1,0.3-0.2c-0.2-0.2-0.3-0.3-0.5-0.5s-0.1-0.4,0.2-0.2l0.6,0.5c0.3,0.2,0.5,0,0.2-0.2
				L70,22.2c-0.2-0.2,0-0.3,0.1-0.2l0.8,0.6c0.2,0.2,0.5-0.1,0.2-0.3l-0.8-0.6c-0.2-0.2,0-0.3,0.2-0.2l0.9,0.7
				c0.3,0.2,0.5-0.1,0.2-0.3l-0.9-0.7c-0.2-0.1,0-0.3,0.1-0.2l1,0.7c0.2,0.2,0.5,0,0.2-0.3l-1-0.7c-0.2-0.1,0-0.3,0.1-0.1l1.1,0.7
				c0.2,0.2,0.3-0.1,0.2-0.1l-1.1-0.8h0.3c0.8-0.2,1.6,1,1.5,1.4c0,0.2-0.5,0.9-1.6,1.5c-0.7,0.4-0.7,0.5-2,1.2
				c-0.9,0.7-2,1.3-3.4,1.6c0.1,0.2,0.1,0.4,0.2,0.5c1,0,2.4-0.6,4.3-1.7s3-1.7,3.4-1.8l0.8-0.1c0.3,0,0.7-0.2,0.7-0.5
				c0.1-0.3,0-0.6-0.2-0.9c-0.2-0.4-0.7-0.9-1-1.1s-0.9-0.9-1.9-1c-1.4-0.1-3.1-0.4-4.7-0.1c-0.5,0.1-1.4,0.3-1.5,0.8
				c-0.2,0.6,0.5,1,0.8,1.5C67.2,22.2,66.7,22.5,66.5,22.6z"/>
			<path class="st2" d="M34.4,19.9c-0.1,0-0.3-0.1-0.9-0.2h-1.4c-0.8,0-1.6,0-2.3,0.4c-1.9,0.8-3.2,2.2-2.4,2.4l0.8,0.2
				c1.3,0.4,3,1.2,5.1,2.4c1.1,0.6,1.8,0.9,2.2,0.9c0,0,0,0,0.1-0.1c0-0.1-0.7-0.6-2.1-1.5c-1.2-0.7-1.9-1.5-2.1-2.4
				c-0.5-2.2,2.8-1.2,0.9-0.2c0.2,1.3,3.4,3.5,5,3.5c0.2-0.3,0.5-0.6,0.9-0.9v-0.1c-2.4-0.8-3.7-1.5-3.8-2.3c0-0.3,0.1-0.6,0.3-0.9
				c0.5-0.4,0.7-0.7,0.7-0.8c0-0.1-0.2-0.1-0.1-0.2C34.9,20.2,34.4,19.9,34.4,19.9z"/>
			<path class="st2" d="M70.3,44.9c0.2-0.3-0.7-1-1.4-1L68.5,44H68l-0.4,0.2c-0.2,0.1-0.8-0.3-1.9-1.1L65,42.6h-1.3v0.1h-0.3v-0.2
				l-0.1-0.1c0,0,0,0-0.1-0.1c0,0,0,0-0.1-0.1H63c-0.1,0.3-0.1,0.5-0.1,0.6l0.1,0.7c0,0.1-0.1,0.3-0.3,0.5h-0.3
				c-0.1-0.1-0.1-0.2-0.1-0.3h-0.4v0.5c0,0.4,0.1,0.7,0.3,0.8l1.5-0.2c0.2,0,0.1-0.5-0.2-1.4V43h0.2l0.6,0.7c0.4,0.5,1.1,1.2,1.9,2
				c-0.5,2.1,0.1,3.1,1.6,3.1c0-0.1,0.1-0.1,0.2-0.1c-0.8-1.7-0.8-2.7,0.1-3c0.3-0.1,0.8,0,1.3,0.4c0.3,0.3,0.6,0.3,0.6,0.1
				c0.2-0.4-0.1-0.9-0.8-1.4c0-0.1,0-0.2,0.1-0.2C69.8,44.9,70.2,45,70.3,44.9z"/>
			<path class="st2" d="M33.1,48.6c0.2,0.1,0.5,0,0.9-0.2c0.8-0.4,1.1-1.1,1-2.1l-0.1-0.6l-0.2-0.6c-0.1-0.2,0.4-0.8,1.5-1.7
				c0.6-0.5,1-0.9,1.2-1v-0.2c-0.3,0.1-0.7,0.1-1.3,0.1h-0.6c-0.2,0-0.6,0.3-1.2,1l-0.5,0.5c0,0-0.1,0-0.2,0L33,43.6
				c-0.2-0.1-1.1-0.3-1.4-0.2c-1.1,0.3-0.9,1-0.9,1H32v0.1c-1.2,0.1-1.5,0.9-1.3,1.3c2.7-0.8,3.2,1.1,2.7,2
				C33.1,48.3,33,48.6,33.1,48.6z"/>
			<path class="st2" d="M53.4,27.5l-0.1-0.1c-0.2-0.1-0.1-0.4,0.4-1h0.2l1.1,1.2c0,0,0.3-0.3,0.7-0.8h0.2L56,27
				c0.1,0.1,0.1,0.3,0,0.5c0,0,0.1,0.1,0.2,0.1h1.1c0.1,0,0.2,0,0.2-0.1c-0.5-0.5-0.8-0.8-0.9-1.1l-0.2-0.7c0-0.2-0.2-0.2-0.6,0
				c0,0.4-0.1,0.6-0.6,1.1c-0.2-0.2-0.4-0.4-0.5-0.6c-0.6-0.7-1.1-0.9-1.4-0.6c-0.1,0.1-0.1,0.2,0.2,0.3c0,0.1,0,0.2,0,0.3l-0.6,1
				l-0.4,0.3c-0.1,0-0.1,0.2,0.2,0.2C53,27.6,53.2,27.6,53.4,27.5z"/>
			<path class="st2" d="M44.6,16.2l-0.2-0.9c-0.1-0.3-1.3-0.8-1.5-0.6l-0.5,0.4l-0.7,0.1c-0.1,0-0.3,0.1-0.6,0.3
				c0,0.4,0.1,0.9,0.4,1.6l0.3,0.8l0.4,0.7c0,0,0,0.2-0.1,0.5c-0.2,0.5-0.3,0.8-0.2,0.9l0.6,0.7c0.2,0.2,0.2,0.5,0.1,0.9v1
				c0,0.2,0.1,0.3,0.4,0.3h0.7c0.2,0,0.3-0.1,0.3-0.4L43.8,20c0-0.2,0-0.4,0.1-0.6c0.2-0.3,0.3-0.4,0.4-0.4h0.2
				c0.2,0,0.2,0.1,0.2,0.3h0.2l0.1-0.1c0.1-0.1,0.2-0.2,0.2-0.3l-0.1-0.1C45,18.7,45,18.6,45,18.5h0.2c0.1,0,0.1,0.1,0.1,0.2h0.2
				c0.3-0.4,0.4-0.7,0.4-0.8L45.1,17L44.6,16.2z M44.7,17.6l-0.5,0.7L43.7,19l-0.5,0.6l0.1,0.6c0.1,0.6,0.2,1,0.2,1.1v1
				c0,0.1-0.5,0.3-0.5,0v-0.9c0-0.2,0-0.5-0.1-0.9l-0.5-0.7c0,0,0-0.2,0.1-0.4c0.2-0.4,0.2-0.7,0-1l-0.4-0.7
				c-0.4-0.7-0.6-1.3-0.6-1.7c0.2-0.1,0.4-0.2,0.5-0.2l0.5-0.1l0.4-0.4h0.4l0.2,0.1c0.3,0.1,0.4,0.2,0.4,0.2v0.6l0.4,0.5
				c0.2,0.2,0.3,0.4,0.3,0.6C44.7,17.4,44.7,17.5,44.7,17.6z"/>
			<path class="st2" d="M74.8,43.9l0.1-0.8l0.2-0.7c1-3.7,1.3-9.1,0.7-10h-0.3l-0.2,0.2c-0.1,0.1-0.3,0.3-0.5,0.4c0,0.1,0,0.2,0,0.3
				c0.2,0.8,0.3,5-0.2,7c0,0.2-0.1,0.4-0.2,0.8c-0.2,0.9-0.3,1.4-0.4,1.5v0.7c0,0,0,0.1-0.1,0.1h-0.1l0,0c0,0,0,0-0.1,0
				c0.2-0.9,0.3-1.4,0.3-1.6c0.2-0.9,0.3-2.5,0.4-4.8c0-1,0.1-1.6,0.1-1.6l0.1-0.8c0,0,0-0.1-0.1-0.2l-0.1-0.1V33
				c0,0-0.2-0.1-0.5-0.4c-0.1,0-0.1,0-0.2,0c0,0.1-0.1,0.1-0.2,0.1c0.3,1.7,0.3,4.7-0.2,8.8c-0.1,0.7-0.1,1.5-0.2,2.4
				c-0.1,1.5-0.3,2.8-0.5,3.9c-0.4,1.6-0.5,2.4-0.5,2.4h0.2C73.5,49.4,74.3,47.2,74.8,43.9z"/>
			<path class="st2" d="M27.7,50c0.4,0,0.5-0.7,0.2-2c-0.1-0.8-0.3-3-0.7-4.4l0.4,0.4l-0.2-3.1L27,33.1c0-0.1-0.5-0.1-0.9,0.3
				c-0.1,1.4-0.1,3.3,0,6l0.4,4.9c-0.6-1.4-1-4.7-1-9.8c0-1.1-0.3-1.6-0.8-1.4c-0.3,2.4-0.1,5.8,0.8,10.2C26.2,47,26.9,49.3,27.7,50
				z"/>
			<path class="st2" d="M50.9,31.1c-0.4-0.3-0.6-0.4-0.6-0.4c-0.4-0.1-0.9-0.1-1.5,0.2c0.2,0.2,0.4,0.4,0.6,0.4l0.8,0.3
				c0.2,0.1,0.5,0.1,0.8,0.3V32c0,0-0.1,0.1-0.3,0.1v0.2c0.2,0.1,1.4,0.3,1.4,0v-0.2l-0.7-0.4L50.9,31.1z"/>
			<path class="st2" d="M39.7,47.5c-0.5-0.3-3.1-1-3.3-0.7c-0.1,0.3-0.1,0.5,0,0.5l2.8,0.6C39.6,48.1,39.8,47.9,39.7,47.5z"/>
			<path class="st2" d="M67.4,41.1l0.4-0.7c0.7-1.1,1.1-2,1.4-2.8c0.5-1.7,0.8-3.3,0.8-4.7c0-0.6,0-0.9-0.1-0.9
				c-0.1-0.1-0.5,0.2-0.5,0.3v1.4c0,0.5-0.2,1.3-0.5,2.3h-0.1l0.2-3.2c0-0.4,0-0.7-0.2-0.7h-0.2c-0.1,0-0.1,0.4-0.2,1.1
				c0,2.7-0.4,4.8-1.2,6.5l-0.4,0.7C66.2,41.8,67.1,41.5,67.4,41.1z"/>
			<path class="st2" d="M56.6,50.3c0,0-0.1,0.1-0.2,0.1c-0.1,0-0.1,0-0.5-0.4c-0.5-0.6-0.5-0.6-0.5-0.6v-0.1c0.1-0.1,0-0.2,0-0.2
				C55.3,49,55.2,49,55,49.2l-1,1.2c-0.1,0.1-0.1,0.1-0.2,0.2c-0.1,0-0.1,0.1-0.1,0.1c-0.1,0-0.1,0.1-0.1,0.3s0.1,0.3,0.1,0.4
				c0.1,0.1,0.3,0.1,0.4,0c0.1-0.1,0.1-0.1,0.1-0.2v-0.1c0-0.1,0-0.3,0.2-0.5s0.3-0.2,0.3-0.2s0.1,0,0.2,0.2
				c0.1,0.1,0.2,0.2,0.3,0.3c0.4,0.4,0.4,0.4,0.4,0.5s-0.1,0.1-0.1,0.2c0,0.1,0,0.2,0,0.2c0.1,0,0.2,0.1,0.8-0.5
				c0.3-0.3,0.5-0.5,0.5-0.6c0.1-0.2,0.1-0.2,0-0.3C56.8,50.3,56.7,50.3,56.6,50.3z"/>
			<path class="st2" d="M62.9,24.8c-0.1,0.5-0.1,0.8,0.1,0.8c1.3,0.8,2,2.3,2,4.3c0,1.1-0.3,2.5-1,4.5l-1,2.8
				c-0.3,0.9-0.5,2.1-0.4,3.2c0.2,2,3.4,2.3,3,0.2c-0.2-0.9-1.2-1-1.4-0.5H64c-0.2-0.6-0.2-1.5,0.2-2.8c0-0.1,0.5-1.9,1.4-4.9
				l0.1-1.8c0-1.2-0.5-3.8-0.8-4.4C64.2,25.2,63.5,24.7,62.9,24.8C63,24.8,63,24.8,62.9,24.8z"/>
			<path class="st2" d="M35.7,41.7c1,0.3,2-0.6,2.1-1.9c0-0.4,0-2-0.8-4.6c-0.7-2.4-1-4.5-0.8-6.2c0.1-1,0.4-1.7,0.9-2.2l0.5-0.6
				c0.2-0.2,0.3-0.5,0.2-0.8c-0.1-0.2-1.2,0.3-1.8,2c-0.7,2-0.6,4.9,0.3,8.7c0.5,2,0.5,3.1,0.2,3.5c0,0-0.2-0.1-0.4-0.1
				C34.9,39.1,34.1,41.3,35.7,41.7z"/>
			<path class="st2" d="M38.8,19v0.2c0.9,0.3,1.6,0.5,2,0.5h0.5c0.5,0,0.7-1.1,0.6-1.3l-0.5-0.8L41,16.8c-0.1-0.2-0.2-0.4-0.4-0.8
				c-0.4,0-1.5,0.6-1.6,1.6c0,0.3,0,0.5,0.1,0.5H40c0.1,0,0.1,0,0.1,0.1v0.3C39.5,18.7,39.1,18.9,38.8,19z M39.8,17.7
				c-0.4-0.2,0.2-1.1,0.6-1.1c0.3,0.7,0.5,1.1,0.6,1.3l0.4,0.6c0.2,0.3-0.2,0.8-0.4,0.8c-0.1,0-0.3,0-0.8-0.2
				c0.5-0.5,0.7-0.9,0.6-1.1c-0.1-0.2-0.3-0.3-0.6-0.3C40.2,17.7,39.8,17.7,39.8,17.7z"/>
			<path class="st2" d="M45.5,49.9l-1-1.2c-0.1-0.1-0.2-0.2-0.2-0.3l-0.1-0.1c-0.1-0.1-0.1-0.1-0.3-0.1s-0.4,0.1-0.4,0.1
				c-0.1,0.1-0.1,0.2,0,0.3c0,0,0.1,0.1,0.2,0.1h0.1c0.2,0,0.3,0.1,0.5,0.3l0.1,0.1c0.1,0.1,0.2,0.2,0.2,0.2s0,0.1-0.2,0.3
				c-0.1,0.1-0.2,0.1-0.2,0.1s-0.1,0-0.2-0.1c-0.1-0.1-0.1-0.2,0-0.2c0.1-0.1,0.1-0.1,0.1-0.1c0-0.1,0-0.1-0.1-0.2
				c-0.1-0.1-0.2-0.2-0.6,0.1c-0.3,0.3-0.3,0.4-0.2,0.5l0.1,0.1c0.1,0,0.1,0,0.2-0.1c0.1,0,0.1,0,0.2,0.1c0.1,0.2,0.1,0.2-0.1,0.3
				c-0.2,0.1-0.2,0.1-0.2,0.1s0,0-0.1-0.1c0,0-0.1-0.1-0.2-0.2c-0.2-0.2-0.2-0.4-0.2-0.5s0-0.1,0-0.2c0-0.1,0-0.1-0.1-0.2
				c-0.1-0.1-0.2-0.1-0.4,0c-0.2,0.2-0.2,0.4-0.1,0.5l0.1,0.1l0.1,0.1l1,1.2c0,0.1,0.1,0.1,0.1,0.2c0.1,0.2,0.2,0.2,0.3,0.1
				c0.1-0.1,0-0.2,0-0.4c0,0,0-0.1,0.5-0.5c0.4-0.3,0.5-0.4,0.6-0.4c0,0,0.2,0.2,0.3,0.1C45.6,50.2,45.6,50.1,45.5,49.9z"/>
			<path class="st2" d="M64.1,46.2c-0.1-0.3-0.8-0.4-2.2-0.3c-0.6,0-0.9,0.2-0.9,0.5s0.3,0.5,0.6,0.5C63.4,46.9,64.2,46.7,64.1,46.2
				z"/>
			<path class="st2" d="M71.6,32.3c-0.2-0.1-0.4,0-0.7,0.2c0.1,0.6,0.2,0.9,0.2,1v0.6l-0.3,2l0.1,1.3c0,0.1,0,0.2-0.1,0.2v0.2h-0.2
				v-1.1c0-0.8,0-1.4,0.1-1.8c0.2-1,0.3-1.8,0.1-2.2c-0.2-0.4-0.3-0.6-0.5-0.4l0,0l0,0l0,0v0.8c0,0.1-0.1,0.6-0.2,1.6
				c0,0.3-0.1,0.9-0.1,1.6c-0.1,2.1-0.4,4-0.9,5.6c-0.2,0.7-0.3,1.1-0.2,1.1c0.3,0.1,0.9-0.7,1.7-2.4C71.9,37.1,71.7,32.3,71.6,32.3
				z"/>
			<path class="st2" d="M65.8,38.9c0.5-0.1,1-0.7,1.5-1.8c0.8-1.7,1.2-4.7,0.7-5c-0.3,0.2-0.5,0.2-0.7,0.1c-0.1-0.1-0.3-0.1-0.4-0.1
				c0,0.1-0.1,0.7-0.2,1.7c-0.1,1.3-0.5,2.7-1.1,4.1c-0.2,0.6-0.3,0.9-0.3,1C65.5,38.9,65.6,38.9,65.8,38.9z"/>
			<path class="st2" d="M57.3,47.1c0-0.1-0.2,0-0.3,0.1s-0.1,0.1-0.2,0.2c0,0.1-0.1,0.1-0.2,0.2c-0.1,0.1-0.2,0.3-0.3,0.3
				c-0.1,0.1-0.1,0.1-0.2,0.2c-0.2,0.3-0.3,0.5-0.3,0.6c0,0.2,0,0.4,0.2,0.5c0.1,0.1,0.4,0.1,0.6,0c0.1,0,0.1,0,0.1,0s0,0,0,0.1v0.1
				c0,0.1,0,0.2,0.1,0.3c0.2,0.2,0.5,0.2,0.9-0.3c0.1-0.1,0.2-0.3,0.4-0.4c0.1-0.1,0.2-0.2,0.3-0.3c0-0.1,0.1-0.1,0.2-0.2
				c0.1-0.1,0.1-0.3,0-0.3h-0.1h-0.1c-0.1,0-0.1,0-0.4-0.3c-0.5-0.4-0.6-0.6-0.6-0.6c0-0.1,0-0.1,0-0.2
				C57.4,47.2,57.3,47.1,57.3,47.1L57.3,47.1L57.3,47.1z M57,48.5c-0.1,0.1-0.2,0.2-0.4,0c-0.1-0.1-0.1-0.3,0-0.4
				c0-0.1,0.1-0.1,0.2,0l0.3,0.2C57.1,48.4,57.1,48.4,57,48.5z M57.4,48.7L57.4,48.7l0.3,0.3c0,0,0.1,0,0,0.1s-0.2,0.1-0.4,0
				C57.2,48.9,57.2,48.8,57.4,48.7C57.3,48.6,57.4,48.6,57.4,48.7z"/>
			<path class="st2" d="M42.5,23.3c0,0,0.1,0,0.2-0.2c0.1-0.2,0-0.4-0.4-0.5c-0.2-0.1-1,0.5-2.4,1.5c-0.1,0.1-0.1,0.2,0,0.2
				c0.8,0.3,1.2,0.4,1.4,0.3l0.4-0.4C41.9,23.8,42.3,23.5,42.5,23.3z M41.5,23.8L41.4,24c-0.1,0.2-0.4,0.3-0.5,0.2
				c-0.1-0.1-0.1-0.3,0-0.3c0.2-0.1,0.3-0.2,0.5-0.4c0.3-0.2,0.4-0.4,0.6-0.4C42.2,23.2,41.6,23.6,41.5,23.8z"/>
			<path class="st2" d="M37.5,45.3c-0.1,0.2-0.1,0.3-0.2,0.3h-0.2l0,0l0,0L37,45c-0.6-0.1-1,1-0.6,1.3c0.2,0.2,2.8,0.9,2.8,0.5V46
				c0-0.3-0.3-0.3-0.9-0.2v-0.2C38.3,45.2,37.7,44.8,37.5,45.3z"/>
			<path class="st2" d="M53.5,53.2c-0.1-0.2-0.1-0.2-0.1-0.6c0-0.4,0-0.8,0-0.8c0-0.1,0-0.1,0-0.2c0,0,0.1-0.1,0.1-0.2v-0.1
				c0,0-0.1-0.1-0.2,0c0,0-0.1,0-0.4,0.2c-0.5,0.3-0.5,0.4-0.4,0.5c0,0,0.1,0.1,0.2,0c0.1,0,0.1,0,0.1,0v0.1c0,0-0.1,0.1-0.3,0.2
				c-0.4,0.2-0.5,0.3-0.5,0.2v-0.1c0-0.1,0.1-0.1,0-0.2c0-0.1-0.1-0.1-0.2,0c0,0-0.2,0.1-0.6,0.3c-0.4,0.2-0.4,0.3-0.5,0.4
				c0,0.1,0,0.1,0,0.2h0.1c0,0,0.1,0,0.2,0c0,0,0.1,0,0.2,0.1c0.2,0.1,0.4,0.2,0.5,0.3c0.8,0.4,0.9,0.4,0.9,0.4c0.3,0,0.4,0,0.6-0.1
				C53.6,53.6,53.6,53.4,53.5,53.2L53.5,53.2z M52.9,53c-0.1,0-0.4-0.1-0.5-0.1c0,0,0,0,0.1-0.1l0.3-0.2h0.1
				C52.9,52.6,52.9,52.7,52.9,53C53,52.9,53,53,52.9,53z"/>
			<path class="st2" d="M61,44.4c0.2-0.5,0.1-0.6,0-0.6h-0.1l-0.1,0.1c0,0-0.1,0-0.2,0l0,0c-0.1,0-0.1-0.1,0-0.3
				c0.1-0.3,0.1-0.3,0.2-0.2c0.2,0.1,0.3,0.1,0.3,0.2c0,0.1,0,0.1,0.1,0.2c0,0,0,0,0.1,0.1c0.1,0,0.1,0,0.2-0.1c0,0,0.1-0.1,0.2-0.4
				c0.1-0.2,0.1-0.4,0.1-0.5s0-0.2-0.1-0.2h-0.1l-0.1,0.1c0,0,0,0-0.2,0c-0.1,0-0.3-0.1-0.4-0.1c-0.1,0-0.3-0.1-0.4-0.2
				c-0.2-0.1-0.2-0.1-0.2-0.2c0-0.1,0-0.1-0.1-0.2c-0.1,0-0.1,0-0.2,0.1c0,0-0.1,0.2-0.2,0.4c-0.1,0.3-0.1,0.5-0.1,0.5
				c0,0.1,0,0.1,0.1,0.2c0,0,0.1,0,0.2,0c0.1-0.1,0.1-0.1,0.2,0c0.1,0,0.2,0.1,0.2,0.1c0.1,0,0.1,0.1,0.1,0.1s0,0.1-0.1,0.2
				c-0.1,0.3-0.1,0.3-0.3,0.2s-0.3-0.2-0.3-0.2c0-0.1,0-0.1-0.1-0.2c0,0,0-0.1-0.1-0.1c0,0-0.1,0-0.2,0.1c0,0,0,0-0.1,0.2
				c0,0.1-0.1,0.2-0.1,0.3c-0.1,0.2-0.1,0.3-0.1,0.5c0,0.1,0,0.2,0.1,0.2h0.1c0.1,0,0.1-0.1,0.1-0.1s0,0,0.2,0.1
				c0.1,0,0.2,0.1,0.4,0.1c0.2,0.1,0.3,0.1,0.5,0.2c0.2,0.1,0.2,0.1,0.2,0.2c0,0.1,0,0.2,0.1,0.2s0.1,0,0.2-0.1
				C60.8,44.8,60.9,44.6,61,44.4z"/>
			<path class="st2" d="M50.1,53.3c-0.4-0.2-0.5-0.2-0.5-0.2c-0.1,0-0.1,0-0.2,0.1v0.1c0,0,0,0.1,0.1,0.1c0,0.1,0,0.1-0.1,0.4
				c-0.1,0.2-0.1,0.1-0.2,0.1c-0.1,0-0.1-0.1-0.1-0.2c0,0,0-0.1,0-0.2c0-0.1,0.1-0.2,0.1-0.3c0-0.2-0.1-0.4-0.4-0.5
				c-0.2-0.1-0.4-0.1-0.4-0.1c-0.1,0-0.1,0-0.2,0.1v0.1l0.1,0.1c0,0,0,0,0,0.1s0,0.1-0.1,0.2c-0.1,0.3,0.1,0.4,0.2,0.5v0.1l0,0h-0.1
				c-0.2,0-0.3,0.1-0.4,0.3c-0.1,0.2,0,0.6,0.5,0.9c0.2,0.1,0.4,0.2,0.6,0.3c0.2,0.1,0.3,0.2,0.5,0.3c0.3,0.1,0.4,0.1,0.4,0
				c0,0,0-0.1,0-0.2c0-0.1-0.1-0.1,0-0.3c0,0,0.1-0.2,0.2-0.5c0.2-0.4,0.3-0.5,0.4-0.6c0.1,0,0.2,0,0.3-0.1
				C50.7,53.6,50.4,53.4,50.1,53.3z M49.1,54.4c-0.1,0.2-0.2,0.2-0.2,0.2c-0.1-0.1-0.2-0.2-0.1-0.3c0.1-0.2,0.2-0.2,0.4-0.1
				c0,0,0.1,0,0.1,0.1C49.2,54.2,49.2,54.2,49.1,54.4z"/>
			<path class="st2" d="M59.8,46.1c-0.2-0.1-0.2-0.2-0.4-0.5S59,44.9,59,44.9c0-0.1,0-0.1,0-0.2c0,0,0.1-0.1,0.1-0.2
				c0-0.1,0-0.1-0.1-0.1c0,0-0.1,0-0.2,0c0,0-0.1,0.1-0.3,0.4c-0.3,0.5-0.2,0.6-0.2,0.6s0.1,0,0.2,0c0.1-0.1,0.1-0.1,0.1,0v0.1
				c0,0,0,0.1-0.2,0.3c-0.2,0.4-0.3,0.4-0.4,0.4c-0.1,0,0-0.1,0-0.2c0-0.1,0-0.1-0.1-0.1c0,0-0.1,0-0.2,0.1c0,0-0.2,0.2-0.4,0.5
				C57.1,46.9,57,47,57,47.1s0,0.1,0.1,0.1l0,0l0,0h0.1l0.1-0.1c0,0,0.1,0,0.2,0c0.2,0,0.4,0,0.6,0c0.8,0,1,0,1,0
				c0.2-0.1,0.4-0.2,0.5-0.3C60,46.4,60,46.2,59.8,46.1L59.8,46.1z M59.2,46.1c0,0.1-0.4,0.1-0.5,0.1c0,0,0,0,0-0.1l0.2-0.3
				c0-0.1,0,0,0-0.1C58.9,45.7,59,45.8,59.2,46.1C59.2,46,59.2,46.1,59.2,46.1z"/>
			<path class="st2" d="M29.7,45.4h0.2c0.5-1.2,0.5-2.3,0-3.5l-0.3-0.8c0-0.1,0-0.4,0.2-1c0.2-0.8,0.1-1.6-0.3-2.2l-0.3-0.4
				c-0.1-0.1,0-0.4,0.1-1.1c0.1-0.4,0.1-0.7,0.1-0.9c-0.1-0.4-0.2-0.9-0.1-1.3c0-0.8,0.1-1.2-0.2-1.6c-0.5-0.2-0.6,0.5-0.5,2
				c0.1,1.3,0.2,3,0.4,5l0.1,2.5c-0.5-1.7-0.8-4.5-0.8-8.4V33c0-0.1-0.5-0.6-0.7-0.4c-0.1,0.1,0.2,6.9,0.4,7.9
				C28.3,42.7,29.3,45.4,29.7,45.4z"/>
			<path class="st2" d="M32.4,39.6c0.5,1,1,1.6,1.5,1.8c0,0,0,0,0-0.1l-0.3-1c-0.2-0.4-0.2-1.2-0.3-2.5L33,37.1l-0.5-5.3h-0.3
				c-0.1,0-0.2,0.1-0.2,0.3l0.4,5.1c0,0,0,0.1-0.1,0.1c0-0.3-0.2-1.6-0.5-4.1l-0.1-0.8c0-0.2-0.2-0.3-0.5-0.5v0.4l0.1,1.7
				C31.4,37.2,31.6,38.2,32.4,39.6z"/>
			<path class="st2" d="M48.1,52.5C48.2,52.5,48.2,52.5,48.1,52.5c0.1-0.1,0.1-0.1,0.1-0.2c0,0-0.1-0.1-0.3-0.3
				c-0.5-0.4-0.6-0.3-0.6-0.3s0,0.1,0,0.2c0,0.1,0,0.1,0,0.1h-0.1c0,0-0.1-0.1-0.3-0.2c-0.4-0.3-0.4-0.4-0.4-0.4c0-0.1,0.1,0,0.1,0
				c0.1,0,0.1,0,0.2,0c0,0,0-0.1,0-0.2c0,0-0.2-0.2-0.5-0.5c-0.4-0.3-0.5-0.3-0.5-0.3c-0.1,0-0.1,0-0.2,0c0,0,0,0.1,0,0.2l0.1,0.1
				c0,0,0,0.1,0,0.2c0,0.2-0.1,0.4-0.1,0.6c-0.1,0.8-0.1,1-0.1,1c0,0.3,0.1,0.4,0.3,0.5c0.2,0.2,0.4,0.2,0.5,0l0,0
				c0.1-0.1,0.2-0.2,0.5-0.3s0.7-0.3,0.8-0.3s0.1,0,0.2,0C48,52.5,48,52.5,48.1,52.5z M46.8,52.3c0,0,0,0-0.2,0.1c0,0-0.1,0.1-0.1,0
				c-0.1-0.1,0-0.5,0-0.5s0,0,0.1,0L46.8,52.3C46.9,52.3,46.9,52.3,46.8,52.3z"/>
			<path class="st2" d="M42.4,48.8c0,0,0-0.1,0.4-0.4c0.6-0.5,0.7-0.4,0.7-0.4s0.1,0,0.1,0.1c0.1,0,0.2,0.1,0.2,0
				c0.1,0,0.1-0.2-0.1-0.4l-1-1.3c-0.1-0.1-0.1-0.1-0.1-0.2c0-0.1,0-0.1-0.1-0.2c0,0-0.1-0.1-0.3-0.1s-0.3,0-0.4,0.1
				c-0.1,0.1-0.1,0.3,0,0.4c0,0.1,0.1,0.1,0.2,0.1h0.1c0.1,0,0.3,0,0.5,0.2c0.2,0.3,0.2,0.3,0.1,0.4c0,0-0.1,0-0.2,0.2
				c-0.1,0.1-0.2,0.2-0.3,0.3c-0.4,0.3-0.4,0.3-0.5,0.3s-0.1-0.1-0.2-0.1c-0.1,0-0.1,0-0.2,0c-0.1,0-0.2,0.2,0.4,0.9
				c0.3,0.4,0.5,0.5,0.5,0.5c0.1,0.1,0.2,0.1,0.3,0.1c0,0,0.1-0.1,0-0.2C42.4,49,42.4,48.9,42.4,48.8z"/>
			<path class="st2" d="M64,52.3c0.7-0.2,1-0.4,1-0.7c0.1-0.4,0.1-0.7,0-1.1c0-0.8-0.2-1.1-0.7-1c-0.1,0-0.1,0.2-0.1,0.5
				c0,0.2,0,0.3,0,0.4v0.4c0,0.5-0.2,0.8-0.7,0.7c-0.2-0.1-0.2-0.4-0.3-0.5v-0.6c0-0.1-0.1-0.3-0.2-0.5c-0.3-0.1-0.5,0-0.6,0.2
				c0,0.1,0.1,1.4,0.1,1.5C62.8,52.3,63.3,52.5,64,52.3z"/>
			<path class="st2" d="M35.7,51.7c0.8,0.1,1.2-0.1,1.4-0.8c0-0.1,0.1-1.4,0.1-1.5c-0.1-0.2-0.3-0.3-0.6-0.2
				c-0.1,0.2-0.2,0.4-0.2,0.5v0.6c0,0.1-0.1,0.5-0.3,0.5c-0.5,0.1-0.8-0.1-0.7-0.7v-0.4c0-0.1,0-0.2,0-0.4c0-0.3,0-0.5-0.1-0.5
				c-0.5-0.2-0.7,0.2-0.7,1c-0.1,0.4-0.1,0.7,0,1.1C34.7,51.4,35,51.6,35.7,51.7z"/>
			<path class="st2" d="M46.9,27.4c0,0.2,0.3,0.2,0.6,0.2c0.4,0,0.5,0,0.6-0.1c0.1,0,0.1-0.1,0.1-0.1s0-0.1-0.1-0.1H48
				c0,0-0.1-0.1-0.1-0.4c0-0.2,0-0.2,0.1-0.2s0.1,0,0.2,0.1c0,0,0,0,0.1,0.2c0,0.1,0.1,0.2,0.1,0.3c0.1,0.2,0.2,0.3,0.6,0.3
				c0.2,0,0.4,0,0.4-0.1c0.1,0,0.1-0.1,0.1-0.1s0-0.1-0.1-0.1c0,0-0.1,0-0.1-0.1c0,0,0,0,0-0.1s0-0.1,0-0.2
				c-0.1-0.3-0.2-0.3-0.4-0.4l0,0l0,0c0,0,0,0,0.1,0c0.2-0.1,0.3-0.2,0.3-0.4c0-0.3-0.3-0.5-0.8-0.5c-0.2,0-0.4,0-0.6,0
				c-0.2,0-0.4,0-0.5,0c-0.3,0-0.3,0.1-0.3,0.2c0,0,0,0.1,0.1,0.1c0.1,0.1,0.1,0.1,0.1,0.2c0,0,0,0.2,0,0.5c0,0.4,0,0.6-0.1,0.7
				C47.1,27.3,46.9,27.3,46.9,27.4z M48.1,25.8c0.1,0,0.2,0.1,0.2,0.3c0,0.2-0.1,0.3-0.3,0.3h-0.1c0,0,0,0,0-0.2
				C48,25.9,48,25.8,48.1,25.8z"/>
			<path class="st2" d="M31.7,42.5c0.2,0,0.3,0,0.3-0.3l-0.2-0.8c0-0.1-0.1-0.7-0.2-1.6c0-0.5-0.1-0.7-0.1-0.8l-0.2-0.8
				c-0.1-0.2-0.1-0.7-0.1-1.6c0-0.5-0.1-0.9-0.2-1.2c0-0.1-0.2-0.5-0.1-0.9c0.1-1,0-1.6-0.3-2.4c-0.2,0-0.3,0.3-0.3,1l0.7,6.4
				l-0.4-0.7l-0.3-2.1c0-0.2-0.1-1.1-0.2-2.6c0-0.7-0.1-1.3-0.2-1.7h-0.3c-0.3,0-0.2,1.7,0.2,5C30.3,40.7,30.9,42.3,31.7,42.5z"/>
			<path class="st2" d="M41.5,44.6c0,0,0.1,0.2,0.2,0.1c0.1,0,0.2-0.1,0.1-0.3l-0.4-1.3c0-0.1,0-0.2-0.1-0.3v-0.1c0,0,0-0.1-0.2-0.2
				c-0.2,0-0.3,0-0.4,0c-0.1,0-0.2,0.2-0.2,0.2l0.1,0.1c0.1,0,0.1,0,0.1,0c0.2,0.1,0.3,0.2,0.3,0.4c0,0.1,0,0.1,0,0.1
				c0,0.2,0.1,0.2,0,0.3c0,0,0,0.1-0.3,0.2c-0.1,0-0.2,0-0.2,0s0,0-0.1-0.1c0-0.1,0-0.2,0.1-0.2s0.1,0,0.1-0.1s0-0.1,0-0.1
				c0-0.1-0.1-0.2-0.5-0.1c-0.4,0.1-0.4,0.3-0.4,0.4c0,0.1,0,0.1,0.1,0.1s0.1,0,0.2,0c0,0,0.1,0,0.1,0.1c0,0.2,0,0.2-0.2,0.2
				s-0.2,0-0.2,0s0,0-0.1-0.1c0,0,0-0.1-0.1-0.2c0-0.2,0-0.3,0-0.5l0.1-0.1V43c0-0.1-0.1-0.2-0.3-0.1C39,43,39,43.2,39,43.3l0.1,0.1
				c0,0,0,0.1,0,0.2l0.4,1.3V45c0,0.2,0.1,0.2,0.2,0.2c0.1,0,0.1-0.2,0.2-0.3c0,0,0-0.1,0.6-0.3C41.3,44.5,41.4,44.5,41.5,44.6z"/>
			<path class="st2" d="M25.2,25.5l-0.4,5.7c0,0.1,0.4,0.9,0.8,0.9h0.8c0.4,0,0.7-0.8,0.7-2.3v-0.9l0.1-0.9c0.1-1.2,0.1-1.8-0.1-1.8
				c-0.1,0-0.2,0-0.4,0c0,0.3-0.1,0.8-0.1,1.7c-0.1,1.8-0.3,2.9-0.6,3.4c-0.1,0-0.1,0-0.3,0c-0.2-0.4-0.3-0.8-0.3-1.3l0.4-4.4
				C25.5,25.4,25.3,25.3,25.2,25.5C25.2,25.5,25.2,25.5,25.2,25.5z"/>
			<path class="st2" d="M34.9,39.1h0.2c0.1,0,0-0.6-0.4-1.9c-0.3-1-0.5-2.1-0.6-3.2c-0.1-0.5-0.1-2.5-0.7-2.4
				c0.2,1.1,0.6,3.8,0.6,4.8L33.8,36c-0.1-1.6-0.5-3.8-0.8-4.2c-0.2-0.2-0.3,0.1-0.3,0.9c0.3,2.3,0.5,3.9,0.9,4.6
				C34.2,38.5,34.7,39.1,34.9,39.1z"/>
			<path class="st2" d="M61.5,52.8c0.5-0.1,0.9-0.5,0.9-0.8l-0.1-1.6c0-0.4-0.6-0.5-0.7,0l0.1,1.4c0,0.4-0.8,0.7-0.9,0l-0.1-0.7
				c0-0.4-0.7-0.8-0.7-0.1v0.6c0,0.5,0,0.9,0.1,1C60.4,52.9,61.1,52.9,61.5,52.8z"/>
			<path class="st2" d="M38.2,52c0.5,0.1,1.2,0,1.4-0.5c0-0.1,0.1-0.4,0.1-1V50c0-0.6-0.7-0.2-0.7,0.2L38.9,51
				c-0.1,0.7-0.9,0.3-0.9,0l0.1-1.4c0-0.4-0.6-0.4-0.7,0.1l-0.1,1.6C37.3,51.6,37.7,51.9,38.2,52z"/>
			<path class="st2" d="M41.7,25.8c0.1,0.1,0.1,0.1,0.1,0.6c0,0.7,0,0.7,0,0.7c0,0.1,0,0.1-0.1,0.1c-0.1,0.1-0.1,0.1-0.1,0.1
				c0,0.1,0,0.2,0.7,0.2s0.7-0.1,0.7-0.2c0,0,0-0.1-0.1-0.1h-0.1c0,0-0.1-0.1-0.1-0.3c0-0.1,0-0.1,0.1-0.1s0.1,0,0.2,0
				c0.3,0,0.5-0.1,0.6-0.1c0.2-0.1,0.3-0.3,0.3-0.6c0-0.4-0.3-0.6-0.9-0.6c-0.3,0-0.5,0-0.8,0c-0.2,0-0.3,0-0.5,0s-0.3,0.1-0.3,0.2
				s0,0.1,0.1,0.1C41.6,25.8,41.6,25.8,41.7,25.8z M42.6,25.9C42.6,25.9,42.6,25.8,42.6,25.9c0.2-0.1,0.4,0,0.4,0.2
				s-0.2,0.3-0.3,0.3s-0.1,0-0.1-0.1c0,0,0,0,0-0.1L42.6,25.9C42.6,26,42.6,25.9,42.6,25.9z"/>
			<path class="st2" d="M73.7,28.1V30c0,1.6,0.3,2.3,1.2,2.4c0.4,0,1.2-0.4,1.2-1.7v-2.8c0-0.5-0.7-0.3-0.7,0.1v3
				c0,0.2-0.4,0.6-0.7,0.3c-0.2-0.2-0.2-0.6-0.2-0.9v-2.1C74.5,27.4,73.7,27.6,73.7,28.1z"/>
			<path class="st2" d="M45.3,27.6c0.7,0,1.2-0.4,1.2-1.1c0-0.6-0.5-1.1-1.2-1.1s-1.2,0.4-1.2,1.1S44.6,27.6,45.3,27.6z M45,26.1
				c0.1-0.2,0.2-0.3,0.3-0.2c0.1,0,0.2,0.1,0.3,0.3c0,0.2,0,0.5,0,0.7c-0.1,0.2-0.2,0.3-0.3,0.2c-0.1,0-0.1-0.1-0.2-0.1
				C45,26.9,44.9,26.4,45,26.1z"/>
			<path class="st2" d="M75.4,23.3c-0.1,0.3-0.1,0.6-0.1,0.8v0.8c-0.1,0.3-0.1,0.6-0.2,0.8c-0.5,0.3-0.7,0.1-0.7-0.6l-0.1-0.4
				c0-0.1,0-0.2,0-0.4c0-0.4-0.1-0.5-0.2-0.5c-0.4,0.1-0.4,0.6-0.4,1.3c0,0.5,0.1,0.9,0.3,1.4c0.2,0.4,0.2,0.6,0.8,0.6
				c0.6-0.1,1-0.8,1-1.3c0-0.6,0.1-1.5,0.1-2.1C75.8,23.2,75.7,23.1,75.4,23.3z"/>
			<path class="st2" d="M58.1,51.6c-0.1-0.1-0.3,0-0.4,0.1c-0.1,0.1-0.1,0.3,0,0.6c0.1,0.5,0.3,0.8,0.5,0.9c0.1,0,1,0,1.4-0.4
				c0.2-0.2,0.3-0.7,0.3-1.4c0-0.4,0-0.6-0.2-0.6C59.3,50.6,59,51,59,52.1c0,0.3-0.5,0.7-0.6,0.2C58.3,51.8,58.2,51.6,58.1,51.6z"/>
			<path class="st2" d="M40.1,51.9c0.4,0.4,1.3,0.4,1.4,0.3c0.3-0.1,0.4-0.4,0.5-0.9c0.1-0.4,0-0.6,0-0.6c-0.1-0.1-0.3-0.1-0.4-0.1
				c-0.1,0-0.2,0.3-0.3,0.7s-0.6,0.1-0.6-0.2c0-1-0.2-1.4-0.7-1.2c-0.1,0.1-0.2,0.3-0.2,0.6C39.9,51.3,40,51.7,40.1,51.9z"/>
			<path class="st2" d="M29.1,50.1c0-0.2,0-0.3-0.1-0.3h-0.2h-0.2l-0.4,0.3l-0.4,0.1c-0.7,0.1-1,0.4-1,0.7v0.7
				c0,0.1,0.4,0.5,0.6-0.2h0.5c0-0.1,0.1-0.2,0.2-0.2L28,50.7h0.2C28.7,50.7,29,50.5,29.1,50.1z"/>
			<path class="st2" d="M60.1,37.1c0.2,0,0.3-0.2,0.3-0.3s0-0.1-0.1-0.2c-0.1-0.1-0.2-0.1-0.2-0.2c0-0.1-0.1-0.2-0.1-0.4
				s0-0.3,0.1-0.3c0,0,0.1,0,0.1,0.1l1.3,1.1c0.1,0.1,0.1,0.1,0.1,0.1c0.1,0,0.1-0.1,0.1-0.2v-0.1V35c0-0.1,0-0.2,0-0.3v-0.1
				c0,0,0-0.1-0.1-0.2c-0.1-0.2-0.3-0.3-0.4-0.3c-0.2,0-0.3,0.2-0.3,0.3s0,0.1,0.1,0.2c0.1,0.1,0.2,0.1,0.2,0.2
				c0.1,0.1,0.1,0.2,0.1,0.3c0,0.3,0,0.3-0.1,0.3c0,0,0,0-0.1,0l-1.3-1.2c-0.1-0.1-0.1-0.1-0.1-0.1c-0.1,0-0.1,0.1-0.1,0.1
				s0,0.1,0,0.2v1.7c0,0.2,0,0.3,0,0.4c0,0.1,0,0.1,0,0.2C59.6,36.9,59.9,37.1,60.1,37.1z"/>
			<path class="st2" d="M71.4,45.7L71.4,45.7c0.4,0.4,1.2-1.4,1.5-2.6c0.6-2.4,0.8-10.1,0.5-10.5c-0.1-0.1-0.3-0.1-0.7,0.1
				c0.1,0.3,0.1,1.6,0,3.8c-0.1,2.3-0.2,3.6-0.4,4h-0.1v-2.4c0-0.2,0-1.5,0.1-3.9c0-1.2-0.1-1.8-0.3-1.8l0,0v1.7c0,0.1,0,0.3,0,1
				l0.1,1.5l-0.3,0.8l-0.1,1c-0.1,0.6-0.1,0.9-0.1,1v2.1l0.1,0.3c0,0.2,0.1,0.4,0.1,0.5v1.4L71.4,45.7z"/>
			<path class="st2" d="M60,39.2C59.9,39.2,59.9,39.1,60,39.2C59.9,39,59.8,39,59.8,39c-0.1,0-0.1,0-0.1,0.2c0,0-0.1,0.3-0.1,0.8
				s0.1,0.6,0.1,0.7c0,0.1,0.1,0.1,0.1,0.1c0.1,0,0.1,0,0.1-0.1s0-0.1,0-0.2c0,0,0-0.1,0.1-0.1c0.2-0.1,0.4-0.2,0.5-0.4
				c0.7-0.5,0.8-0.6,0.9-0.6c0.2-0.2,0.2-0.4,0.2-0.6c0-0.3-0.1-0.5-0.3-0.5c0,0,0,0-0.1,0c-0.2,0-0.3,0-0.6-0.2s-0.7-0.4-0.7-0.5
				c0.1-0.2,0.1-0.2,0.1-0.2c0-0.1,0-0.2-0.1-0.2l-0.1-0.1c0,0-0.1,0-0.1,0.1c0,0-0.1,0.2-0.1,0.5c0,0.7,0.1,0.7,0.2,0.7
				c0,0,0.1,0,0.1-0.2c0-0.1,0.1-0.1,0.1-0.1s0.1,0,0.1,0.1c0,0,0,0.2,0,0.4C60.1,39.1,60.1,39.2,60,39.2z M60.5,38.4L60.5,38.4
				c0-0.1,0.1-0.1,0.3,0.1l0.1,0.1c0,0.1-0.3,0.3-0.4,0.3c0,0,0,0,0-0.1C60.5,38.8,60.5,38.4,60.5,38.4z"/>
			<path class="st2" d="M60,32.7C59.9,32.7,59.9,32.6,60,32.7c-0.1-0.2-0.2-0.2-0.2-0.2c-0.1,0-0.1,0-0.2,0.2c0,0,0,0.2,0,0.7
				s0,0.6,0.1,0.6c0,0.1,0.1,0.1,0.1,0.1s0.1,0,0.1-0.1c0,0,0-0.1,0-0.2c0,0,0,0,0.2-0.1s0.4-0.2,0.5-0.3c0.7-0.5,0.8-0.6,0.9-0.6
				c0.2-0.2,0.2-0.4,0.2-0.5c0-0.3-0.1-0.4-0.3-0.4c0,0,0,0-0.1,0c-0.2,0-0.3,0-0.6-0.2S60,31.3,60,31.3c0-0.2,0-0.2,0-0.3
				c0,0,0-0.1-0.1-0.2l-0.1-0.1c0,0-0.1,0-0.1,0.1c0,0-0.1,0.2-0.1,0.5c0,0.6,0.1,0.6,0.2,0.6c0.1,0,0.1,0,0.1-0.2
				c0-0.1,0-0.1,0.1-0.1c0,0,0.1,0,0.1,0.1c0,0,0,0.2,0,0.4C60.1,32.7,60.1,32.7,60,32.7z M60.5,32L60.5,32c0-0.1,0.1,0,0.3,0.1
				l0.1,0.1c0,0.1-0.3,0.3-0.4,0.3c0,0,0,0,0-0.1C60.5,32.4,60.5,32,60.5,32z"/>
			<path class="st2" d="M40.4,34.8c0.1,0,0.2-0.1,0.3-0.1c0.2-0.1,0.3-0.2,0.3-0.6c0-0.2,0-0.4-0.1-0.5c0-0.1-0.1-0.1-0.1-0.1l0,0
				l0,0c0,0-0.1,0-0.1,0.1c0,0,0,0.1-0.1,0.1c0,0,0,0-0.1,0s-0.1,0-0.2,0c-0.3,0.1-0.3,0.2-0.4,0.4c0,0.1,0,0.1,0,0.1l0,0
				c0,0,0,0,0-0.1c-0.1-0.2-0.2-0.3-0.4-0.3c-0.3,0-0.5,0.3-0.5,0.9c0,0.2,0,0.4,0,0.7c0,0.2,0,0.4,0,0.6c0,0.3,0.1,0.4,0.2,0.4
				c0,0,0.1,0,0.1-0.1c0.1-0.1,0.1-0.1,0.2-0.2c0,0,0.2,0,0.5,0c0.4,0,0.6,0,0.7,0.1c0.1,0.1,0.1,0.2,0.2,0.2c0.2,0,0.2-0.4,0.2-0.7
				c0-0.5,0-0.6-0.1-0.6c0-0.1-0.1-0.1-0.1-0.1c-0.1,0-0.1,0-0.1,0.1c0,0,0,0.1-0.1,0.1c0,0-0.1,0.1-0.4,0.1c-0.2,0-0.2,0-0.2-0.1
				s0-0.1,0.1-0.2C40.2,34.9,40.2,34.9,40.4,34.8z M39.7,35.2c0,0,0,0-0.2,0s-0.3,0-0.3-0.1c0-0.2,0.1-0.3,0.3-0.3
				C39.7,34.9,39.8,35,39.7,35.2C39.8,35.2,39.7,35.2,39.7,35.2z"/>
			<path class="st2" d="M60.3,29c-0.1,0-0.2,0.1-0.3,0.1c-0.2,0.1-0.3,0.2-0.3,0.5c0,0.2,0,0.4,0.1,0.4c0,0.1,0.1,0.1,0.1,0.1
				s0.1,0,0.1-0.1c0,0,0-0.1,0.1-0.1c0,0,0,0,0.1,0s0.1,0,0.2,0c0.3-0.1,0.3-0.2,0.4-0.4c0-0.1,0-0.1,0-0.1l0,0c0,0,0,0,0,0.1
				c0.1,0.2,0.2,0.3,0.4,0.3c0.3,0,0.5-0.3,0.5-0.8c0-0.2,0-0.4,0-0.6s0-0.3,0-0.5c0-0.3-0.1-0.3-0.2-0.3c0,0-0.1,0-0.1,0.1
				c-0.1,0.1-0.1,0.1-0.2,0.1c0,0-0.2,0-0.5,0c-0.4,0-0.6,0-0.7-0.1c-0.1,0-0.1-0.2-0.2-0.2c-0.2,0-0.2,0.3-0.2,0.6
				c0,0.4,0,0.5,0.1,0.5c0,0.1,0.1,0.1,0.1,0.1s0.1,0,0.1-0.1c0,0,0-0.1,0.1-0.1c0,0,0.1-0.1,0.4-0.1c0.2,0,0.2,0,0.2,0.1
				s0,0.1-0.1,0.2C60.4,29,60.4,29,60.3,29z M60.9,28.7c0,0,0,0,0.2,0c0.3,0,0.3,0,0.3,0.1S61.3,29,61.1,29
				C60.9,29,60.9,28.9,60.9,28.7L60.9,28.7z"/>
			<path class="st2" d="M38.8,31.6v0.1c0,0.2,0.3,0.4,0.6,0.4c0.2,0,0.3-0.1,0.3-0.2c0-0.2-0.2-0.3-0.3-0.4s-0.1-0.1-0.1-0.1l0,0
				c0,0,0-0.1,0.3-0.1c0.1,0,0.1,0,0.2,0c0.1,0,0.4,0,0.6,0c0.2,0,0.2,0,0.3,0.1c0,0,0,0.1,0.1,0.2h0.1c0.1,0,0.2,0,0.2-0.7
				c0-0.8-0.2-0.8-0.2-0.8c-0.1,0-0.1,0-0.1,0.1s-0.1,0.2-0.2,0.2c0,0-0.3,0-0.7,0c-0.2,0-0.3,0-0.3,0c-0.1,0-0.1-0.1-0.1-0.1
				s0-0.1,0.1-0.2s0.1-0.1,0.2-0.1c0.1-0.1,0.1-0.1,0.1-0.2s-0.1-0.2-0.3-0.2c-0.1,0-0.3,0.1-0.5,0.2C39,29.9,39,30,39,30v0.1
				c0,0.1,0,0.1,0,0.2v1.1C38.9,31.5,38.9,31.5,38.8,31.6z"/>
			<path class="st2" d="M39.7,28.3c-0.1,0-0.1,0.1-0.3,0.1h-0.1c-0.1,0-0.1,0-0.1-0.1l-0.1-0.1c-0.1,0-0.1,0-0.2,0.2
				c0,0,0,0.2,0,0.4c0,0.4,0,0.5,0.1,0.5c0,0.1,0.1,0.1,0.2,0.1c0.1,0,0.1,0,0.1-0.1c0,0,0-0.1,0.1-0.2c0,0,0,0,0.1-0.1l1.3-0.6
				c0.2-0.1,0.3-0.2,0.3-0.3s0-0.2-0.3-0.3l-1.3-0.6c-0.1,0-0.1-0.1-0.2-0.1c0-0.1,0-0.1-0.1-0.2c0-0.1-0.1-0.1-0.1-0.1
				c-0.1,0-0.1,0-0.2,0.1c0,0,0,0.2,0,0.3c0,0.4,0.1,0.5,0.2,0.5c0.1,0,0.1-0.1,0.1-0.1s0,0,0.1,0c0,0,0.1,0,0.2,0.1
				c0.4,0.2,0.4,0.2,0.4,0.2C39.8,28.2,39.8,28.3,39.7,28.3z"/>
			<path class="st2" d="M39,40.1C39.1,40.1,39.1,40.1,39,40.1c0.1-0.1,0.1-0.2,0.2-0.3c0.1-0.1,0.1-0.1,0.6-0.1c0.7,0,0.7,0,0.7,0
				c0.1,0,0.1,0,0.1,0.1c0.1,0.1,0.1,0.1,0.1,0.1c0.1,0,0.2,0,0.2-0.7s-0.2-0.7-0.2-0.7c-0.1,0-0.1,0-0.1,0.1c0,0,0,0.1-0.1,0.1
				c0,0-0.1,0.1-0.3,0.1c-0.1,0-0.1,0-0.1-0.1c0,0,0-0.1,0-0.2c0-0.3-0.1-0.5-0.1-0.6c-0.1-0.2-0.3-0.3-0.6-0.3
				c-0.4,0-0.6,0.3-0.6,0.9c0,0.3,0,0.5,0,0.8c0,0.1,0,0.3,0,0.4C38.9,40,38.9,40.1,39,40.1z M39.5,38.5c0.2,0,0.3,0.2,0.3,0.3
				c0,0,0,0.1-0.1,0.1c0,0,0,0-0.1,0h-0.2c-0.1,0-0.2,0-0.2,0c-0.1,0-0.1,0-0.1-0.1C39.2,38.7,39.3,38.5,39.5,38.5z"/>
			<path class="st2" d="M62.4,48c-0.1-0.5-0.5-0.6-1.2-0.6c-0.6,0.1-0.9,0.2-0.9,0.5c-0.1,0.3-0.1,0.5,0,0.8c0,0.6,0.2,0.8,0.6,0.7
				c0.1,0,0.1-0.1,0.1-0.4c0-0.2,0-0.3,0-0.3v-0.3c0-0.4,0.2-0.6,0.6-0.5c0.1,0,0.2,0.3,0.2,0.4v0.4c0,0.1,0.1,0.2,0.2,0.4
				c0.3,0.1,0.4,0,0.5-0.1C62.5,49,62.4,48.1,62.4,48z"/>
			<path class="st2" d="M40.1,41.8c0-0.1,0.1-0.2,0.2-0.4c0-0.2,0-0.2,0.1-0.2l0.1-0.1c0.1,0,0.1,0,0.1,0.2c0,0.1,0,0.2-0.1,0.3
				c0,0-0.1,0.1-0.2,0.2c-0.1,0.1-0.2,0.1-0.2,0.3c0,0.1,0,0.1,0.1,0.1c0,0,0,0,0.1,0s0.4,0,0.5-0.2c0.1-0.1,0.2-0.3,0.2-0.7
				c0-0.7-0.4-1.1-0.8-1.1c-0.2,0-0.4,0.1-0.5,0.3c0,0,0,0.1-0.1,0.4c-0.1,0.2-0.1,0.2-0.1,0.3l-0.1,0.1c-0.1,0-0.1,0-0.1-0.2
				s0.1-0.3,0.2-0.4c0.1-0.1,0.1-0.1,0.1-0.2c0-0.1-0.1-0.2-0.2-0.2c-0.2,0-0.5,0.2-0.5,0.4c0,0.1,0,0.1,0,0.2c0,0.1,0,0.1,0,0.2
				c0,0.1,0,0.2,0,0.2c0,0.5,0.3,0.9,0.7,0.9C39.7,42.2,40,42.1,40.1,41.8z"/>
			<path class="st2" d="M40.8,33.5C40.8,33.5,40.9,33.5,40.8,33.5c0.1-0.2,0.2-0.3,0.2-0.6s-0.1-0.5-0.1-0.5c0-0.1-0.1-0.1-0.1-0.1
				s-0.1,0-0.1,0.1c0,0,0,0.1-0.1,0.1c0,0,0,0.1-0.6,0.1c-0.1,0-0.3,0-0.5,0s-0.2,0-0.2-0.1c0,0,0-0.1-0.1-0.1h-0.1
				c-0.1,0-0.1,0-0.2,0.1c0,0-0.1,0.2-0.1,0.5s0.1,0.5,0.1,0.5c0,0.1,0.1,0.1,0.1,0.1c0.1,0,0.2-0.1,0.2-0.1s0-0.1,0.1-0.1
				c0,0,0.2,0,0.5,0c0.5,0,0.7,0,0.7,0.1c0,0,0,0.1,0.1,0.1C40.7,33.5,40.7,33.5,40.8,33.5L40.8,33.5L40.8,33.5z"/>
			<path class="st2" d="M39.1,37.6c0.1,0,0.2-0.1,0.2-0.1s0-0.1,0.1-0.1c0,0,0.2,0,0.5,0c0.5,0,0.7,0,0.7,0.1c0,0,0,0.1,0.1,0.1
				l0.1,0.1c0.1,0,0.1,0,0.2-0.2c0-0.1,0.1-0.2,0.1-0.5S41,36.5,41,36.5c0-0.1-0.1-0.1-0.1-0.1s-0.1,0-0.1,0.1c0,0,0,0.1-0.1,0.1
				c0,0,0,0.1-0.6,0.1c-0.1,0-0.3,0-0.5,0s-0.2,0-0.2-0.1c0,0,0-0.1-0.1-0.1h-0.1c-0.1,0-0.1,0-0.2,0.1c0,0-0.1,0.2-0.1,0.5
				S39,37.6,39.1,37.6C39,37.6,39,37.6,39.1,37.6z"/>
			<polygon class="st2" points="28.5,15.7 28,13.9 28,13.9 28.8,15.6 29.2,15.4 28.2,12.2 27.8,12.3 28.3,13.9 28.3,13.9 27.5,12.4 
				27.2,12.5 28.2,15.8 			"/>
			<path class="st2" d="M27,16c0.1,0,0.2,0,0.5-0.1c0.2-0.1,0.3-0.2,0.4-0.2c0-0.1,0-0.3-0.1-0.5l-1-2.6l-0.4,0.2l1,2.7v0.1l0,0
				h-0.1c0,0,0,0-0.1-0.1l-1-2.7L25.8,13l1,2.6C26.9,15.8,26.9,16,27,16z"/>
			<polygon class="st2" points="67.3,12.2 67.3,12.2 67.1,14.3 67.3,14.3 67.9,12.4 67.9,12.4 67.5,14.4 67.9,14.4 68.5,11.1 
				68.1,11 67.6,12.5 67.6,12.5 67.7,10.9 67.2,10.9 66.5,14.2 66.9,14.2 			"/>
			<path class="st2" d="M27.6,24.8c0-0.3,0-0.6-0.1-0.9s-0.1-0.4-0.6-0.7c-0.5-0.2-0.9,0-1,0.2c-0.1,0.3-0.3,0.7-0.3,1.1
				c0.1,0.2,0.2,0.3,0.5,0.4c0.1-0.1,0.1-0.3,0.1-0.4l0.1-0.4c0.1-0.2,0.1-0.3,0.3-0.3c0.5,0.1,0.6,0.3,0.5,0.7v0.3c0,0,0,0.1,0,0.2
				c0,0.2,0,0.3,0.1,0.4C27.4,25.4,27.5,25.2,27.6,24.8z"/>
			<path class="st2" d="M64.6,48.8v-0.4c0-0.4,0-0.6-0.1-0.7c-0.2-0.4-0.8-0.4-1.2-0.4s-0.8,0.3-0.8,0.5l0.1,1.2
				c0,0.3,0.5,0.4,0.5,0.1l-0.1-1c0-0.3,0.7-0.5,0.7,0l0.1,0.5C64,48.9,64.6,49.2,64.6,48.8z"/>
			<path class="st2" d="M42.7,24.8c0.1,0,0.5-0.6,1-1.4c0.1-0.1,0-0.2-0.1-0.2c-0.4-0.1-0.7-0.2-0.7-0.1c-0.2,0.2-0.2,0.3-0.3,0.4
				s-0.2,0.3-0.4,0.5c-0.2,0.3-0.5,0.5-0.4,0.6C42.2,24.6,42.5,24.8,42.7,24.8z M42.9,23.5c0.1-0.1,0.3-0.1,0.3,0
				c0,0.3-0.3,0.7-0.5,0.8c-0.2,0-0.2,0-0.2-0.2C42.5,24.1,42.7,23.8,42.9,23.5z"/>
			<path class="st2" d="M73.5,23.7c-0.1-0.1-0.3-0.1-0.4,0.3C73,24.3,73,24.5,73,24.6v0.6c0,0.3,0,0.5-0.2,0.7
				c-0.4,0.4-0.5,0.3-0.5-0.2l-0.1-0.3c0-0.1,0-0.3,0-0.5c0-0.3-0.1-0.4-0.2-0.4c-0.4,0.2-0.5,0.5-0.4,1.3c0,0.4,0.1,0.9,0.2,1.1
				s0.6,0.5,1,0.3c0.6-0.4,0.5-1.4,0.6-1.9C73.5,24.7,73.7,24,73.5,23.7z"/>
			<path class="st2" d="M28.5,31.8c0.4-0.3,0.6-1.1,0.6-2.3c0-0.6,0-1.2,0-1.5c0-0.7,0-1-0.1-1.1c-0.3-0.1-0.4-0.1-0.4,0.2
				c0,1.3-0.1,3.1-0.4,4c-0.1,0-0.4,0-0.4-0.2c-0.1-1.5,0-3.1,0-4.4h-0.3c-0.2,1-0.6,4.7-0.2,5.2C27.8,32.1,28.1,32.1,28.5,31.8z"/>
			<polygon class="st2" points="69.5,14.8 70,13.4 70,13.4 69.8,14.9 70.3,15 70.4,13.2 71,11.7 70.6,11.6 70.2,12.8 70.2,12.8 
				70.3,11.5 69.9,11.4 69.7,13 69.1,14.7 			"/>
			<path class="st2" d="M32.7,14.6l-0.3-1.4l0,0h0.1c0,0,0,0,0.1,0.1l0.3,1.3l0.4-0.1L33,13.3c0-0.1-0.1-0.2-0.1-0.3
				s-0.1-0.1-0.2-0.1c0.1-0.1,0.1-0.1,0.1-0.2c0-0.1,0-0.2,0-0.3l-0.1-0.5c-0.1-0.3-0.1-0.5-0.2-0.5c-0.1-0.1-0.2-0.1-0.4,0
				l-0.6,0.1l0.8,3.3L32.7,14.6z M32,11.6C32.1,11.6,32.1,11.6,32,11.6c0.1,0,0.1,0.1,0.2,0.1l0.2,0.8v0.1c0,0,0,0-0.1,0.1l0,0l0,0
				L32,11.6L32,11.6z"/>
			<path class="st2" d="M72.5,15.5c0,0.1,0.2,0.2,0.4,0.2c0.2,0.1,0.3,0.1,0.4,0c0.1,0,0.2-0.2,0.3-0.5l0.7-2
				c0.1-0.3,0.1-0.5,0.1-0.5c0-0.1-0.2-0.2-0.4-0.2c-0.2-0.1-0.4-0.1-0.5,0c-0.1,0-0.2,0.2-0.3,0.5l-0.7,2
				C72.4,15.2,72.4,15.4,72.5,15.5z M72.9,15.3l0.8-2.3v-0.1c0,0,0,0,0.1,0l0,0V13L72.9,15.3l0.1,0.1c0,0,0,0-0.1,0
				C72.9,15.4,72.9,15.4,72.9,15.3L72.9,15.3z"/>
			<path class="st2" d="M48.2,24.4c0-0.1-0.1-0.3-0.2-0.6l-0.5-0.9l-0.3-0.6c-0.1-0.1-0.3-0.2-0.6-0.3h-0.1l0,0
				c-0.3,0.2-0.4,0.5-0.1,1.1l0.1,0.2c0.2,0.5,0.5,1.1,0.7,1.4C47.7,24.7,48,24.6,48.2,24.4z M46.7,22.4c0.2,0,0.4,0.5,0.5,0.9
				c0.1,0.2,0.2,0.3,0.3,0.5c0,0.1,0.1,0.1,0.1,0.2c0.1,0.2,0.1,0.3,0.1,0.4h-0.2c0,0-0.1-0.2-0.2-0.5c-0.1-0.1-0.2-0.3-0.3-0.4
				C46.9,23.1,46.6,22.5,46.7,22.4z"/>
			<path class="st2" d="M37.3,18.1c-0.2,1.1,1.1,1.2,1.1,1.1c0,0,0-0.1-0.1-0.3c-0.1-0.2-0.1-0.3,0-0.3l0.5-0.4c0,0,0.4-1.5,0.2-1.5
				C38.9,16.7,37.5,17.1,37.3,18.1z M38.3,18.1c-0.2,0.2-0.4,0.4-0.5,0.4V18c0-0.1,0.6-0.9,0.7-0.6C38.5,17.7,38.5,17.9,38.3,18.1z"
				/>
			<path class="st2" d="M29.7,31.5h0.6c0.3,0,0.6-1,0.7-3.2c0-0.7,0-1-0.1-1h-0.2l-0.4,3.4c0,0.3-0.6,0.1-0.6-0.1
				c0.1-2.3,0.2-3.4,0.2-3.4c-0.2,0.2-0.3,0.4-0.4,0.7c0,0.1-0.2,2.3-0.2,2.8C29.3,31.2,29.4,31.5,29.7,31.5z"/>
			<polygon class="st2" points="59.8,11.1 59.8,11.1 59.8,13.1 60,13.1 60.4,11.1 60.4,11.1 60.2,13.2 60.6,13.2 60.9,9.8 60.4,9.8 
				60.1,11.3 60.1,11.3 60,9.7 59.6,9.7 59.2,13 59.6,13.1 			"/>
			<path class="st2" d="M72.5,31.8c0.6,0.2,0.9-0.2,1-1.4c0-1.7,0.1-2.4,0-2.6c-0.1,0-0.2-0.1-0.3,0C73,27.9,73,28,73,28.3v2.2
				c0,0.4-0.6,0.4-0.6-0.1v-2.3c0-0.4-0.4-0.3-0.4,0c0,0.4,0,0.7,0,1.2L71.9,31C71.8,31.4,72.1,31.6,72.5,31.8z"/>
			<path class="st2" d="M71.3,15.2c0.1,0.1,0.2,0.2,0.4,0.2c0.2,0.1,0.3,0.1,0.4,0c0.1,0,0.2-0.2,0.2-0.5l0.2-0.8L72.1,14l-0.3,0.9
				V15c0,0,0,0-0.1,0c0,0,0,0-0.1,0v-0.1l0.6-2.4v-0.1c0,0,0,0,0.1,0l0,0v0.1l-0.2,0.7l0.4,0.1l0.1-0.5c0.1-0.3,0.1-0.5,0-0.6
				c0-0.1-0.2-0.2-0.4-0.2c-0.2-0.1-0.4-0.1-0.5,0s-0.2,0.2-0.2,0.5l-0.6,2C71.2,14.9,71.2,15.1,71.3,15.2z"/>
			<path class="st2" d="M29,25.3c0,0,0,0.2,0,0.3c0,0.2,0,0.3,0.1,0.3c0.3,0.1,0.4,0,0.5-0.6c0-0.2,0-0.6,0-0.8
				c-0.1-0.2-0.2-0.3-0.6-0.5c-0.5-0.1-0.8,0.3-0.9,0.5c-0.1,0.3-0.3,0.6-0.2,0.9c0.1,0.1,0.2,0.2,0.4,0.2c0.1-0.1,0.1-0.2,0.2-0.3
				l0.1-0.4c0.1-0.1,0.1-0.3,0.2-0.3c0.4,0,0.4,0.1,0.4,0.5L29,25.3z"/>
			<path class="st2" d="M64.4,28.6c-0.1,0-0.2,0-0.3,0C64,28.7,64,28.7,64,28.8v0.9c0,0,0,0-0.1,0.1c-0.2,0-0.3-0.1-0.3-0.2
				l-0.1-0.4c0-0.1,0-0.2-0.1-0.4H63c-0.1,0,0,1.5,0.2,2h0.3c0.1,0,0.9-0.1,1.1-0.6C64.7,30.1,64.7,28.9,64.4,28.6z"/>
			<path class="st2" d="M53.3,32.1l-0.2,0.1h-0.2l0.1,0.3h-0.2c-0.1,0-0.2,0.3,0,0.3H54l0.3-0.1c0.1,0,0.1-0.1,0.1-0.3
				C54.2,31.9,53.4,32,53.3,32.1z"/>
			<path class="st2" d="M34.1,31.6c-0.2,1.1,0.8,5,1.3,5h0.2c0.1,0,0.2-0.1,0.2-0.2l-0.3-2v-3c0-0.1-0.1-0.2-0.2-0.2H35
				c-0.1,0-0.2,0.1-0.2,0.2l0.2,1.8h-0.2l-0.3-1.8C34.5,31.3,34.2,31.2,34.1,31.6z"/>
			<path class="st2" d="M31.5,31.2c0.7,0.2,1-0.4,1.1-1.9c0-1.1,0-1.6-0.1-1.5h-0.1h-0.1c-0.1,0.4-0.2,0.7-0.2,0.9L32,29.6
				c0,0.2-0.1,0.5-0.3,0.8c-0.3,0.1-0.4-0.3-0.3-1.1c0.1-1.2,0.1-1.7,0.1-1.7h-0.3L31,29.3v1.4C31,30.9,31.2,31.1,31.5,31.2z"/>
			<path class="st2" d="M38.4,13.5c0.2,0,0.3-0.1,0.3-0.2c0-0.1,0-0.3,0-0.6l-0.4-2c-0.1-0.3-0.1-0.5-0.2-0.5
				c-0.1-0.1-0.2-0.1-0.4,0l-0.6,0.1l0.6,3.3L38.4,13.5z M37.8,10.6C37.9,10.6,37.9,10.6,37.8,10.6l0.1,0.1l0.4,2.3l0,0
				c0,0.1,0,0.1,0,0.1s0,0-0.1,0l0,0L37.8,10.6L37.8,10.6z"/>
			<path class="st2" d="M71.7,28.1c-0.1,0-0.2-0.1-0.2,0c-0.2,0.1-0.2,0.2-0.2,0.4v1.9c0,0.4-0.6,0.3-0.6,0v-2c0-0.3-0.4-0.3-0.4,0
				c0,0.4-0.1,0.6-0.1,1v1.2c0,0.4,0.3,0.9,0.6,1c0.4,0.1,0.8-0.2,0.9-1.2C71.7,28.7,71.8,28.3,71.7,28.1z"/>
			<polygon class="st2" points="30.8,15 30.3,11.7 29.9,11.8 30.3,14.1 30.3,14.1 29.6,11.8 29.2,12 30.2,15.2 			"/>
			<path class="st2" d="M32.8,29.1c-0.2,1.3,0.5,1.7,0.6,1.7h0.4c0.2,0,0.4-0.3,0.5-0.9l-0.1-1.7c0,0,0-0.1-0.1-0.1H34
				c0,0,0,0.2-0.1,0.7c0,0.6-0.1,1-0.3,1.3h-0.3c-0.1-0.2-0.2-0.3-0.2-0.4V28c0,0,0-0.1-0.1-0.1h-0.3L32.8,29.1z"/>
			<path class="st2" d="M35.9,14c0.2,0,0.3-0.1,0.3-0.2c0-0.1,0-0.3,0-0.6l-0.3-2c0-0.3-0.1-0.5-0.2-0.5c-0.1-0.1-0.2-0.1-0.4-0.1
				l-0.6,0.1l0.5,3.3H35.9z M35.3,11C35.4,11,35.4,11,35.3,11l0.1,0.1l0.4,2.3l0,0c0,0.1,0,0.1,0,0.1s0,0-0.1,0l0,0L35.3,11L35.3,11
				z"/>
			<path class="st2" d="M33.1,12.2c0,0.1,0.1,0.2,0.1,0.3s0.1,0.1,0.2,0.1l0.3,0.1c0.1,0,0.1,0,0.1,0.1v0.1l0.2,0.9v0.1
				c0,0,0,0-0.1,0c0,0,0,0-0.1,0c0,0,0,0,0-0.1l-0.2-1L33.2,13l0.1,0.8c0.1,0.3,0.1,0.5,0.2,0.5c0.1,0.1,0.2,0.1,0.4,0
				c0.2,0,0.4-0.1,0.4-0.2c0.1-0.1,0.1-0.3,0-0.6l-0.1-0.8c0-0.1-0.1-0.2-0.1-0.3s-0.1-0.1-0.2-0.1l-0.3-0.1c-0.1,0-0.1,0-0.1-0.1
				V12l-0.1-0.7v-0.1c0,0,0,0,0.1,0h0.1c0,0,0,0,0,0.1l0.1,0.7l0.4-0.1L34,11.5c0-0.3-0.1-0.5-0.2-0.5c-0.1-0.1-0.2-0.1-0.4,0
				c-0.2,0-0.4,0.1-0.4,0.2c-0.1,0.1-0.1,0.3,0,0.6L33.1,12.2z"/>
			<path class="st2" d="M31.3,25.9c0-0.2,0-0.5,0-0.7c-0.1-0.2-0.1-0.3-0.5-0.5c-0.5-0.1-0.7,0.1-0.9,0.4c-0.1,0.3-0.2,0.6-0.1,1
				c0.1,0.1,0.1,0.3,0.3,0.2c0.1-0.1,0.1-0.3,0.1-0.3l0.1-0.4c0.1-0.1,0.1-0.3,0.2-0.3c0.3,0,0.4,0.1,0.4,0.5V26c0,0,0,0.1,0,0.2
				c0,0.2,0,0.3,0.1,0.3C31.2,26.4,31.2,26.2,31.3,25.9z"/>
			<path class="st2" d="M64.7,13.7c0.1-0.1,0.1-0.2,0.2-0.5l0.3-2c0-0.3,0-0.5,0-0.6s-0.2-0.1-0.3-0.2l-0.6-0.1l-0.5,3.3l0.6,0.1
				C64.5,13.8,64.6,13.8,64.7,13.7z M64.3,12.3h0.2l0.1-0.5h-0.2l0.2-1h0.2l0,0c0,0,0.1,0.1,0,0.2l-0.3,2.3l0,0c0,0.1,0,0.1-0.1,0.1
				c0,0,0,0-0.1,0h-0.2L64.3,12.3z"/>
			<path class="st2" d="M47,24.7c0.2,0-0.3-0.7-0.5-1.3c-0.1-0.3-0.3-0.9-0.4-0.9c-0.2-0.1-0.6,0.2-0.5,0.3c0,0.3,0.1,0.5,0.2,0.7
				l0.3,0.7C46.3,24.6,46.5,24.9,47,24.7z M46,23.2V23h0.1c0.1,0,0.1,0,0.1,0.1v0.2L46,23.2C46,23.3,46,23.3,46,23.2z M46.1,23.4
				L46.1,23.4c0.2,0,0.6,0.9,0.4,0.9C46.3,24.4,45.9,23.4,46.1,23.4z"/>
			<path class="st2" d="M32.4,25.3c-0.5-0.1-0.7,0.2-0.9,0.4c-0.1,0.3-0.1,0.5-0.1,0.8c0.1,0.1,0.1,0.2,0.3,0.2
				c0.1-0.1,0.1-0.3,0.1-0.3L32,26c0.1-0.1,0.1-0.3,0.2-0.3c0.3,0,0.4,0.1,0.4,0.4v0.2c0,0,0,0.1,0,0.2c0,0.2,0,0.2,0.1,0.3
				c0.3,0,0.3-0.2,0.4-0.5c0-0.2,0-0.4,0-0.6C32.8,25.5,32.8,25.4,32.4,25.3z"/>
			<path class="st2" d="M56.4,23.6c-0.1-0.2-1.4,0.9-1,0.9l1.4-0.1c0-0.1-0.1-0.3-0.3-0.6L56.4,23.6z"/>
			<path class="st2" d="M36.9,13.8L36.8,13H37l0.2,0.8l0.4-0.1l-0.8-3.3l-0.7,0.1l0.3,3.4L36.9,13.8z M36.6,10.9l0.4,1.7h-0.2
				L36.6,10.9L36.6,10.9z"/>
			<polygon class="st2" points="32,14.7 31.9,14.4 31.6,14.5 31.4,13.2 31.7,13.1 31.6,12.8 31.3,12.8 31.1,11.9 31.4,11.8 
				31.3,11.5 30.6,11.6 31.3,14.9 			"/>
			<path class="st2" d="M61.3,13.3l0.1-0.8h0.2l-0.1,0.8l0.5,0.1l0.3-3.4l-0.7-0.1l-0.8,3.3L61.3,13.3z M61.8,10.5L61.8,10.5
				l-0.2,1.7h-0.2L61.8,10.5z"/>
			<polygon class="st2" points="30,15.2 29,12 28.5,12.1 29.5,15.4 			"/>
			<path class="st2" d="M44.4,24.8c0.2,0,0.3-0.5,0.3-1.4c0-0.1,0-0.3-0.1-0.3H44c-0.1,0-0.1,0.2-0.2,0.3c-0.1,0.1-0.1,0.2-0.2,0.4
				c-0.2,0.4-0.3,0.6-0.3,0.7C43.3,24.8,44,24.8,44.4,24.8z M43.9,24.4c0-0.3,0.1-0.6,0.2-0.9c0-0.1,0.2-0.2,0.2-0.1
				c0,0.3,0,0.5-0.1,0.8C44.2,24.5,43.9,24.5,43.9,24.4z"/>
			<polygon class="st2" points="41.2,13.2 41,11.4 41,11.4 41.5,13.2 41.9,13.2 41.6,9.8 41.2,9.8 41.3,11.5 41.3,11.5 40.9,9.8 
				40.5,9.9 40.8,13.2 			"/>
			<polygon class="st2" points="57,11.1 57,11.1 57.2,12.9 57.5,12.9 57.8,9.6 57.4,9.5 57.3,11.2 57.3,11.2 57.1,9.5 56.7,9.5 
				56.4,12.8 56.9,12.9 			"/>
			<polygon class="st2" points="68.9,14.7 69,14.3 68.7,14.3 69,13 69.3,13.1 69.3,12.7 69.1,12.6 69.3,11.7 69.5,11.7 69.6,11.4 
				68.9,11.2 68.2,14.5 			"/>
			<path class="st2" d="M70,28.2c-0.1,0-0.2,0-0.2,0c-0.2,0.1-0.1,0.2-0.1,0.4v1.7c0,0.3-0.5,0.3-0.5,0v-1.8c0-0.3-0.3-0.3-0.4,0
				c0,0.3,0,0.5,0,0.9l-0.1,1.3c0,0.3,0.2,0.6,0.6,0.7c0.5,0.1,0.7-0.2,0.8-1.1C70,28.9,70.1,28.4,70,28.2z"/>
			<path class="st2" d="M70.5,25.7c0-0.2-0.1-0.3-0.1-0.3c-0.2,0.1-0.2,0.4-0.2,0.9c0,0.3,0.1,0.6,0.2,0.8c0.1,0.2,0.1,0.4,0.5,0.3
				c0.5-0.2,0.6-0.7,0.7-1.1c0-0.4,0.1-1-0.1-1.3c-0.1-0.1-0.2-0.2-0.3-0.1c-0.1,0.2,0,0.4,0,0.5v0.5c0,0.2,0,0.4-0.1,0.5
				c-0.3,0.3-0.4,0.1-0.4-0.3v-0.3C70.5,26,70.5,25.9,70.5,25.7z"/>
			<path class="st2" d="M42.4,13.1l-0.1-0.8h0.2l0.1,0.8l0.5-0.1l-0.6-3.3l-0.7,0.1l0.1,3.4L42.4,13.1z M42.2,10.2l0.3,1.7h-0.2
				L42.2,10.2L42.2,10.2z"/>
			<polygon class="st2" points="46.9,12.7 46.7,10.9 46.8,10.9 47.2,12.7 47.6,12.7 47.4,9.3 47,9.3 47.1,11 47,11 46.7,9.4 
				46.3,9.4 46.5,12.7 			"/>
			<polygon class="st2" points="70.9,15.2 71.8,11.9 71.3,11.8 70.4,15.1 			"/>
			<path class="st2" d="M43.2,12.3c0,0.3,0.1,0.5,0.2,0.5c0.1,0.1,0.2,0.1,0.5,0.1c0.2,0,0.3-0.1,0.4-0.1c0.1-0.1,0.1-0.3,0-0.6
				l-0.1-0.8h-0.5l0.1,1v0.1c0,0,0,0-0.1,0h-0.1c0,0,0,0,0-0.1L43.4,10V9.9c0,0,0,0,0.1,0c0,0,0,0,0.1,0c0,0,0,0,0,0.1l0.1,0.7h0.5
				l-0.1-0.5c0-0.3-0.1-0.5-0.2-0.5c-0.1-0.1-0.2-0.1-0.4-0.1s-0.4,0.1-0.4,0.1C43,9.8,43,9.9,43,10.2L43.2,12.3z"/>
			<path class="st2" d="M67.2,28.5c0,0.3,0,0.4,0,0.8l0.1,1c0,0.3,0.2,0.5,0.5,0.6c0.5,0.2,0.6-0.1,0.7-0.8c0-1.1,0.1-1.6,0-1.7
				c-0.1,0-0.2-0.1-0.2,0c-0.2,0.1-0.1,0.1-0.1,0.3v1.4c0,0.3-0.5,0.2-0.5-0.1v-1.5C67.6,28.3,67.2,28.3,67.2,28.5z"/>
			<path class="st2" d="M58.4,13c0.2,0,0.4,0,0.4-0.1c0.1-0.1,0.1-0.2,0.2-0.5l0.2-2.1c0-0.3,0-0.5-0.1-0.5
				c-0.1-0.1-0.2-0.1-0.4-0.1s-0.4,0-0.4,0.1c-0.1,0.1-0.1,0.2-0.1,0.5L58,12.4c0,0.3,0,0.5,0.1,0.6C58,12.9,58.2,13,58.4,13z
				 M58.6,10.1C58.6,10,58.6,10,58.6,10.1c0-0.1,0.1-0.1,0.1-0.1s0,0,0.1,0v0.1l-0.2,2.4v0.1c0,0,0,0-0.1,0h-0.1v-0.1L58.6,10.1z"/>
			<path class="st2" d="M69,26.3c0-0.2-0.1-0.3-0.1-0.3c-0.2,0.1-0.2,0.4-0.2,0.7c0,0.2,0,0.4,0.1,0.6s0.3,0.3,0.7,0.2
				c0.4-0.1,0.4-0.4,0.5-0.8c0-0.3,0-0.7-0.1-1c-0.1-0.1-0.1-0.2-0.3-0.1c-0.1,0.2,0,0.3,0,0.4v0.4c0,0.2,0,0.3-0.1,0.4
				c-0.3,0.2-0.4,0.1-0.4-0.3L69,26.3C69,26.5,69,26.5,69,26.3z"/>
			<path class="st2" d="M45.1,12.2c0,0.3,0.1,0.5,0.1,0.5c0.1,0.1,0.2,0.1,0.5,0.1c0.2,0,0.3-0.1,0.4-0.1c0.1-0.1,0.1-0.3,0.1-0.6
				L46,10c0-0.3-0.1-0.5-0.1-0.5c-0.1-0.1-0.2-0.1-0.4-0.1s-0.4,0.1-0.4,0.1C45,9.6,45,9.8,45,10L45.1,12.2z M45.4,9.8
				C45.4,9.7,45.4,9.7,45.4,9.8C45.5,9.8,45.5,9.8,45.4,9.8c0.1,0,0.1,0,0.1,0.1l0.2,2.4v0.1c0,0,0,0-0.1,0h-0.1v-0.1L45.4,9.8
				L45.4,9.8z"/>
			<path class="st2" d="M66.3,27.4c0,0,0-0.1,0-0.2s-0.1-0.2-0.2-0.1S66,27.3,66,27.5c0,0.2,0.1,0.3,0.2,0.5
				c0.1,0.1,0.4,0.2,0.5,0.2c0.4-0.1,0.4-0.5,0.5-0.7c0-0.2,0-0.5-0.1-0.6s-0.1-0.1-0.3,0c0,0.1-0.1,0.2-0.1,0.3v0.3
				c0,0.1,0,0.2-0.1,0.3c-0.2,0.1-0.3,0.1-0.3-0.2V27.4z"/>
			<path class="st2" d="M35.4,27.2c0,0,0,0.1,0,0.2s0,0.2,0.1,0.2s0.1-0.1,0.2-0.4c0-0.2,0-0.3-0.1-0.5s-0.2-0.3-0.4-0.3
				c-0.4-0.1-0.7,0.2-0.8,0.3c-0.1,0.2-0.1,0.4,0,0.6c0,0.1,0.1,0.1,0.3,0.1c0.1-0.1,0.1-0.2,0.1-0.2v-0.3c0.1-0.1,0.1-0.2,0.2-0.2
				c0.3,0,0.3,0.1,0.3,0.4L35.4,27.2z"/>
			<path class="st2" d="M67.6,26.7c-0.2,0.1-0.2,0.4-0.2,0.7c0,0.2,0,0.2,0.1,0.4c0.1,0.2,0.3,0.2,0.6,0.2c0.4-0.1,0.5-0.4,0.4-0.7
				c0-0.3,0.1-0.6,0-0.9c-0.1-0.1-0.2-0.1-0.4,0c0,0.2-0.1,0.3,0,0.3V27c0,0.2,0,0.3-0.1,0.4c-0.3,0.3-0.3,0-0.4-0.3
				c0,0,0-0.1,0-0.2C67.7,26.7,67.6,26.7,67.6,26.7z"/>
			<path class="st2" d="M65.5,36.5c0.8-0.5,1.1-1.9,1.1-4.2h-0.2c0,0.3-0.1,0.6-0.2,0.7c-0.1-0.2-0.2-0.3-0.3-0.5h-0.2
				C66.2,33.5,65.4,35.5,65.5,36.5C65.4,36.5,65.4,36.5,65.5,36.5z"/>
			<path class="st2" d="M53.3,12.7c0.2,0,0.4,0,0.4-0.1c0.1-0.1,0.1-0.2,0.1-0.5L54,9.3h-0.5l-0.1,2.9v0.1c0,0,0,0-0.1,0h-0.1v-0.1
				l0.1-2.9h-0.5l0,2.7c0,0.3,0,0.5,0.1,0.5C52.9,12.6,53.1,12.7,53.3,12.7z"/>
			<path class="st2" d="M55.7,12.8c0.2,0,0.4,0,0.4-0.1c0.1-0.1,0.1-0.2,0.1-0.5l0.1-2.1c0-0.3,0-0.5-0.1-0.5
				c-0.1-0.1-0.2-0.1-0.4-0.1s-0.4,0-0.4,0.1c-0.1,0.1-0.1,0.2-0.1,0.5l-0.1,2.1c0,0.3,0,0.5,0.1,0.6C55.3,12.7,55.5,12.8,55.7,12.8
				z M55.7,9.9C55.7,9.8,55.7,9.8,55.7,9.9c0-0.1,0.1-0.1,0.1-0.1s0,0,0.1,0v0.1l-0.1,2.4v0.1c0,0,0,0-0.1,0h-0.1v-0.1L55.7,9.9z"/>
			<path class="st2" d="M58.2,27.3v0.1c0,0.1,0,0.1,0.2,0.2c0.1,0,0.2,0,0.5,0s0.5-0.1,0.5-0.1c0.1,0,0.1-0.1,0.1-0.1s0-0.1-0.1-0.1
				c0,0-0.1,0-0.1-0.1c0,0-0.1,0-0.1-0.6c0-0.1,0-0.3,0-0.5s0-0.2,0.1-0.2c0,0,0.1,0,0.1-0.1v-0.1c0-0.1,0-0.1-0.1-0.2
				c0,0-0.2-0.1-0.5-0.1s-0.5,0.1-0.5,0.1c-0.1,0-0.1,0.1-0.1,0.1c0,0.1,0.1,0.2,0.1,0.2s0.1,0,0.1,0.1c0,0,0,0.2,0,0.5
				c0,0.5,0,0.7-0.1,0.7C58.2,27.2,58.2,27.2,58.2,27.3z"/>
			<path class="st2" d="M37.1,31c-0.2,0-0.4,0.1-0.4,0.2l0.1,1.6c0,0.1,0,0.1,0.1,0.1h0.2c0.1,0,0.1,0,0.1-0.1v-1.1
				c0,0,0-0.1,0.1-0.1h0.1c0.1,0.2,0.2,0.4,0.2,0.8c0,0.3,0,0.5,0.1,0.5H38c0,0,0.1,0,0.1-0.1v-1.5L37.8,31H37.1z"/>
			<path class="st2" d="M42.9,59.2c0.2-0.1,0.2-0.3-0.1-0.5c-0.2-0.2-0.3-0.3-0.3-0.4L42.3,58c-0.3-0.3-0.7-0.1-0.5,0.2
				C41.9,58.3,42.5,59.3,42.9,59.2z"/>
			<path class="st2" d="M48.2,11.9h0.2l0.1,0.8H49l-0.4-3.4h-0.7l-0.1,3.4h0.5L48.2,11.9z M48.3,9.8L48.3,9.8l0.1,1.7h-0.2L48.3,9.8
				z"/>
			<path class="st2" d="M51.9,11.9h0.2v0.8h0.5l-0.2-3.4h-0.7l-0.3,3.4h0.5V11.9z M52.1,9.8L52.1,9.8l0.1,1.7H52L52.1,9.8z"/>
			<path class="st2" d="M65.9,29.5l0.1,0.7c0.1,0.4,0.2,0.5,0.5,0.7c0.4,0,0.4-0.2,0.5-0.8c0-1,0.1-1.3,0-1.5c-0.1,0-0.1,0-0.2,0
				c-0.1,0.1-0.1,0.1-0.1,0.3v1.2c0,0.2-0.4,0.2-0.4,0v-1.3c0-0.2-0.3-0.2-0.3,0C65.9,29.1,65.9,29.2,65.9,29.5z"/>
			<path class="st2" d="M34,26.8c0,0,0,0,0,0.1s0,0.2,0.1,0.2c0.2,0,0.2-0.1,0.3-0.4c0-0.2,0-0.3,0-0.5c-0.1-0.2-0.1-0.3-0.4-0.4
				c-0.4-0.1-0.6,0.1-0.7,0.3c-0.1,0.2-0.2,0.5-0.1,0.7c0,0.1,0.1,0.2,0.3,0.2c0.1-0.1,0.1-0.2,0.1-0.3v-0.3
				c0.1-0.1,0.1-0.2,0.2-0.2c0.3,0,0.3,0.1,0.3,0.4L34,26.8z"/>
			<path class="st2" d="M63.7,26.7c-0.3-0.4-0.6-0.5-0.7-0.4l0,0v1.3l0,0c0.1,0.1,0.3,0.1,0.4-0.1l0.1-0.1h0.2l0.2,0.2
				c0.1,0,0.5,0.1,0.1-0.5C63.9,27,63.8,26.8,63.7,26.7z"/>
			<path class="st2" d="M41.2,59.3c0.3,0.1,0.5-0.1,0.5-0.4c0-0.1-0.2-0.3-0.5-0.6c-0.2-0.2-0.4-0.2-0.5-0.1
				C40.4,58.4,40.9,59.2,41.2,59.3z"/>
			<path class="st2" d="M34.4,30c0.2,0.8,1.1,0.7,1.1,0v-1.4c0-0.1,0-0.1-0.1-0.1h-0.2c0,0.1,0,1.1,0,1.3c-0.1,0.5-0.5,0.3-0.5,0.1
				v-1.6h-0.2c0,0,0,0-0.1,0.1V30z"/>
			<path class="st2" d="M44.9,24.4c0,0.1,0,0.2,0.2,0.4c0.4,0,0.6-0.1,0.7-0.3c0.1-0.2,0.1-0.3,0-0.5c-0.1-0.1-0.3-0.8-0.3-0.8
				c-0.1-0.5-0.7-0.3-0.7,0.1v0.4L44.9,24.4z M45.3,23.6l0.2,0.5v0.4h-0.2c-0.1-0.2-0.1-0.4-0.2-0.9H45.3z"/>
			<path class="st2" d="M45.4,18.9c-0.1,0.3,0.1,0.8,0.2,0.8h0.3c0.1,0,0.5-0.3,0.5-0.6C46.4,18.2,45.7,18.1,45.4,18.9z M46,19.2
				L46,19.2c-0.1,0-0.2,0-0.2-0.1v-0.2c0,0,0-0.1,0.1-0.1H46C46,18.9,46.1,19.2,46,19.2z"/>
			<path class="st2" d="M63.8,32.7c-0.5,0-0.7,0.1-0.7,0.4v0.5c0,0,0,0.1,0.1,0.1l0.8-0.2C64,33.4,64.3,32.7,63.8,32.7z"/>
			
				<rect x="34.4" y="10.8" transform="matrix(0.9885 -0.1509 0.1509 0.9885 -1.4881 5.3724)" class="st2" width="0.5" height="3.4"/>
			<path class="st2" d="M29.6,62.2c-0.1,0-0.1-0.1,0-0.4c0.2-0.9-0.5-0.8-0.6-0.6v0.2v0.2l-0.1,0.2c0,0,0,0.1,0,0.3
				c0.1,0.4,0.3,0.7,0.5,0.7h0.4c0.1,0,0.1-0.1,0.1-0.2v-0.2l-0.1-0.3L29.6,62.2L29.6,62.2z"/>
			<path class="st2" d="M34.6,55.6c-0.2,0-0.5,0.3-0.6,0.4c-0.1,0-0.1,0.4,0,0.5C34.5,56.5,35.4,55.4,34.6,55.6z"/>
			<path class="st2" d="M55.2,60.5c0.1-0.1,0-0.4-0.3-0.7c-0.1-0.2-0.2-0.3-0.3-0.4c-0.1,0-0.1,0-0.3-0.1c-0.2,0.1-0.1,0.5,0.4,1.1
				C54.9,60.6,55.1,60.6,55.2,60.5z"/>
			<path class="st2" d="M42.8,16.4c-0.3,0-0.5,0.2-0.5,0.5s0.2,0.5,0.5,0.5s0.5-0.2,0.5-0.5S43,16.4,42.8,16.4z"/>
			<path class="st2" d="M35.8,56.1L35.8,56.1l-0.2-0.3c-0.1-0.1-1,0.5-0.8,0.8c0.1,0.1,0.3,0.1,0.5,0l0.1-0.2l0.2-0.2
				C35.8,56.2,35.8,56.1,35.8,56.1z"/>
			<path class="st2" d="M36.8,30.2c0,0,0,0.1,0.1,0.1h0.7c0.1,0,0.1-0.1,0.2-0.2c0,0,0-0.3-0.1-0.3l-0.2-0.1H37l-0.1,0.1
				c0,0,0,0-0.1,0.1L36.7,30L36.8,30.2L36.8,30.2z"/>
			<path class="st2" d="M36.9,29.1v0.2c0,0.1,0.1,0.1,0.2,0.1h0.7c0.1,0,0.2,0,0.2-0.1V29c0-0.1,0-0.1-0.1-0.1h-0.6
				C36.9,29,36.9,29,36.9,29.1z"/>
			<polygon class="st2" points="54.3,12.7 54.7,12.7 54.9,9.7 55.1,9.7 55.1,9.4 54.2,9.3 54.2,9.7 54.4,9.7 			"/>
			<path class="st2" d="M37.5,43.1C37.4,43.1,37.4,43.2,37.5,43.1L37.4,44c0,0.1,0.2,0.7,0.9,0.8v-0.6C38.3,43.5,37.9,43,37.5,43.1z
				"/>
			<path class="st2" d="M45.6,21.6c-0.2,0-0.4,0.1-0.5,0.3c-0.1,0-0.2,0.8,0,0.8c0.1,0.1,0.3,0.1,0.5,0c0.5-0.3,0.5-1,0.2-1
				L45.6,21.6L45.6,21.6z M45.3,22.3v-0.1c0-0.2,0.3-0.3,0.3-0.1v0.1C45.6,22.3,45.3,22.5,45.3,22.3z"/>
			<path class="st2" d="M36.2,56c0,0-0.1,0.1-0.2,0.2l-0.1,0.2l-0.1,0.2c-0.5,0.7,0.5,0.7,0.4,0.3h0.1C36.4,57,36.8,55.7,36.2,56z"
				/>
			<path class="st2" d="M50.7,60.6v-0.3c0-0.1-0.5-0.8-0.6-0.8h-0.2c-0.1,0-0.1,0.1,0,0.3C49.9,59.9,50.7,61,50.7,60.6z"/>
			<path class="st2" d="M53.3,62.6H53c-0.1,0-0.2,0.1-0.4,0.2V63h0.1c0,0,0.1,0.1,0.1,0.2h0.3h0.1l0.1-0.1c0,0,0,0,0.1,0V63
				c0-0.1,0-0.1,0.1-0.1C53.5,62.8,53.5,62.7,53.3,62.6L53.3,62.6z"/>
			<path class="st2" d="M37.7,34.1c-0.1,0-0.2,0.1-0.4,0.1c-0.1,0.7,0.1,1.2,0.4,1.6c0.2-0.2,0.3-0.6,0.3-1.2c0-0.3,0-0.5-0.1-0.6
				C37.9,34,37.8,34,37.7,34.1z"/>
			<path class="st2" d="M37.4,28c0.1,0,0.1,0,0.2,0.1l0.1,0.2h0.2c0,0,0.1,0,0.1-0.1V27c0-0.1,0-0.1-0.1-0.1h-0.1
				c0,0.1-0.1,0.2-0.1,0.3l-0.1,0.3l-0.2,0.2c-0.1,0.1-0.2,0.2-0.2,0.2v0.2c0,0,0,0.1,0.1,0.1h0.1V28z"/>
			<path class="st2" d="M39.7,56.9c-0.2-0.4-0.4-0.7-0.5-0.7h-0.1H39c-0.2,0.1-0.1,0.5,0.2,1C39.5,57.5,40,57.4,39.7,56.9z"/>
			<path class="st2" d="M45.8,20c0.1,0.3,0.1,0.5,0.1,0.7c0.1,0.1,0.2,0.1,0.3,0.1c0.2,0,0.3-0.1,0.3-0.2c0.1-0.1,0-0.4-0.1-0.7
				C46.4,19.4,45.8,19.9,45.8,20z M46.3,20.4L46.3,20.4c-0.2,0-0.2-0.2,0-0.2C46.4,20.1,46.4,20.4,46.3,20.4z"/>
			<path class="st2" d="M44.9,20.9v0.5c0,0.3,0.8,0.1,0.8-0.2v-0.6C45.7,20.2,44.9,20.4,44.9,20.9z"/>
			<path class="st2" d="M42.2,59.7c-0.3,0.2,0.1,1.1,0.3,1.1h0.3C43.1,60.8,42.5,59.5,42.2,59.7z"/>
			<path class="st2" d="M54.5,61.3c0.1-0.2-0.5-1.2-0.7-0.9C53.5,60.8,54.4,61.5,54.5,61.3z"/>
			<path class="st2" d="M46.4,20.9c-0.3,0-0.3,0-0.4,0.2c0,0.2,0,0.4,0,0.6c0.2,0.3,0.5,0.2,0.7,0C46.9,21,46.5,20.9,46.4,20.9z
				 M46.4,21.6c-0.1,0-0.1-0.3,0-0.3s0.2,0,0.2,0.2C46.6,21.6,46.4,21.6,46.4,21.6z"/>
			<path class="st2" d="M47.7,59.1c0.2-0.2,0.1-0.4-0.3-0.7c-0.1-0.1-0.2-0.1-0.3-0.1s-0.1,0-0.1,0.1v0.2
				C47,58.7,47.5,59.2,47.7,59.1z"/>
			<path class="st2" d="M72.8,63.1c0-0.1-0.7-0.3-0.7,0c0,0.1-0.1,0.2-0.1,0.4c-0.1,0.2,0.1,0.2,0.3,0.2
				C72.5,63.6,72.8,63.4,72.8,63.1z"/>
			<path class="st2" d="M40.6,63.8C40.6,63.7,40.6,63.7,40.6,63.8c0-0.4-0.1-0.5-0.2-0.5H40c-0.1,0-0.2,0-0.2,0.1v0.2l0.4,0.2H40.6z
				"/>
			<polygon class="st2" points="49.8,12.3 49.5,12.3 49.5,9.3 49.1,9.3 49.1,12.7 49.8,12.7 			"/>
			<path class="st2" d="M63,31.6l0.1,1c0,0.2,0.6,0.1,0.6-0.2v-1.1v-0.1c0-0.1-0.1-0.1-0.1-0.1h-0.3l0,0h-0.1
				c-0.2,0-0.2,0.1-0.2,0.3V31.6z"/>
			<path class="st2" d="M39.5,58.9l0.1,0.2l0.1,0.2v0.1c0.9,0.5,0.2-1.3-0.2-1.1C39.4,58.4,39.4,58.6,39.5,58.9z"/>
			<path class="st2" d="M45.5,20v-0.3c-0.1-0.4-0.2-0.5-0.4-0.4s-0.3,0.2-0.3,0.4v0.4C44.8,20.5,45.5,20.3,45.5,20z"/>
			<path class="st2" d="M33.5,57.7c-0.3,0.3-0.3,0.5-0.2,0.6c0.2,0.1,0.7-0.6,0.7-0.7C34,57.3,33.8,57.4,33.5,57.7z"/>
			<path class="st2" d="M61,62.3c-0.2-0.2-0.7,0-0.7,0.2c0,0.1-0.1,0.2,0,0.3C60.6,63.1,61.3,62.5,61,62.3z"/>
			<path class="st2" d="M44.8,21.1c-0.1-0.2-0.5-0.1-0.6,0.1c-0.1,0.3,0,0.9,0.3,0.8c0.2,0,0.4-0.2,0.4-0.5
				C44.9,21.3,44.8,21.2,44.8,21.1z"/>
			<path class="st2" d="M68.4,62.5c0,0,0.5-0.2,0.5-0.3s0.1-0.3-0.1-0.3c-0.2-0.2-0.7-0.1-0.7,0.2C68.1,62.3,68.2,62.5,68.4,62.5z"
				/>
			<path class="st2" d="M32.6,62.9c-0.6-0.1-0.7,0.4-0.2,0.6C32.7,63.6,33,63,32.6,62.9z"/>
			<path class="st2" d="M50.9,32.7l0.4,0.1h0.1l0.2-0.1v-0.2l-0.4-0.2C51,32.3,50.7,32.6,50.9,32.7z"/>
			<path class="st2" d="M25.8,30.8h0.1l0.5-4.6c0-0.1-0.1-0.1-0.3-0.1C25.8,27.1,25.7,30.8,25.8,30.8z"/>
			
				<rect x="44.4" y="9.5" transform="matrix(0.9982 -6.014913e-02 6.014913e-02 0.9982 -0.5926 2.706)" class="st2" width="0.5" height="3.4"/>
			<path class="st2" d="M63.1,34.1v1.6h0.2l0.5-1.6h-0.4V34C63.3,34,63.1,34,63.1,34.1z"/>
			<path class="st2" d="M64.5,30.9c-0.3-0.3-0.6,0.1-0.6,0.4l0.1,1.1c0,0,0.2,0.1,0.4-0.1C64.5,32.1,64.6,31,64.5,30.9z"/>
			<path class="st2" d="M38.4,57.6L38.4,57.6l0.3-0.1v-0.3l-0.1-0.3l-0.1-0.3c0-0.2-0.1-0.3-0.2-0.3h-0.1l-0.2,0v0.5l0.1,0.3
				C38.3,57.4,38.4,57.6,38.4,57.6z"/>
			<path class="st2" d="M44.8,20.6v-0.4c0-0.5-0.7-0.4-0.7,0.1l0.1,0.6C44.2,21,44.8,20.8,44.8,20.6z"/>
			<path class="st2" d="M51.3,60.4h0.2c0.2,0-0.1-1-0.4-1h-0.2C50.7,59.3,51.1,60.4,51.3,60.4z"/>
			<path class="st2" d="M31.1,54.8c-0.1,0-0.2,0.1-0.2,0.1l-0.3,0.5c0,0.1,0,0.2,0.1,0.3c0.3,0.3,0.6-0.2,0.6-0.5
				C31.3,54.9,31.3,54.8,31.1,54.8L31.1,54.8z"/>
			<path class="st2" d="M34.5,62.3h-0.2v0.1h-0.1c-0.1,0.3,0.7,0.7,0.7,0.5v-0.4L34.5,62.3L34.5,62.3z"/>
			<path class="st2" d="M32.4,57.3c0,0.1,0,0.2,0.1,0.2h0.3c0,0,0.4-0.2,0.4-0.3V57l0,0C32.8,56.8,32.4,57.2,32.4,57.3z"/>
			<path class="st2" d="M67,62c0.2,0,0.5-0.6,0.3-0.6s-0.6-0.1-0.6,0.2C66.7,61.7,66.8,62,67,62C66.9,62,67,62,67,62z"/>
			<path class="st2" d="M42.2,63.2c-0.3,0-0.5,0.6-0.1,0.6h0.2l0.2-0.1h0.1v-0.4c0,0,0-0.1-0.1-0.1H42.2z"/>
			<path class="st2" d="M40.7,64.7h-0.4l0,0h-0.1l-0.1,0.1v0.1l0.4,0.2C41,65.4,40.9,64.7,40.7,64.7z"/>
			<path class="st2" d="M54.7,32.5l0.2,0.3h0.5c0.1,0,0.1,0,0.1-0.1v-0.2C55.4,32.5,54.9,32.2,54.7,32.5z"/>
			<path class="st2" d="M32.4,55.3C32.4,55.3,32.4,55.4,32.4,55.3v0.2c0.1,0.2,0.2,0.3,0.4,0.2c0,0,0,0,0.1-0.1l-0.2-0.9
				c0-0.2-0.4,0-0.4,0.1L32.4,55.3L32.4,55.3z"/>
			<path class="st2" d="M52.4,60.1h0.2c0.2,0,0-1-0.3-1h-0.2C51.9,59.1,52.1,60.1,52.4,60.1z"/>
			<path class="st2" d="M71.2,62.3c0.2,0,0.3-0.2,0.3-0.5c0-0.5-0.5-0.1-0.6,0.2C70.8,62,71,62.4,71.2,62.3z"/>
			<path class="st2" d="M62.9,63.9c-0.1,0.1,0.1,0.4,0.3,0.4s0.3-0.2,0.3-0.5C63.5,63.2,63,63.7,62.9,63.9z"/>
			<path class="st2" d="M63,62.1c0-0.5-0.5-0.1-0.6,0.2c-0.1,0.1,0.1,0.4,0.3,0.4C62.9,62.5,63,62.4,63,62.1z"/>
			<path class="st2" d="M38.8,64.1h-0.3c0,0-0.3,0.2-0.3,0.3v0.1l0.3,0.2h0.4c0,0,0.1,0,0.1-0.1v-0.3L38.8,64.1L38.8,64.1z"/>
			<path class="st2" d="M37.1,57.1l0.1,0.2v0.1h0.3c0.3,0,0-1.2-0.2-1.2H37c-0.1,0-0.1,0.2,0,0.6L37.1,57.1z"/>
			<path class="st2" d="M45.3,57.2v-0.4c0-0.1-0.1-0.3-0.3-0.5s-0.4,0-0.4,0.3C44.8,57.2,45.3,57.5,45.3,57.2z"/>
			<path class="st2" d="M44.7,22.2c-0.1,0-0.1,0-0.2,0c-0.1,0-0.3,0.1-0.3,0.2v0.2c0,0.2,0.1,0.4,0.2,0.4c0.1,0,0.2,0,0.2,0
				C44.8,23,44.9,22.3,44.7,22.2z"/>
			<path class="st2" d="M49.5,60.9c0.1-0.1-0.3-0.7-0.5-0.6c-0.1,0-0.1,0-0.1,0.1v0.3l0.1,0.2C49.2,61.1,49.4,61.1,49.5,60.9z"/>
			<path class="st2" d="M57.6,59.2c0.3,0,0.3-0.3,0.2-0.5c-0.2-0.2-0.5,0-0.5,0.1C57.2,59,57.4,59.2,57.6,59.2z"/>
			<path class="st2" d="M37.5,48.5c0.2,0,0.3-0.1,0.3-0.3s-0.1-0.3-0.3-0.3s-0.3,0.1-0.3,0.3S37.3,48.5,37.5,48.5z"/>
			<path class="st2" d="M63,45.4c0-0.2-0.1-0.3-0.3-0.3s-0.3,0.1-0.3,0.3s0.1,0.3,0.3,0.3S63,45.6,63,45.4z"/>
			<path class="st2" d="M64,45.3c0-0.2-0.1-0.3-0.3-0.3s-0.3,0.1-0.3,0.3s0.1,0.3,0.3,0.3S64,45.4,64,45.3z"/>
			<path class="st2" d="M53.7,63.8C53.6,63.8,53.6,63.8,53.7,63.8l-0.1,0.4c0,0,0.1,0.2,0.2,0.2h0.3l0.2-0.2v-0.3
				c0-0.1,0-0.1-0.1-0.1H53.7z"/>
			<path class="st2" d="M70.3,61.2c0.2-0.2,0.2-0.4-0.2-0.4c-0.1,0-0.2,0.2-0.3,0.3C69.7,61.3,70.1,61.5,70.3,61.2z"/>
			<path class="st2" d="M60.6,58.7c0.1-0.2,0.1-0.3-0.2-0.3c-0.2,0-0.4,0.1-0.4,0.3C60.1,58.7,60.4,59,60.6,58.7z"/>
			<path class="st2" d="M28.2,26.7L28,30v0.4v0.1c0,0.1,0,0.1,0.1,0.1h0.1c0,0,0.1-0.9,0.3-2.6c0.1-0.7,0-1.1,0-1.1L28.2,26.7z"/>
			<path class="st2" d="M37.3,59.5L37.3,59.5L37.3,59.5l0.2-0.2v-0.8c0-0.4-0.3-0.7-0.6-0.4c0,0,0,0.2,0,0.7c0,0.3,0.1,0.5,0.2,0.6
				L37.3,59.5L37.3,59.5z"/>
			<path class="st2" d="M36.2,60c-0.2,0-0.3,0.2-0.3,0.5v0.6c0,0.1,0,0.1,0.1,0.1h0.2C36.4,61.3,36.7,60,36.2,60z"/>
			<path class="st2" d="M38.2,58.4v0.7c0,0.3,0.3,0.5,0.5,0.4c0,0,0.1-0.1,0.1-0.2v-0.2l-0.2-0.7C38.5,58.1,38.2,58.4,38.2,58.4z"/>
			<path class="st2" d="M34.8,57.9c-0.2,0-0.4,0.3-0.4,0.4v0.4c0,0.1,0,0.1,0.1,0.1h0.2C34.9,58.7,35.3,57.8,34.8,57.9z"/>
			<path class="st2" d="M65.5,57.8c-0.1,0.2,0,0.4,0.1,0.4c0.1,0.1,0.3,0,0.4-0.2s0-0.4-0.1-0.4C65.8,57.5,65.6,57.6,65.5,57.8z"/>
			<path class="st2" d="M53.5,61.5v-0.3c0-0.2-0.6-0.5-0.6-0.3v0.2l0.4,0.4C53.3,61.5,53.5,61.5,53.5,61.5z"/>
			<path class="st2" d="M31.1,61.2l-0.2,0.2v0.3l0.2,0.2h0.3c0.1,0,0.3-0.6,0.1-0.6h-0.4V61.2z"/>
			<path class="st2" d="M36.3,48c0-0.2-0.1-0.3-0.3-0.3s-0.3,0.1-0.3,0.3s0.1,0.3,0.3,0.3S36.3,48.2,36.3,48z"/>
			<path class="st2" d="M61.4,45.5c0,0.2,0.1,0.3,0.3,0.3s0.3-0.1,0.3-0.3s-0.1-0.3-0.3-0.3S61.4,45.3,61.4,45.5z"/>
			<path class="st2" d="M38.9,48.8c0.2,0,0.3-0.1,0.3-0.3s-0.1-0.3-0.3-0.3s-0.3,0.1-0.3,0.3C38.6,48.7,38.7,48.8,38.9,48.8z"/>
			<path class="st2" d="M67.1,55.4c0-0.2-0.1-0.3-0.3-0.3c-0.2,0-0.3,0.1-0.3,0.3s0.1,0.3,0.3,0.3C66.9,55.7,67.1,55.6,67.1,55.4z"
				/>
			<path class="st2" d="M64.5,58.6c-0.2,0-0.3,0.1-0.3,0.3s0.1,0.3,0.3,0.3c0.2,0,0.3-0.1,0.3-0.3C64.8,58.7,64.7,58.6,64.5,58.6z"
				/>
			<path class="st2" d="M46.5,59.2c0.4,0.1,0.3-0.4-0.1-0.5C46.1,58.6,46.2,59.1,46.5,59.2z"/>
			<path class="st2" d="M67.4,57.3c-0.2,0-0.3,0.1-0.3,0.2c0,0.1,0.1,0.2,0.3,0.2c0.2,0,0.3-0.1,0.3-0.2
				C67.7,57.4,67.5,57.3,67.4,57.3z"/>
			<path class="st2" d="M31.5,55.6c0,0,0,0.1,0.1,0.2c0.1,0.1,0.4,0,0.4-0.2v-0.7c0-0.1,0-0.2-0.1-0.2h-0.3l-0.2,0.2v0.7H31.5z"/>
			<path class="st2" d="M57.3,61c0.1-0.1,0.1-0.3,0-0.4c-0.1-0.1-0.5,0-0.5,0.4C56.8,61.2,57.1,61.3,57.3,61z"/>
			<path class="st2" d="M59,59c0.1-0.2,0-0.6-0.3-0.5s-0.3,0.3-0.1,0.5C58.7,59.1,59,59.1,59,59z"/>
			<path class="st2" d="M68.4,56.4c-0.1,0-0.3,0.1-0.3,0.3s0.1,0.3,0.3,0.3c0.1,0,0.3-0.1,0.3-0.3C68.7,56.5,68.6,56.4,68.4,56.4z"
				/>
			<path class="st2" d="M38.7,62.6v-0.3c0,0,0-0.1-0.1-0.1h-0.3v0.1c0,0-0.1,0.1-0.2,0.1v0.2h0.1C38.6,62.8,38.7,62.8,38.7,62.6z"/>
			<path class="st2" d="M40.3,48.9c0.1,0,0.3-0.1,0.3-0.3c0-0.1-0.1-0.3-0.3-0.3c-0.1,0-0.3,0.1-0.3,0.3
				C40,48.8,40.1,48.9,40.3,48.9z"/>
			<path class="st2" d="M30.6,62.9v0.3c0,0,0,0.1,0.1,0.1H31c0,0,0.1,0,0.1-0.1v-0.4C31.1,62.5,30.6,62.7,30.6,62.9z"/>
			<path class="st2" d="M65,56.7c-0.1,0-0.3,0.1-0.3,0.3c0,0.1,0.1,0.3,0.3,0.3c0.1,0,0.3-0.1,0.3-0.3C65.2,56.8,65.1,56.7,65,56.7z
				"/>
			<path class="st2" d="M61.1,63.6c-0.2,0-0.4,0.1-0.4,0.3c0,0.1,0.1,0.2,0.2,0.2C61.3,64.1,61.4,63.6,61.1,63.6z"/>
			<path class="st2" d="M69.9,62.9c0.3,0.1,0.4-0.5,0.2-0.5c-0.2,0-0.4,0.1-0.4,0.3C69.7,62.8,69.8,62.9,69.9,62.9z"/>
			<path class="st2" d="M61.8,64.7c-0.2,0-0.4,0.1-0.4,0.3c0,0.1,0.1,0.2,0.2,0.2C62,65.2,62.1,64.7,61.8,64.7z"/>
			<path class="st2" d="M67.9,55.3c-0.1,0-0.3,0.1-0.3,0.2c0,0.1,0.1,0.2,0.3,0.2c0.1,0,0.3-0.1,0.3-0.2
				C68.1,55.4,68,55.3,67.9,55.3z"/>
			<path class="st2" d="M31.9,27.7c-0.2,0.3-0.3,0.9-0.3,1.8c0,0.3,0,0.4,0.1,0.4h0.1c0.3-1,0.3-2.2,0.2-2.2
				C32,27.7,31.9,27.7,31.9,27.7z"/>
			<path class="st2" d="M75.1,24.9c0-0.3,0-0.8,0-1.1c0-0.4-0.5-0.3-0.4,0.2c0,0.2,0,0.5,0,0.8s0,0.5,0.1,0.7
				C75,25.4,75.1,25.2,75.1,24.9z"/>
			<path class="st2" d="M26.7,24.9c0-0.1,0-0.3,0-0.4c0-0.2,0.1-0.3,0-0.4c-0.2-0.1-0.3,0-0.3,0.1c0,0.2-0.1,0.4-0.1,0.6
				C26.3,25,26.7,25.1,26.7,24.9z"/>
			<path class="st2" d="M36.1,58.2C36.2,58.1,36.1,58.1,36.1,58.2l-0.3-0.1l-0.2,0.4V59c0,0,0,0.1,0.1,0.1h0.1c0,0,0,0,0.1,0
				L36.1,58.2z"/>
			<path class="st2" d="M44,57.4h0.2c0,0,0,0,0.1-0.1l-0.2-0.9c0-0.1-0.3-0.1-0.3,0v0.5l0.1,0.2C43.9,57.3,44,57.4,44,57.4z"/>
			<path class="st2" d="M55.8,35.9c0.1,0.4,0.5,0.3,0.5,0.2v-0.2l-0.1-0.2C56.1,35.6,55.7,35.6,55.8,35.9z"/>
			<path class="st2" d="M59.8,57.4c0.1-0.3,0-0.3-0.3-0.3c-0.2,0-0.1,0.2-0.1,0.4C59.4,57.7,59.7,57.7,59.8,57.4z"/>
			<path class="st2" d="M67.3,56.4c0-0.1-0.1-0.2-0.2-0.2s-0.2,0.1-0.2,0.2c0,0.1,0.1,0.2,0.2,0.2C67.2,56.6,67.3,56.5,67.3,56.4z"
				/>
			<path class="st2" d="M27.2,54.1L27.2,54.1v0.3c0,0.1,0.1,0.1,0.2,0.1h0.1l0.2-0.1v-0.3L27.5,54C27.4,54,27.3,54,27.2,54.1z"/>
			<path class="st2" d="M30,30.2v-0.1V30v-0.1l0.2-2.2c0-0.2,0-0.3-0.1-0.3H30l-0.3,1.4v1.3c0,0.1,0,0.1,0.1,0.1
				C29.8,30.2,30,30.2,30,30.2z"/>
			<path class="st2" d="M32.6,60.8h0.2c0,0,0.1,0,0.1-0.1v-0.5h-0.2C32.4,60.2,32.3,60.8,32.6,60.8z"/>
			<path class="st2" d="M73.2,53.6c-0.1,0-0.2,0.1-0.2,0.2c0,0.1,0.1,0.2,0.2,0.2s0.2-0.1,0.2-0.2C73.5,53.7,73.4,53.6,73.2,53.6z"
				/>
			<path class="st2" d="M61.1,50.8c0,0.2,0,0.6,0.1,0.9h0.3c0-0.3,0-0.5,0-0.8C61.5,50.7,61.1,50.6,61.1,50.8z"/>
			<path class="st2" d="M38.3,50.2c0,0.3,0,0.5,0,0.8h0.3c0.1-0.4,0.1-0.7,0.1-0.9C38.6,49.8,38.3,49.9,38.3,50.2z"/>
			<path class="st2" d="M53.2,59.5h0.2v-0.2l-0.2-0.4H53c0,0-0.1,0-0.1,0.1v0.3C53,59.3,53,59.3,53.2,59.5L53.2,59.5z"/>
			<path class="st2" d="M74.3,53c0-0.1-0.1-0.2-0.2-0.2s-0.2,0.1-0.2,0.2s0.1,0.2,0.2,0.2C74.2,53.2,74.3,53.1,74.3,53z"/>
			<path class="st2" d="M26.8,56.4L26.8,56.4L26.8,56.4l-0.1,0.2c0,0.1,0,0.1,0.1,0.1H27c0.1,0,0.1-0.1,0.1-0.2v-0.1H26.8
				C26.8,56.3,26.8,56.3,26.8,56.4z"/>
			<path class="st2" d="M74.7,30.7c0,0.2,0.3,0.2,0.3-0.1v-2.2c0-0.3-0.3-0.4-0.3-0.2c0,0.5,0,0.9,0,1.4V30.7z"/>
			<path class="st2" d="M72.8,25.3c0-0.2,0-0.6,0-0.9s-0.3,0-0.3,0.3c0,0.2,0,0.4,0,0.6c0,0.3,0,0.4,0.1,0.5
				C72.7,25.7,72.8,25.5,72.8,25.3z"/>
			<path class="st2" d="M35.9,49.6l-0.1,0.5c-0.1,0.3,0,0.4,0.1,0.6c0.2,0,0.3-0.1,0.3-0.3v-0.7C36.1,49.5,35.9,49.4,35.9,49.6z"/>
			<path class="st2" d="M63.9,51.3C64,51.2,64,51,64,50.7l-0.1-0.5c0-0.2-0.3-0.1-0.3,0.1V51C63.6,51.2,63.7,51.3,63.9,51.3z"/>
			<path class="st2" d="M58.9,51.8l-0.1-0.5c0-0.2-0.3-0.2-0.3,0v0.6C58.5,52.1,58.9,52,58.9,51.8z"/>
			<path class="st2" d="M28.8,25.5c0-0.1,0-0.3,0-0.4c0-0.2,0-0.3,0-0.3c-0.1,0-0.2,0-0.2,0.2s-0.1,0.4-0.1,0.5
				C28.5,25.7,28.8,25.7,28.8,25.5z"/>
			<path class="st2" d="M41.2,51v-0.6c0-0.3-0.3-0.2-0.3,0l-0.1,0.5C40.9,51.1,41.2,51.2,41.2,51z"/>
			<path class="st2" d="M30.6,26.1c0-0.1,0-0.3,0-0.4c0-0.2,0-0.3,0-0.3c-0.1,0-0.2,0-0.2,0.2s-0.1,0.4-0.1,0.5
				C30.3,26.3,30.6,26.3,30.6,26.1z"/>
			<path class="st2" d="M63.7,48.7c0-0.1,0-0.4-0.1-0.7h-0.2c0,0.2,0,0.4,0,0.6C63.4,48.8,63.7,48.9,63.7,48.7z"/>
			<path class="st2" d="M32.1,26.1c0,0.2-0.1,0.3-0.1,0.5s0.3,0.2,0.3,0c0-0.1,0-0.2,0-0.3c0-0.1,0-0.2,0-0.3
				C32.2,25.9,32.1,26,32.1,26.1z"/>
			<path class="st2" d="M59.2,56.6c0.1,0,0.1-0.1,0.1-0.3c0-0.3-0.4-0.1-0.4,0.1C58.9,56.6,59.1,56.7,59.2,56.6z"/>
			<path class="st2" d="M59.1,59.5L59.1,59.5c-0.2,0.1-0.2,0.4-0.1,0.4l0.2-0.1C59.2,59.8,59.3,59.5,59.1,59.5z"/>
			<path class="st2" d="M28.3,57.4v0.3c0,0.1,0,0.1,0.1,0.1h0.3v-0.3C28.7,57.3,28.3,57.3,28.3,57.4z"/>
			<path class="st2" d="M28.3,56.1c0,0-0.3,0-0.3,0.1v0.2c0,0.1,0.3,0.2,0.4,0C28.4,56.2,28.3,56.1,28.3,56.1z"/>
			<path class="st2" d="M33.5,28.2L33.5,28.2l-0.1,0.9c0,0.4,0,0.6,0.1,0.7h0.1c0.1-0.1,0.2-0.3,0.2-0.6v-0.9c0-0.1,0-0.1-0.1-0.1
				H33.5z"/>
			<path class="st2" d="M61.6,49v-0.5c0-0.2-0.1-0.2-0.2-0.2c-0.1,0.1-0.1,0.2-0.1,0.4l0.1,0.4C61.4,49.1,61.6,49.1,61.6,49z"/>
			<path class="st2" d="M74.3,54.2c-0.1,0-0.2,0.1-0.2,0.2c0,0.1,0.1,0.2,0.2,0.2s0.2-0.1,0.2-0.2S74.4,54.2,74.3,54.2z"/>
			<circle class="st2" cx="75.2" cy="53.1" r="0.2"/>
			<path class="st2" d="M62.1,54.8C62,54.7,62,54.7,62.1,54.8L62,54.6h-0.2c0,0-0.1,0-0.1,0.1v0.2c0,0.1,0.2,0.1,0.2,0.1
				C62,54.9,62,54.8,62.1,54.8z"/>
			<path class="st2" d="M26.3,54.8L26.3,54.8V55c0,0.1,0.3,0.1,0.3,0v-0.2H26.3L26.3,54.8z"/>
			<path class="st2" d="M72.6,30.2c0,0.2,0.2,0.2,0.2-0.1v-1.7c0-0.3-0.2-0.3-0.2-0.2c0,0.4,0,0.7,0,1.1V30.2z"/>
			<path class="st2" d="M70.9,30.1c0,0.1,0.2,0.2,0.2-0.1v-1.5c0-0.2-0.2-0.3-0.2-0.1c0,0.3,0,0.6,0,1V30.1z"/>
			<path class="st2" d="M70.9,26.1c0-0.2,0-0.5,0-0.7s-0.3-0.1-0.3,0.2c0,0.1,0,0.3,0,0.5s0,0.3,0.1,0.4
				C70.9,26.5,70.9,26.3,70.9,26.1z"/>
			<path class="st2" d="M35.2,27.3c0-0.1,0-0.2,0-0.3c0-0.1,0-0.2,0-0.3c-0.1,0-0.2,0-0.2,0.1s-0.1,0.3-0.1,0.4
				C34.9,27.5,35.2,27.5,35.2,27.3z"/>
			<path class="st2" d="M69.4,26.6c0-0.2,0-0.4,0-0.6s-0.3-0.1-0.2,0.1c0,0.1,0,0.3,0,0.4c0,0.2,0,0.3,0.1,0.3
				C69.4,26.9,69.4,26.8,69.4,26.6z"/>
			<path class="st2" d="M68,27c0-0.1,0-0.3,0-0.5s-0.2-0.1-0.2,0.1c0,0.1,0,0.2,0,0.3c0,0.2,0,0.2,0.1,0.3C68,27.3,68,27.2,68,27z"
				/>
			<path class="st2" d="M33.8,27c0-0.1,0-0.2,0-0.3c0-0.1,0-0.2,0-0.3c-0.1,0-0.2,0-0.2,0.1s-0.1,0.3-0.1,0.4
				C33.5,27.1,33.8,27.1,33.8,27z"/>
			<path class="st2" d="M29.7,57.5h-0.2c0,0-0.1,0-0.1,0.1v0.2c0,0,0,0.1,0.1,0.1h0.2C29.8,57.8,29.8,57.5,29.7,57.5z"/>
			<path class="st2" d="M69.2,30.1c0,0.1,0.2,0.1,0.2-0.1v-1.3c0-0.2-0.2-0.2-0.2-0.1c0,0.3,0,0.6,0,0.9V30.1z"/>
			<path class="st2" d="M34.8,29.8c0,0.1,0.1,0.3,0.2,0v-1.3h-0.2C34.8,28.5,34.8,29.5,34.8,29.8z"/>
			<path class="st2" d="M67.8,30c0,0.1,0.2,0.1,0.2,0v-1.1c0-0.2-0.2-0.2-0.2-0.1c0,0.2,0,0.5,0,0.7V30z"/>
			<path class="st2" d="M66.5,27.7c0.1,0,0.1-0.1,0.1-0.2s0-0.3,0-0.4s-0.2-0.1-0.2,0.1c0,0.1,0,0.2,0,0.3
				C66.4,27.5,66.4,27.6,66.5,27.7z"/>
			<path class="st2" d="M66.4,29.5V30c0,0.1,0.2,0.1,0.2-0.1v-1c0-0.1-0.2-0.2-0.2-0.1C66.4,29.1,66.4,29.3,66.4,29.5z"/>
		</g>
	</g>
</g>
<g id="Layer_3" class="st0">
	<g id="HC882X_1_" class="st1">
	</g>
</g>
<g>
	<g>
		<path class="st5" d="M13.3,65.8c0.2-0.5,0.4-1.4,0.7-2.5c0.4,0,1.5,0,1.9,0.1c0.1,0.8,0.1,2.2,0.1,2.9l-0.3,0.6
			c-1.2,0.8-3,1.4-5.1,1.4c-4.5,0-7.3-2.8-7.3-7.3c0-4.6,3.5-7.6,7.8-7.6c1.9,0,3.5,0.5,4.8,1.2l0.3,0.5c-0.2,1.1-0.5,2.5-0.7,3.6
			c-0.4,0-1.3,0-1.8-0.1c-0.2-1.2-0.4-2.2-0.6-2.7c-0.6-0.4-1.4-0.7-2.5-0.7c-1.1,0-2.1,0.3-2.7,0.8C7,57,6.4,58.8,6.4,60.8
			c0,3.3,1.7,5.5,4.6,5.5C12,66.4,12.8,66.1,13.3,65.8z"/>
		<path class="st5" d="M18,61.2c0-4.7,3.4-7.9,7.5-7.9c4,0,6.8,2.7,6.8,7c0,4.6-3.1,7.9-7.3,7.9C20.8,68.3,18,65.6,18,61.2z
			 M28.1,65.6c0.5-0.8,1.1-2.3,1.1-4.6c0-3.5-1.3-5.8-4.1-5.8c-1,0-1.9,0.3-2.6,0.8c-0.8,1.1-1.4,2.7-1.4,4.9c0,3.5,1.6,5.6,4.3,5.6
			C26.6,66.5,27.5,66.1,28.1,65.6z"/>
		<path class="st5" d="M44.7,68l-1.8-2.5c-1.8-2.4-4-5.3-5.8-7.5c0,4,0.1,7.7,0.3,8.1c0.2,0.3,1.4,0.5,2.3,0.7l-0.2,1.1h-5.9
			l-0.2-1.1l1.8-0.5c0.1-0.7,0.1-2.5,0.1-5.5c0-3.3,0-5-0.2-5.3c-0.3-0.2-1.1-0.5-1.7-0.8l0.2-1.1c1.3,0,2.8,0,4.1-0.1
			c1.3,2.3,4.8,6.6,7.5,10c0-4.3-0.2-7.7-0.4-8.1c-0.2-0.3-1.4-0.5-2.1-0.7l0.2-1.1h5.9l0.2,1.1l-1.8,0.6c-0.2,1.5-0.3,6.3-0.3,12.5
			L44.7,68z"/>
		<path class="st5" d="M55.6,67.9h-5.9l-0.2-1.1l1.7-0.7c1.4-3,2.8-6.7,4.2-10.4l0.7-2c0.5-0.1,2.2-0.4,3.1-0.3
			c0.2,0.7,0.4,1.4,0.8,2.3c1.4,3.6,3,7.8,4.1,10.4l1.9,0.6l-0.2,1.1h-6.4L59,66.9l1.9-0.5c-0.3-0.9-0.7-1.9-1.1-3l-5.4,0.1
			c-0.3,1-0.7,1.9-0.9,2.8l2.3,0.7L55.6,67.9z M59.3,61.8c-0.7-1.8-1.4-3.8-2.2-5.9c-0.7,1.9-1.4,3.9-2.1,5.8L59.3,61.8z"/>
		<path class="st5" d="M78.9,68l-1.8-2.5c-1.8-2.4-4-5.3-5.8-7.5c0,4,0.1,7.7,0.3,8.1c0.2,0.3,1.4,0.5,2.3,0.7l-0.2,1.1h-5.9
			l-0.2-1.1l1.8-0.5c0.1-0.7,0.1-2.5,0.1-5.5c0-3.3,0-5-0.2-5.3c-0.3-0.2-1.1-0.5-1.7-0.8l0.2-1.1c1.3,0,2.8,0,4.1-0.1
			c1.3,2.3,4.8,6.6,7.5,10c0-4.3-0.2-7.7-0.4-8.1c-0.2-0.3-1.4-0.5-2.1-0.7l0.2-1.1H83l0.2,1.1l-1.8,0.6c-0.2,1.5-0.3,6.3-0.3,12.5
			L78.9,68z"/>
		<path class="st5" d="M85.8,66.3c0.1-0.4,0.1-2.6,0.1-3.7V59c0-1.2,0-3.2-0.2-3.5c-0.2-0.3-1.1-0.5-1.7-0.7l0.2-1.1h3.1
			c0.7,0,2.9-0.1,3.9-0.1c3.5,0,5.6,1.6,5.6,4.6c0,3.2-2.2,5-5.8,5c-0.9,0-1.6-0.1-2.2-0.1c0,1.2,0.1,2.9,0.2,3.2
			c0.3,0.3,1.3,0.5,2.1,0.7l-0.2,1.1h-6.6L84,66.9L85.8,66.3z M92.9,55.6c-0.5-0.3-1.2-0.5-2.1-0.5c-0.6,0-1.2,0.1-1.7,0.2l-0.1,0
			c-0.1,0.4-0.1,2.6-0.1,3.7v2.3c0.6,0.1,1.4,0.2,1.9,0.2c0.8,0,1.6-0.1,2.2-0.4c0.5-0.4,1-1.3,1-2.8C93.8,57,93.4,56.1,92.9,55.6z"
			/>
	</g>
	<g>
		<g>
			<g>
				<path class="st6" d="M38.9,73.8v3h-0.6L36.8,75v1.8h-0.7v-3h0.6l1.5,1.8v-1.8H38.9z"/>
				<path class="st6" d="M42.1,76.2h-1.4l-0.3,0.6h-0.7l1.3-3h0.7l1.3,3h-0.7L42.1,76.2z M41.9,75.7l-0.5-1.1L41,75.7H41.9z"/>
				<path class="st6" d="M44.6,76.7c-0.2-0.1-0.4-0.3-0.6-0.5c-0.1-0.2-0.2-0.5-0.2-0.8c0-0.3,0.1-0.6,0.2-0.8
					c0.1-0.2,0.3-0.4,0.6-0.5c0.2-0.1,0.5-0.2,0.8-0.2c0.3,0,0.5,0,0.7,0.1c0.2,0.1,0.4,0.2,0.5,0.4l-0.4,0.4
					c-0.2-0.2-0.5-0.3-0.7-0.3c-0.2,0-0.3,0-0.5,0.1c-0.1,0.1-0.3,0.2-0.3,0.3c-0.1,0.1-0.1,0.3-0.1,0.5c0,0.2,0,0.3,0.1,0.5
					c0.1,0.1,0.2,0.3,0.3,0.3c0.1,0.1,0.3,0.1,0.5,0.1c0.3,0,0.5-0.1,0.7-0.4l0.4,0.4c-0.1,0.2-0.3,0.3-0.5,0.4
					c-0.2,0.1-0.4,0.1-0.7,0.1C45.1,76.9,44.8,76.8,44.6,76.7z"/>
				<path class="st6" d="M47.7,73.8h0.7v3h-0.7V73.8z"/>
				<path class="st6" d="M50.3,76.7c-0.2-0.1-0.4-0.3-0.6-0.5c-0.1-0.2-0.2-0.5-0.2-0.8c0-0.3,0.1-0.6,0.2-0.8
					c0.1-0.2,0.3-0.4,0.6-0.6c0.2-0.1,0.5-0.2,0.8-0.2c0.3,0,0.6,0.1,0.8,0.2c0.2,0.1,0.4,0.3,0.6,0.6c0.1,0.2,0.2,0.5,0.2,0.8
					c0,0.3-0.1,0.6-0.2,0.8c-0.1,0.2-0.3,0.4-0.6,0.5c-0.2,0.1-0.5,0.2-0.8,0.2C50.8,76.9,50.5,76.8,50.3,76.7z M51.6,76.2
					c0.1-0.1,0.3-0.2,0.3-0.3c0.1-0.1,0.1-0.3,0.1-0.5c0-0.2,0-0.3-0.1-0.5c-0.1-0.1-0.2-0.3-0.3-0.3c-0.1-0.1-0.3-0.1-0.5-0.1
					c-0.2,0-0.3,0-0.5,0.1c-0.1,0.1-0.3,0.2-0.3,0.3c-0.1,0.1-0.1,0.3-0.1,0.5c0,0.2,0,0.3,0.1,0.5c0.1,0.1,0.2,0.3,0.3,0.3
					c0.1,0.1,0.3,0.1,0.5,0.1C51.3,76.3,51.5,76.2,51.6,76.2z"/>
				<path class="st6" d="M56.6,73.8v3H56L54.5,75v1.8h-0.7v-3h0.6l1.5,1.8v-1.8H56.6z"/>
				<path class="st6" d="M59.8,76.2h-1.4l-0.3,0.6h-0.7l1.3-3h0.7l1.3,3h-0.7L59.8,76.2z M59.6,75.7l-0.5-1.1l-0.5,1.1H59.6z"/>
				<path class="st6" d="M61.7,73.8h0.7v2.4h1.5v0.6h-2.2V73.8z"/>
				<path class="st6" d="M66.7,73.8H68c0.3,0,0.6,0.1,0.9,0.2c0.2,0.1,0.4,0.3,0.6,0.5c0.1,0.2,0.2,0.5,0.2,0.8
					c0,0.3-0.1,0.6-0.2,0.8c-0.1,0.2-0.3,0.4-0.6,0.5c-0.2,0.1-0.5,0.2-0.9,0.2h-1.4V73.8z M68,76.2c0.3,0,0.5-0.1,0.7-0.2
					c0.2-0.2,0.3-0.4,0.3-0.7c0-0.3-0.1-0.5-0.3-0.7c-0.2-0.2-0.4-0.2-0.7-0.2h-0.6v1.8H68z"/>
				<path class="st6" d="M73.1,76.3v0.6h-2.3v-3H73v0.6h-1.6V75h1.4v0.5h-1.4v0.7H73.1z"/>
				<path class="st6" d="M78,76.2h-1.4l-0.3,0.6h-0.7l1.3-3h0.7l1.3,3h-0.7L78,76.2z M77.8,75.7l-0.5-1.1l-0.5,1.1H77.8z M77.5,73
					h0.7l-0.8,0.6h-0.5L77.5,73z"/>
				<path class="st6" d="M81.8,76.8L81.2,76h0h-0.6v0.8h-0.7v-3h1.3c0.3,0,0.5,0,0.7,0.1c0.2,0.1,0.3,0.2,0.4,0.4
					c0.1,0.2,0.2,0.4,0.2,0.6c0,0.2-0.1,0.4-0.2,0.6c-0.1,0.2-0.3,0.3-0.5,0.4l0.7,1H81.8z M81.6,74.5c-0.1-0.1-0.3-0.1-0.5-0.1
					h-0.6v1h0.6c0.2,0,0.4,0,0.5-0.1c0.1-0.1,0.2-0.2,0.2-0.4C81.8,74.7,81.7,74.6,81.6,74.5z"/>
				<path class="st6" d="M85.9,76.3v0.6h-2.3v-3h2.2v0.6h-1.6V75h1.4v0.5h-1.4v0.7H85.9z"/>
				<path class="st6" d="M89,76.2h-1.4l-0.3,0.6h-0.7l1.3-3h0.7l1.3,3h-0.7L89,76.2z M88.8,75.7l-0.5-1.1l-0.5,1.1H88.8z"/>
				<path class="st6" d="M91.2,76.8c-0.2-0.1-0.4-0.1-0.5-0.2l0.2-0.5c0.1,0.1,0.3,0.2,0.5,0.2c0.2,0.1,0.4,0.1,0.5,0.1
					c0.2,0,0.3,0,0.4-0.1c0.1-0.1,0.1-0.1,0.1-0.2c0-0.1,0-0.1-0.1-0.2s-0.1-0.1-0.2-0.1c-0.1,0-0.2-0.1-0.4-0.1
					c-0.2-0.1-0.4-0.1-0.6-0.2c-0.1-0.1-0.3-0.1-0.4-0.3c-0.1-0.1-0.2-0.3-0.2-0.5c0-0.2,0-0.3,0.1-0.5c0.1-0.1,0.2-0.3,0.4-0.3
					c0.2-0.1,0.4-0.1,0.7-0.1c0.2,0,0.4,0,0.6,0.1c0.2,0,0.3,0.1,0.5,0.2l-0.2,0.5c-0.3-0.2-0.5-0.2-0.8-0.2c-0.2,0-0.3,0-0.4,0.1
					c-0.1,0.1-0.1,0.1-0.1,0.2s0.1,0.2,0.2,0.2c0.1,0,0.3,0.1,0.5,0.1c0.2,0.1,0.4,0.1,0.6,0.2c0.1,0.1,0.3,0.1,0.4,0.3
					c0.1,0.1,0.2,0.3,0.2,0.5c0,0.2,0,0.3-0.1,0.5c-0.1,0.1-0.2,0.3-0.4,0.3c-0.2,0.1-0.4,0.1-0.7,0.1
					C91.6,76.9,91.4,76.8,91.2,76.8z"/>
				<path class="st6" d="M18.4,78.7v3h-0.6l-1.5-1.8v1.8h-0.7v-3h0.6l1.5,1.8v-1.8H18.4z"/>
				<path class="st6" d="M21.6,81.1h-1.4L20,81.7h-0.7l1.3-3h0.7l1.3,3h-0.7L21.6,81.1z M21.4,80.6l-0.5-1.1l-0.5,1.1H21.4z"/>
				<path class="st6" d="M24,79.3h-1v-0.6h2.6v0.6h-1v2.4H24V79.3z"/>
				<path class="st6" d="M26.9,81.4c-0.2-0.2-0.4-0.6-0.4-1v-1.7h0.7v1.6c0,0.5,0.2,0.8,0.7,0.8c0.2,0,0.4-0.1,0.5-0.2
					c0.1-0.1,0.2-0.3,0.2-0.6v-1.6h0.7v1.7c0,0.4-0.1,0.8-0.4,1c-0.2,0.2-0.6,0.4-1,0.4S27.1,81.6,26.9,81.4z"/>
				<path class="st6" d="M32.4,81.7l-0.6-0.8h0h-0.6v0.8h-0.7v-3h1.3c0.3,0,0.5,0,0.7,0.1c0.2,0.1,0.3,0.2,0.4,0.4
					c0.1,0.2,0.2,0.4,0.2,0.6c0,0.2-0.1,0.4-0.2,0.6c-0.1,0.2-0.3,0.3-0.5,0.4l0.7,1H32.4z M32.2,79.4c-0.1-0.1-0.3-0.1-0.5-0.1
					h-0.6v1h0.6c0.2,0,0.4,0,0.5-0.1c0.1-0.1,0.2-0.2,0.2-0.4C32.3,79.7,32.3,79.5,32.2,79.4z"/>
				<path class="st6" d="M36.1,81.1h-1.4l-0.3,0.6h-0.7l1.3-3h0.7l1.3,3h-0.7L36.1,81.1z M35.9,80.6l-0.5-1.1L35,80.6H35.9z"/>
				<path class="st6" d="M38,78.7h0.7v2.4h1.5v0.6H38V78.7z"/>
				<path class="st6" d="M43.5,81.2v0.6h-2.3v-3h2.2v0.6h-1.6v0.6h1.4v0.5h-1.4v0.7H43.5z"/>
				<path class="st6" d="M44.9,81.7c-0.2-0.1-0.4-0.1-0.5-0.2l0.2-0.5c0.1,0.1,0.3,0.2,0.5,0.2c0.2,0.1,0.4,0.1,0.5,0.1
					c0.2,0,0.3,0,0.4-0.1c0.1-0.1,0.1-0.1,0.1-0.2c0-0.1,0-0.1-0.1-0.2c-0.1,0-0.1-0.1-0.2-0.1c-0.1,0-0.2-0.1-0.3-0.1
					c-0.2-0.1-0.4-0.1-0.6-0.2c-0.1-0.1-0.3-0.1-0.4-0.3c-0.1-0.1-0.2-0.3-0.2-0.5c0-0.2,0-0.3,0.1-0.5c0.1-0.1,0.2-0.3,0.4-0.3
					c0.2-0.1,0.4-0.1,0.7-0.1c0.2,0,0.4,0,0.6,0.1c0.2,0,0.3,0.1,0.5,0.2l-0.2,0.5c-0.3-0.2-0.5-0.2-0.8-0.2c-0.2,0-0.3,0-0.4,0.1
					c-0.1,0.1-0.1,0.1-0.1,0.2c0,0.1,0.1,0.2,0.2,0.2c0.1,0,0.3,0.1,0.5,0.1c0.2,0.1,0.4,0.1,0.6,0.2c0.1,0.1,0.3,0.1,0.4,0.3
					c0.1,0.1,0.2,0.3,0.2,0.5c0,0.2,0,0.3-0.1,0.5c-0.1,0.1-0.2,0.3-0.4,0.3c-0.2,0.1-0.4,0.1-0.7,0.1
					C45.4,81.8,45.1,81.7,44.9,81.7z"/>
				<path class="st6" d="M51.7,78.9c0.2,0.1,0.3,0.2,0.4,0.4c0.1,0.2,0.2,0.4,0.2,0.6c0,0.2-0.1,0.4-0.2,0.6
					c-0.1,0.2-0.3,0.3-0.4,0.4c-0.2,0.1-0.4,0.1-0.7,0.1h-0.6v0.8h-0.7v-3H51C51.3,78.7,51.5,78.8,51.7,78.9z M51.5,80.2
					c0.1-0.1,0.2-0.2,0.2-0.4c0-0.2-0.1-0.3-0.2-0.4c-0.1-0.1-0.3-0.1-0.5-0.1h-0.6v1H51C51.2,80.3,51.3,80.3,51.5,80.2z"/>
				<path class="st6" d="M55.3,81.7l-0.6-0.8h0h-0.6v0.8h-0.7v-3h1.3c0.3,0,0.5,0,0.7,0.1c0.2,0.1,0.3,0.2,0.4,0.4
					c0.1,0.2,0.2,0.4,0.2,0.6c0,0.2-0.1,0.4-0.2,0.6c-0.1,0.2-0.3,0.3-0.5,0.4l0.7,1H55.3z M55.1,79.4c-0.1-0.1-0.3-0.1-0.5-0.1
					h-0.6v1h0.6c0.2,0,0.4,0,0.5-0.1c0.1-0.1,0.2-0.2,0.2-0.4C55.3,79.7,55.2,79.5,55.1,79.4z"/>
				<path class="st6" d="M57.7,81.6c-0.2-0.1-0.4-0.3-0.6-0.6c-0.1-0.2-0.2-0.5-0.2-0.8c0-0.3,0.1-0.6,0.2-0.8
					c0.1-0.2,0.3-0.4,0.6-0.5c0.2-0.1,0.5-0.2,0.8-0.2c0.3,0,0.6,0.1,0.8,0.2c0.2,0.1,0.4,0.3,0.6,0.5c0.1,0.2,0.2,0.5,0.2,0.8
					c0,0.3-0.1,0.6-0.2,0.8c-0.1,0.2-0.3,0.4-0.6,0.6c-0.2,0.1-0.5,0.2-0.8,0.2C58.2,81.8,58,81.7,57.7,81.6z M59,81.1
					c0.1-0.1,0.3-0.2,0.3-0.3c0.1-0.1,0.1-0.3,0.1-0.5c0-0.2,0-0.3-0.1-0.5c-0.1-0.1-0.2-0.3-0.3-0.3c-0.1-0.1-0.3-0.1-0.5-0.1
					s-0.3,0-0.5,0.1c-0.1,0.1-0.3,0.2-0.3,0.3c-0.1,0.1-0.1,0.3-0.1,0.5c0,0.2,0,0.3,0.1,0.5c0.1,0.1,0.2,0.3,0.3,0.3
					c0.1,0.1,0.3,0.1,0.5,0.1S58.9,81.1,59,81.1z"/>
				<path class="st6" d="M61.9,79.3h-1v-0.6h2.6v0.6h-1v2.4h-0.7V79.3z"/>
				<path class="st6" d="M66.8,81.2v0.6h-2.3v-3h2.2v0.6h-1.6v0.6h1.4v0.5h-1.4v0.7H66.8z"/>
				<path class="st6" d="M69.9,80.2h0.6v1.2c-0.2,0.1-0.3,0.2-0.6,0.3c-0.2,0.1-0.4,0.1-0.6,0.1c-0.3,0-0.6-0.1-0.8-0.2
					s-0.4-0.3-0.6-0.5c-0.1-0.2-0.2-0.5-0.2-0.8c0-0.3,0.1-0.6,0.2-0.8c0.1-0.2,0.3-0.4,0.6-0.5c0.2-0.1,0.5-0.2,0.8-0.2
					c0.3,0,0.5,0,0.7,0.1c0.2,0.1,0.4,0.2,0.5,0.4l-0.4,0.4c-0.2-0.2-0.5-0.3-0.8-0.3c-0.2,0-0.4,0-0.5,0.1
					c-0.1,0.1-0.3,0.2-0.3,0.3c-0.1,0.1-0.1,0.3-0.1,0.5c0,0.2,0,0.3,0.1,0.5c0.1,0.1,0.2,0.3,0.3,0.3c0.1,0.1,0.3,0.1,0.5,0.1
					c0.2,0,0.4,0,0.5-0.1V80.2z"/>
				<path class="st6" d="M71.8,78.7h0.7v3h-0.7V78.7z"/>
				<path class="st6" d="M73.8,78.7h1.4c0.3,0,0.6,0.1,0.9,0.2c0.2,0.1,0.4,0.3,0.6,0.5c0.1,0.2,0.2,0.5,0.2,0.8
					c0,0.3-0.1,0.6-0.2,0.8c-0.1,0.2-0.3,0.4-0.6,0.5c-0.2,0.1-0.5,0.2-0.9,0.2h-1.4V78.7z M75.1,81.2c0.3,0,0.5-0.1,0.7-0.2
					c0.2-0.2,0.3-0.4,0.3-0.7c0-0.3-0.1-0.5-0.3-0.7c-0.2-0.2-0.4-0.2-0.7-0.2h-0.6v1.8H75.1z"/>
				<path class="st6" d="M79.8,81.1h-1.4l-0.3,0.6h-0.7l1.3-3h0.7l1.3,3H80L79.8,81.1z M79.6,80.6l-0.5-1.1l-0.5,1.1H79.6z"/>
				<path class="st6" d="M82,81.7c-0.2-0.1-0.4-0.1-0.5-0.2l0.2-0.5c0.1,0.1,0.3,0.2,0.5,0.2c0.2,0.1,0.4,0.1,0.5,0.1
					c0.2,0,0.3,0,0.4-0.1c0.1-0.1,0.1-0.1,0.1-0.2c0-0.1,0-0.1-0.1-0.2c-0.1,0-0.1-0.1-0.2-0.1c-0.1,0-0.2-0.1-0.3-0.1
					c-0.2-0.1-0.4-0.1-0.6-0.2c-0.1-0.1-0.3-0.1-0.4-0.3c-0.1-0.1-0.2-0.3-0.2-0.5c0-0.2,0-0.3,0.1-0.5c0.1-0.1,0.2-0.3,0.4-0.3
					c0.2-0.1,0.4-0.1,0.7-0.1c0.2,0,0.4,0,0.6,0.1c0.2,0,0.3,0.1,0.5,0.2l-0.2,0.5c-0.3-0.2-0.5-0.2-0.8-0.2c-0.2,0-0.3,0-0.4,0.1
					c-0.1,0.1-0.1,0.1-0.1,0.2c0,0.1,0.1,0.2,0.2,0.2c0.1,0,0.3,0.1,0.5,0.1c0.2,0.1,0.4,0.1,0.6,0.2c0.1,0.1,0.3,0.1,0.4,0.3
					c0.1,0.1,0.2,0.3,0.2,0.5c0,0.2,0,0.3-0.1,0.5c-0.1,0.1-0.2,0.3-0.4,0.3c-0.2,0.1-0.4,0.1-0.7,0.1C82.4,81.8,82.2,81.7,82,81.7z
					"/>
				<g>
					<path class="st6" d="M7,76.7c-0.2-0.1-0.4-0.3-0.6-0.5c-0.1-0.2-0.2-0.5-0.2-0.8c0-0.3,0.1-0.6,0.2-0.8C6.6,74.3,6.8,74.1,7,74
						c0.2-0.1,0.5-0.2,0.8-0.2c0.3,0,0.5,0,0.7,0.1c0.2,0.1,0.4,0.2,0.5,0.4l-0.4,0.4c-0.2-0.2-0.5-0.3-0.7-0.3
						c-0.2,0-0.3,0-0.5,0.1c-0.1,0.1-0.3,0.2-0.3,0.3C7,75,6.9,75.1,6.9,75.3c0,0.2,0,0.3,0.1,0.5c0.1,0.1,0.2,0.3,0.3,0.3
						c0.1,0.1,0.3,0.1,0.5,0.1c0.3,0,0.5-0.1,0.7-0.4l0.4,0.4c-0.1,0.2-0.3,0.3-0.5,0.4c-0.2,0.1-0.4,0.1-0.7,0.1
						C7.5,76.9,7.3,76.8,7,76.7z"/>
					<path class="st6" d="M10.7,76.7c-0.2-0.1-0.4-0.3-0.6-0.6c-0.1-0.2-0.2-0.5-0.2-0.8c0-0.3,0.1-0.6,0.2-0.8
						c0.1-0.2,0.3-0.4,0.6-0.6c0.2-0.1,0.5-0.2,0.8-0.2c0.3,0,0.6,0.1,0.8,0.2c0.2,0.1,0.4,0.3,0.6,0.6c0.1,0.2,0.2,0.5,0.2,0.8
						c0,0.3-0.1,0.6-0.2,0.8c-0.1,0.2-0.3,0.4-0.6,0.6c-0.2,0.1-0.5,0.2-0.8,0.2C11.2,76.9,10.9,76.8,10.7,76.7z M12,76.2
						c0.1-0.1,0.3-0.2,0.3-0.3c0.1-0.1,0.1-0.3,0.1-0.5c0-0.2,0-0.3-0.1-0.5c-0.1-0.1-0.2-0.3-0.3-0.3c-0.1-0.1-0.3-0.1-0.5-0.1
						c-0.2,0-0.3,0-0.5,0.1c-0.1,0.1-0.3,0.2-0.3,0.3c-0.1,0.1-0.1,0.3-0.1,0.5c0,0.2,0,0.3,0.1,0.5c0.1,0.1,0.2,0.3,0.3,0.3
						c0.1,0.1,0.3,0.1,0.5,0.1C11.7,76.3,11.8,76.2,12,76.2z"/>
					<path class="st6" d="M16.9,76.8l0-1.8l-0.9,1.5h-0.3l-0.9-1.4v1.7h-0.6v-3h0.6l1.1,1.8l1.1-1.8h0.6l0,3H16.9z"/>
					<path class="st6" d="M18.9,73.8h0.7v3h-0.7V73.8z"/>
					<path class="st6" d="M21.2,76.8c-0.2-0.1-0.4-0.1-0.5-0.2l0.2-0.5c0.1,0.1,0.3,0.2,0.5,0.2c0.2,0.1,0.4,0.1,0.5,0.1
						c0.2,0,0.3,0,0.4-0.1c0.1-0.1,0.1-0.1,0.1-0.2c0-0.1,0-0.1-0.1-0.2c-0.1,0-0.1-0.1-0.2-0.1c-0.1,0-0.2-0.1-0.4-0.1
						c-0.2-0.1-0.4-0.1-0.6-0.2c-0.1-0.1-0.3-0.1-0.4-0.3c-0.1-0.1-0.2-0.3-0.2-0.5c0-0.2,0-0.3,0.1-0.5c0.1-0.1,0.2-0.3,0.4-0.3
						c0.2-0.1,0.4-0.1,0.7-0.1c0.2,0,0.4,0,0.6,0.1c0.2,0,0.3,0.1,0.5,0.2l-0.2,0.5c-0.3-0.2-0.5-0.2-0.8-0.2c-0.2,0-0.3,0-0.4,0.1
						c-0.1,0.1-0.1,0.1-0.1,0.2c0,0.1,0.1,0.2,0.2,0.2c0.1,0,0.3,0.1,0.5,0.1c0.2,0.1,0.4,0.1,0.6,0.2c0.1,0.1,0.3,0.1,0.4,0.3
						c0.1,0.1,0.2,0.3,0.2,0.5c0,0.2,0,0.3-0.1,0.5c-0.1,0.1-0.2,0.3-0.4,0.3c-0.2,0.1-0.4,0.1-0.7,0.1
						C21.6,76.9,21.4,76.8,21.2,76.8z"/>
					<path class="st6" d="M24.2,73.8h0.7v3h-0.7V73.8z"/>
					<path class="st6" d="M26.8,76.7c-0.2-0.1-0.4-0.3-0.6-0.6C26,75.9,26,75.6,26,75.3c0-0.3,0.1-0.6,0.2-0.8
						c0.1-0.2,0.3-0.4,0.6-0.6c0.2-0.1,0.5-0.2,0.8-0.2c0.3,0,0.6,0.1,0.8,0.2c0.2,0.1,0.4,0.3,0.6,0.6c0.1,0.2,0.2,0.5,0.2,0.8
						c0,0.3-0.1,0.6-0.2,0.8c-0.1,0.2-0.3,0.4-0.6,0.6c-0.2,0.1-0.5,0.2-0.8,0.2C27.3,76.9,27,76.8,26.8,76.7z M28.1,76.2
						c0.1-0.1,0.3-0.2,0.3-0.3c0.1-0.1,0.1-0.3,0.1-0.5c0-0.2,0-0.3-0.1-0.5c-0.1-0.1-0.2-0.3-0.3-0.3c-0.1-0.1-0.3-0.1-0.5-0.1
						c-0.2,0-0.3,0-0.5,0.1c-0.1,0.1-0.3,0.2-0.3,0.3c-0.1,0.1-0.1,0.3-0.1,0.5c0,0.2,0,0.3,0.1,0.5c0.1,0.1,0.2,0.3,0.3,0.3
						c0.1,0.1,0.3,0.1,0.5,0.1C27.8,76.3,27.9,76.2,28.1,76.2z M27.8,73h0.7l-0.8,0.6h-0.5L27.8,73z"/>
					<path class="st6" d="M33.1,73.8v3h-0.6L31,75v1.8h-0.7v-3h0.6l1.5,1.8v-1.8H33.1z"/>
				</g>
			</g>
		</g>
	</g>
	<g>
		<g>
			<g>
				<g>
					<g>
						<g>
							<g>
								<path class="st7" d="M40.5,36c0-0.2-0.2-0.3-0.4-0.3c-0.2,0-0.4,0.2-0.4,0.5c0,0,0,0.1,0,0.1c0.5,1.9,1.4,3.6,2.6,5.1
									c0.1,0.2,0.2,0.4,0.2,0.6c0,0.5-0.4,0.9-0.9,0.9c-0.1,0-0.2,0-0.2,0c-3.5-0.9-6.5-2.9-8.3-5.7c0-0.1-0.1-0.1-0.2-0.1
									c-0.1,0-0.3,0.1-0.3,0.3c0,0,0,0.1,0,0.1c2.6,6.1,8.6,10.4,15.7,10.4c8,0,14.7-5.5,16.5-12.9c-1,2.5-3,4.8-5.8,6.5
									c-2.4,1.5-5,2.2-7.4,2.2C46.8,43.5,42.7,40.5,40.5,36z"/>
							</g>
							<g>
								<path class="st8" d="M61.5,37.6c1.3-1.2,2.1-3.2,2-5.1c-0.1-2.3-1.5-4-3.5-3.9c-2.2,0.3-4.6,1.3-6.1,2.8
									c-2.2,2.1-1.8,4.2,0.9,4.7c0.5,0.1,0.9,0.1,1.4,0.1c0.4,0,0.6,0.3,0.6,0.6c0,0.3-0.2,0.5-0.4,0.6c-2.3,1.1-4.9,0.2-5.8-2
									c-0.5-1.2-0.3-2.7,0.3-3.8c0.3-0.5,0.7-1.1,1.4-1.6c1-0.8,2.4-1.5,3.8-1.9c3.7-1,6.3-3.8,6.1-7c0-0.1,0-0.1,0-0.2
									c1.7,2.5,2.8,5.5,3,8.8C65.3,32.9,63.7,36.1,61.5,37.6z"/>
							</g>
							<path class="st9" d="M40,40.2c0.1,0.1,0.2,0.3,0.2,0.5c0,0.3-0.2,0.5-0.5,0.5c-0.1,0-0.1,0-0.2,0c-4.8-2.4-8.1-7-8.1-12.3
								c0-1.4,0.2-2.7,0.6-4c2.3-6.6,8.7-11.4,16.1-11.4c3.3,0,6.4,0.9,9.1,2.6c1.7,1,2.5,2.7,2,4.2c-0.6,1.4-2.3,2.2-4.3,2
								c1.4,0,2.6-0.7,3-1.8c0.5-1.5-0.8-3.2-2.9-3.8c-1-0.3-2-0.3-2.8,0c-1.6-0.5-3.2-0.7-4.9-0.7c-8.1,0-14.8,5.8-14.8,13
								C32.6,33.7,35.6,38,40,40.2z M53.8,22.7C53,24.1,51.3,25,49.5,25c-1.3,0-2.6-0.5-3.5-1.3c-1.5-1.3-3.6-2.3-5.9-2.3
								c-1.3,0-2.6,0.5-3.7,1c2.4-2.9,6.3-4.8,10.7-4.8c1.2,0,2.3,0.1,3.4,0.4C50,19.7,51.4,21.7,53.8,22.7z M49.5,26.1
								c1.3,0.6,2.9,1,4.6,0.8c4-0.4,7-3.1,6.7-6.2c0-0.6-0.3-1.2-0.6-1.8c0.3,0.7,0.3,1.4,0,2.1c-0.6,1.6-2.8,2.4-5.1,2
								c-0.5,1.9-2.2,3.2-4.3,3.2C50.4,26.3,49.9,26.2,49.5,26.1z M52,18.9c0.3-0.9,1.5-1.3,2.6-0.9c1.2,0.3,1.9,1.3,1.6,2.2
								c-0.3,0.9-1.5,1.3-2.6,0.9C52.5,20.7,51.7,19.8,52,18.9z"/>
							<g>
								<path class="st10" d="M40.9,33.6c1.5,4.6,5.8,8,10.8,8.3c5.2,0,9.5-3.4,9.5-7.5c0-0.8-0.2-1.6-0.5-2.4
									c-0.2-0.3-0.5-0.6-0.9-0.8c-1.2-0.4-3.1,0.1-4.2,1.2c-1.1,1.1-1,2.3,0.3,2.7c0.2,0.1,0.4,0.1,0.7,0.1
									c0.9,0.1,1.7,0.6,1.9,1.2c0.3,0.9-0.7,2-2.1,2.7c-2.9,1.2-6,0-7.1-2.8c-1.1-2.8,0.1-6.1,2.9-7.7c-2.7-0.3-5-1.4-6.3-3.1
									C44.5,24,42.6,23,40.4,23c-3.5,0-6.4,2.5-6.4,5.7c0,3.2,1.5,6.2,4,8.3c-1.7-4.3-2.5-8.8-1.8-10.1
									C36.9,25.6,39,28.1,40.9,33.6z"/>
							</g>
						</g>
					</g>
				</g>
			</g>
		</g>
	</g>
</g>
</svg>
