<?xml version="1.0" encoding="utf-8"?>
<!-- Generator: Adobe Illustrator 24.0.1, SVG Export Plug-In . SVG Version: 6.00 Build 0)  -->
<svg version="1.1" id="Layer_1" xmlns="http://www.w3.org/2000/svg" xmlns:xlink="http://www.w3.org/1999/xlink" x="0px" y="0px"
	 viewBox="0 0 200 200" style="enable-background:new 0 0 200 200;" xml:space="preserve">
<style type="text/css">
	.st0{fill:#FFFFFF;}
	.st1{fill:#4FAF71;}
</style>
<g id="_x32_8pIDp_1_">
	<g>
		<path class="st1" d="M122.2,2.8c2.1,1.3,2.8,3.1,2.7,5.6c-0.3,9.3-3.9,16.9-11.1,22.7c-1.3,1.1-2.6,2.2-4,3.2
			c-4.9,3.4-6.3,8.1-5.3,13.6c4,1,8.1,1.7,11.9,3c18.6,6.4,33.6,24.8,33.3,47.3c-0.2,16.4-0.3,32.9,0,49.3
			c0.4,23.7-17.3,45.4-41.6,49.1c-30.4,4.6-53.4-17-57-40.9c-0.9-5.8-0.6-11.7-0.6-17.6c-0.1-13.7,0-27.3,0-41
			c0-25.2,19.8-46.6,44.9-48.8c0.1,0,0.2-0.1,0.6-0.1c0-0.8,0.1-1.8,0.1-2.7c-0.3-7.4,2.7-13.1,8.5-17.5c1.2-0.9,2.3-1.9,3.6-2.8
			c5.8-4.2,8.6-10,8.6-17.1c0-2.4,0.7-4.1,2.8-5.3C120.4,2.8,121.3,2.8,122.2,2.8z M58.6,102c-0.1,0.4-0.1,0.7-0.1,0.9
			c0,15.7-0.1,31.4,0.1,47.1c0.1,9.5,3.4,18.1,9.8,25.3c11.1,12.4,25.3,15.8,41,12.8c19-3.6,31.9-19.6,32.1-39
			c0.1-15.2,0-30.4,0-45.5c0-0.5-0.1-1-0.1-1.6c-9.7,0-19.3,0-29,0c0,1.5,0,2.8,0,4.2c-0.1,6.5-6,12.3-12.3,12.3
			c-6.5,0-12.3-5.9-12.4-12.4c0-1.4,0-2.7,0-4.1C77.8,102,68.3,102,58.6,102z M96.1,56.4c-21.7,1.3-36.8,19.2-37.3,37.4
			c9.6,0,19.1,0,28.9,0c0-0.8,0-1.6,0-2.3c-0.4-6,2.3-10.3,7.5-13.1c0.5-0.3,0.9-1.2,0.9-1.8c0.1-4.1,0-8.2,0-12.3
			C96.1,61.7,96.1,59.1,96.1,56.4z M141.1,93.8c-0.3-19.1-17.1-36.5-36.8-37.3c0,0.2-0.1,0.5-0.1,0.7c0,6.6,0,13.1,0,19.7
			c0,0.6,0.7,1.4,1.2,1.8c4.4,2.8,6.9,6.5,6.8,11.9c0,1,0,2.1,0,3.2C122.1,93.8,131.6,93.8,141.1,93.8z M104.2,98.1
			c0-2.9,0-5.8,0-8.7c0-1.7-0.5-3.3-2.4-3.8c-4-1-6.1,0.6-6.1,4.7c0,2.5,0.3,4.9,0.3,7.4c0,2.6-0.3,5.3-0.3,7.9c0,3.6,1.2,5,4.4,4.9
			c3,0,4.1-1.3,4.1-4.8C104.3,103.2,104.2,100.6,104.2,98.1z"/>
	</g>
</g>
</svg>
