<?xml version="1.0" encoding="utf-8"?>
<!-- Generator: Adobe Illustrator 24.0.1, SVG Export Plug-In . SVG Version: 6.00 Build 0)  -->
<svg version="1.1" id="Layer_1" xmlns="http://www.w3.org/2000/svg" xmlns:xlink="http://www.w3.org/1999/xlink" x="0px" y="0px"
	 viewBox="0 0 101 101" style="enable-background:new 0 0 101 101;" xml:space="preserve">
<style type="text/css">
	.st0{opacity:0.25;}
	.st1{fill:#C6C6C6;}
	.st2{fill:#FFFFFF;}
	.st3{fill:#DFE4E5;}
</style>
<g class="st0">
	<g>
		<g>
			<path d="M9.8,41.7c-0.7-0.8-1.3-1.7-1.9-2.6l-0.1,2l-4.7,4.4c0,0.3-0.1,0.6-0.1,0.9c-0.1,0.9-0.2,1.8-0.2,2.7
				c0,7.7,1.9,15.3,5.4,22.1c0.1-0.1,0.3-0.2,0.4-0.3l1-26.1l-2.5,2.5c0.1,0.2,0.1,0.5,0.1,0.8c0,0.5-0.2,1-0.6,1.4S5.7,50,5.2,50
				c-1.1,0-1.9-1-1.9-2.1c0-0.5,0.2-1,0.6-1.4s0.9-0.6,1.4-0.5c0.2,0,0.4,0.1,0.6,0.1l3.7-3.8L9.8,41.7z"/>
			<path d="M5.2,34.5c-0.1,0.4-0.3,0.8-0.4,1.2l-0.1,3l-0.8,0.7c-0.2,1.2-0.5,2.4-0.7,3.7l2.9-2.7l0.1-3.8C6,35.9,5.6,35.2,5.2,34.5
				z"/>
			<g>
				<path d="M57.3,74.5c0,1.1-0.9,2.1-2.1,2.1c-0.2,0-0.5,0-0.7-0.1l-4.2,4.2v16.2c0,0,0,0,0.1,0c0.5,0,1,0,1.5,0c0.2,0,0.4,0,0.6,0
					V83l7.7-7.7v-1.9c-0.9,0.4-1.9,0.7-2.9,0.9C57.3,74.4,57.3,74.4,57.3,74.5z"/>
				<path d="M49.8,75.2l-3.1,3.1v18.4c0.6,0,1.2,0.1,1.8,0.1l0,0V80l4.6-4.7c0-0.1,0-0.1-0.1-0.2c-0.3,0-0.6,0.1-0.9,0.1
					C51.5,75.2,50.7,75.2,49.8,75.2z"/>
				<path d="M43,76.3v19.9h0.3c0.6,0.1,1.2,0.2,1.9,0.3v-19l2.5-2.5c-1-0.1-2.1-0.3-3-0.5L43,76.3z"/>
				<path d="M78.8,49.5c0.6,0,1.1,0.3,1.4,0.8h6.9l4.9,4.9h6c0.3-2.3,0.4-4.3,0.4-6.1c0-2-0.2-4.2-0.6-6.7L95,44.8l-0.4,6.4
					c0.4,0.3,0.7,0.8,0.6,1.3c0,0.4-0.2,0.8-0.5,1s-0.7,0.3-1.1,0.3c-0.7-0.1-1.1-0.7-1.1-1.4c0-0.6,0.4-1.1,0.9-1.3l0.4-6.9
					l3.7-3.3c-0.1-0.8-0.7-3.7-1-5.4c-0.3,0-0.5,0-0.8-0.1l-0.1,2.2c0.3,0.3,0.5,0.7,0.5,1.1c0,0.4-0.2,0.7-0.5,1
					c-0.3,0.2-0.6,0.4-1,0.3c-0.8,0-1.4-0.7-1.3-1.5c0-0.6,0.4-1,0.9-1.2l0.1-2c-0.5,0-0.9,0-1.2,0l-0.5,8.2l-3.1,2.8
					c0,0.2,0.1,0.3,0.1,0.5c0,0.4-0.2,0.7-0.5,1c-0.3,0.2-0.6,0.4-1,0.3c-0.4,0-0.7-0.2-1-0.5c-0.2-0.3-0.4-0.6-0.3-1
					c0-0.4,0.2-0.7,0.5-1c0.3-0.2,0.6-0.4,1-0.3c0.1,0,0.3,0,0.4,0.1l2.8-2.5l0.5-7.6c-4.6,0-7.6,0.8-11.4,1.9
					c-1.9,0.6-3.9,1.4-5.8,2.4c1,2.5,1.6,5.1,1.8,7.9c0.1,1.7,0,3.4-0.2,5.1h7c0.3,0,0.6,0.3,0.6,0.6s-0.3,0.6-0.6,0.6h-7.2
					c0,0.2-0.1,0.4-0.1,0.6c0.2,0.1,0.4,0.4,0.5,0.6h6.9l4.9,4.9H97c0-0.1,0.1-0.3,0.1-0.4c0.1-0.2,0.1-0.4,0.1-0.6h-2.6h-0.1h-5.1
					l-3-2.9c0,0-0.1,0-0.3,0c-0.8,0-1.4-0.6-1.4-1.4c0-0.8,0.6-1.4,1.4-1.4s1.4,0.6,1.4,1.4c0,0.1,0,0.3-0.1,0.4l2.6,2.6h7.6
					c0.1-0.3,0.1-0.6,0.1-0.9v-0.2h-6.3l-4.9-4.9h-6.4c-0.2,0.4-0.7,0.7-1.2,0.7c-0.4,0-0.8-0.2-1-0.5c-0.3-0.3-0.4-0.7-0.3-1.1
					C77.6,50.1,78.2,49.5,78.8,49.5z"/>
				<path d="M74.8,59.9h5.6c0.3,0,0.6,0.3,0.6,0.6s-0.3,0.6-0.6,0.6h-6.1L74,60.8c-0.3,0.5-0.5,1-0.8,1.5h12.3l-1.6-1.5
					c-0.2,0.1-0.3,0.1-0.5,0.1c-0.8,0-1.4-0.6-1.4-1.4c0-0.8,0.6-1.4,1.4-1.4s1.4,0.6,1.4,1.4c0,0.1,0,0.3-0.1,0.4l2.6,2.3h9.3
					c0.1-0.3,0.2-0.6,0.2-1l0.1-0.2h-2.1h-0.1H88l-4.9-4.9h-6.4c-0.2,0.4-0.7,0.7-1.2,0.7c-0.3,0.9-0.6,1.8-1,2.7L74.8,59.9z"/>
				<path d="M61.9,72.7V76l-7.7,7.7v13c8.1-0.6,15.8-3.2,22.5-7.5l-2.1-0.4c-0.2,0.2-0.4,0.4-0.6,0.5c-0.9,0.6-2.2,0.2-2.7-0.7
					c-0.3-0.5-0.3-1-0.2-1.5c0.1-0.5,0.5-0.9,0.9-1.2c0.5-0.3,1-0.3,1.5-0.2c0.5,0.1,0.9,0.5,1.2,0.9c0.1,0.2,0.2,0.4,0.2,0.6
					l3.5,0.8c1.7-1.2,3.2-2.4,4.5-3.6L80.1,86L70,83.4l-8.4,4.9c0,0.7-0.3,1.5-1,1.8c-0.9,0.6-2.2,0.2-2.7-0.7
					c-0.6-0.9-0.2-2.2,0.7-2.7c0.7-0.4,1.6-0.4,2.2,0.1l8.9-5.3L80,84.1l7.1-4.2c1-1.2,1.9-2.3,2.6-3.4L80.6,82l-6.1-1.5
					c-0.2,0.2-0.3,0.4-0.6,0.5c-0.5,0.3-1,0.3-1.5,0.2c-0.5-0.1-0.9-0.5-1.2-0.9c-0.3-0.5-0.3-1-0.2-1.5c0.1-0.5,0.5-0.9,0.9-1.2
					c0.9-0.6,2.2-0.2,2.7,0.7c0.1,0.2,0.2,0.4,0.2,0.6l5.5,1.4l11.3-6.6c2-3.3,3.5-6.7,4.6-10h-2.1l-6.9,4.9h-7.3l-3.4,3.2
					c0,0.1,0.1,0.3,0.1,0.4c0,0.8-0.6,1.4-1.4,1.4s-1.4-0.6-1.4-1.4s0.6-1.4,1.4-1.4c0.2,0,0.3,0,0.5,0.1l3.7-3.6h7.4l5.2-3.6H72.4
					C69.8,67.5,66.2,70.6,61.9,72.7z M70.2,67.8l3-2.9h13c0.3,0,0.6,0.3,0.6,0.6c0,0.3-0.3,0.6-0.6,0.6H73.6L71,68.7
					c0,0.1,0.1,0.3,0.1,0.4c0,0.8-0.6,1.4-1.4,1.4s-1.4-0.6-1.4-1.4s0.6-1.4,1.4-1.4C69.8,67.8,70,67.8,70.2,67.8z"/>
			</g>
			<g>
				<path d="M38.9,72.4v2.2c0,0.5-0.4,0.8-0.8,0.8c-0.5,0-0.8-0.4-0.8-0.8v-3.1c-0.7-0.4-1.3-0.8-1.9-1.3v5.4l6,8.5V73.5
					C40.5,73.2,39.7,72.8,38.9,72.4z"/>
				<path d="M33.6,68.9c-3.1-2.7-5.6-6.1-7.2-10c-0.5-0.4-0.8-0.9-0.8-1.6c0-0.1,0-0.3,0-0.4c-0.4-1.3-0.7-2.5-0.9-3.9
					c-2.2-0.9-4.3-2.1-6.4-3.4l-0.2,4.2l4.7,5.3C23,59,23.2,59,23.4,59c0.5,0,1,0.2,1.4,0.6c0.4,0.4,0.5,0.9,0.5,1.4s-0.2,1-0.6,1.4
					s-0.9,0.6-1.4,0.5c-0.5,0-1-0.2-1.4-0.6c-0.4-0.4-0.5-0.9-0.5-1.4c0-0.3,0.1-0.5,0.2-0.8l-5.2-5.8v-0.1l0.2-5.8
					c-2-1.5-3.8-3.2-5.5-5l-1,27.5c0.7,0.3,1.1,1.1,1.1,1.9c0,0.7-0.5,1.4-1.2,1.7c0.7,1.1,1.5,2.2,2.3,3.3l0.8-20.4
					c-0.7-0.3-1.1-1.1-1.1-1.9c0-1.1,1-2,2.1-1.9c0.5,0,1,0.2,1.4,0.6c0.4,0.4,0.5,0.9,0.5,1.4c0,0.8-0.5,1.5-1.2,1.8L14,79.7
					c0.6,0.7,1.2,1.3,1.7,1.9l0.6-0.6c-0.1-0.2-0.1-0.5-0.1-0.8c0-1.1,0.9-1.9,2-1.9h0.1c0.5,0,1,0.2,1.4,0.6s0.5,0.9,0.5,1.4
					s-0.2,1-0.6,1.4s-0.9,0.5-1.4,0.5c-0.2,0-0.4-0.1-0.6-0.1l-0.7,0.7c0.5,0.5,1.1,1,1.6,1.5l0.3,0.2l4.7-4.4l0.4-9.7
					c-0.7-0.4-1.1-1.1-1-1.8c0-1.1,1-2,2.1-1.9c0.5,0,1,0.2,1.4,0.6s0.5,0.9,0.5,1.4c0,0.8-0.6,1.5-1.3,1.8L25.1,81L20,85.7
					c0.6,0.5,1.2,0.9,1.8,1.4l0,0l1.8-1.7c-0.1-0.2-0.1-0.5-0.1-0.7c0-1.1,1-2,2.1-1.9c0.5,0,1,0.2,1.4,0.6s0.5,0.9,0.5,1.4
					s-0.2,1-0.6,1.4s-0.9,0.5-1.4,0.5c-0.2,0-0.5-0.1-0.7-0.1l-1.6,1.5c5.5,3.9,11.6,6.6,18.2,7.9v-8.9l-7.7-10.9L33.6,68.9
					L33.6,68.9z"/>
			</g>
		</g>
		<g>
			<path d="M67.9,13.5c-1.3-0.4-2.8-0.8-4.2-0.9c-2.9-0.3-5.4-1.4-8.2-3.5l-1.7-1.3c-2.6-2-5.1-3.9-7.4-6.1l-0.8,0.1
				c-0.1,0-0.3,0-0.4,0C45.5,2,45.8,2.3,46,2.5l0.2,0.2c2.3,2.2,5,4.7,7.7,6.9c2,1.7,4.7,3.7,7.8,4.9c3.4,1.3,5.1,3.7,5.1,7.4
				c0,1.2,0.1,2.6,0.4,4c0.3,1.2,0.9,2.2,1.7,3.1c1.6,1.7,3.4,3,5.3,4.2l2-0.5c-2.8-1.2-5.3-3.9-6-6.8c-0.5-1.9-0.3-3.7-0.1-5
				c0.2-1.6,0.4-3.3-0.1-4.9C69.6,14.5,69,13.8,67.9,13.5z"/>
			<path d="M77.2,30.4c2,0.6,4.3,0.1,6.2-1.4l0.4-0.3c0.3-0.2,0.6-0.4,0.8-0.7c1.8-1.6,4-2.8,6.6-3.6c-0.1-0.2-0.3-0.5-0.4-0.7
				l-0.3,0.1c-0.5,0.1-1,0.2-1.4,0.3l-1.7,0.3c-1.4,0.3-2.8,0.5-4.1,0.9c-1.5,0.5-2.9,0.3-3.9-0.4c-1.1-0.8-1.7-2.3-1.7-4.1
				c-0.4-3.1,0.7-6.1,3.2-8.5C79,10.7,77,9.3,75,8.1l-0.4-0.2l0,0c-0.1,0-0.2-0.1-0.2-0.1L74,7.6c-0.1,0-0.2-0.1-0.3-0.1
				c-0.5-0.3-1-0.6-1.5-0.8l-0.3-0.1C71.5,6.2,71,6,70.6,5.8c-0.1-0.1-0.2-0.1-0.3-0.2l-0.2-0.1c-0.3-0.2-0.7-0.3-1-0.5
				c-0.1-0.1-0.3-0.1-0.4-0.2c-0.7,0.2-1.4,0.3-2,0.3c-0.7,0-1.5-0.1-2.2-0.3c-1.8-0.4-3.6-1.2-5.1-1.9l-0.5-0.2
				c-1.3-0.6-2.5-1-3.7-1.3c-0.1,0-0.1,0-0.2-0.1h-0.1l0,0h-0.2c-0.2,0-0.4,0-0.5,0c-0.4,0-0.8-0.1-1.2-0.1h-0.2c-0.1,0-0.2,0-0.4,0
				c-1,0-1.8,0-2.6,0c1.9,1.8,4,3.4,6.6,5.2C57.3,7,58.1,7.7,59,8.3c0.9,0.7,2,1.2,3.4,1.4c0.6,0.1,1.2,0.2,1.8,0.3h0.1
				c1.5,0.3,3.1,0.5,4.6,1c1.8,0.6,2.9,1.8,3.5,3.7c0.7,2.2,0.5,4.3,0.2,5.9c-0.3,1.9-0.2,3.4,0.3,4.9
				C73.5,28.1,75.1,29.8,77.2,30.4z"/>
			<path d="M82.5,13.8c-2.1,2-3,4.3-2.7,6.7l0,0c0,1.3,0.3,2.2,0.8,2.6c0.4,0.3,1,0.3,1.9,0.1c1.8-0.4,3.4-0.8,4.9-1.1
				c0.5-0.1,1.1-0.2,1.6-0.3h0.1c0.1,0,0.3-0.1,0.4-0.1C87.5,18.8,85.1,16.2,82.5,13.8z"/>
			<path d="M83.8,31.5c0.1,0,0.2,0,0.4,0c0.5,0,1.1,0,1.7,0h0.3c0.3,0,0.6,0,0.8,0c0.1-0.1,0.1-0.2,0.2-0.2c0.1-0.1,0.2-0.2,0.3-0.4
				c1.4-1.8,3.1-3.2,5.1-4.2c-0.1-0.2-0.2-0.3-0.2-0.5l-0.2,0.1c-2.4,0.7-4.7,2-7.1,4.1C84.7,30.9,84.2,31.2,83.8,31.5z"/>
			<path d="M89.8,31.8c1.4,0.2,2.8,0.6,4,1l0.1,0.1c0.6,0.2,1.1,0.3,1.5,0.5c-0.5-1.5-1.1-3-1.9-4.5C92.2,29.5,90.9,30.5,89.8,31.8z
				"/>
			<path d="M38.2,20.9c0.3-0.5,0.3-0.7-0.4-1.1c-0.4-0.2-0.7-0.4-1-0.4h-0.1h-0.1c-1.8,0.2-4.6,3.1-4.7,4.9c0,0.2,0,0.5,0.2,0.7
				s0.5,0.2,0.9,0.1l0,0C35.2,24.7,36.9,23.3,38.2,20.9z"/>
			<g>
				<path d="M31.9,5.5c4-2.1,7.8-1.7,11.2,1.2c4.6,3.9,9.2,7.8,13.3,12.1c1.7,1.7,2.6,3.6,2.9,5.7c2.2,0.8,4.3,1.9,6.2,3.2
					c-0.4-0.9-0.7-1.9-0.8-2.9c0-0.4-0.1-0.9-0.1-1.3v-0.2c-0.1-1.2-0.2-2.4-0.4-3.5c-0.3-1.1-0.8-1.8-1.6-2.3
					c-0.8-0.4-1.6-0.8-2.4-1.2l0,0c-1.2-0.5-2.3-1.1-3.4-1.8c-3.7-2.4-6.8-5.2-10.2-8.4l-0.8-0.7c-1.4-1.3-2.5-2.4-3.9-3l0,0
					c-0.2,0-0.3,0.1-0.5,0.1S41,2.6,40.9,2.6l-0.6,0.1c-0.2,0-0.4,0.1-0.7,0.1c-0.2,0-0.4,0.1-0.5,0.1L38.5,3
					c-0.2,0.1-0.4,0.1-0.6,0.2c-0.2,0-0.3,0.1-0.5,0.2l-0.5,0.2c-0.2,0.1-0.4,0.1-0.7,0.2C36,3.9,35.9,3.9,35.7,4L35,3.9
					C34.8,4,34.5,4,34.3,4.1S34,4.2,33.8,4.3l-0.5,0.2c-0.2,0.1-0.4,0.2-0.6,0.2c-0.2,0.1-0.4,0.1-0.5,0.2l-0.5,0.2
					c-0.2,0.1-0.4,0.2-0.6,0.3c-0.2,0.1-0.4,0.2-0.5,0.2L30,5.9c-0.2,0.1-0.4,0.2-0.6,0.3c-0.2,0.1-0.3,0.2-0.5,0.3l-0.5,0.2
					C28.2,6.8,28,6.9,27.8,7c-0.2,0.1-0.3,0.2-0.5,0.3l-0.5,0.3c-0.2,0.1-0.4,0.2-0.6,0.3c0,0-0.2,0.1-0.4,0.2l-0.5,0.3
					c-0.2,0.1-0.4,0.2-0.5,0.3c-0.2,0.1-0.3,0.2-0.5,0.3l-0.4,0.3c-0.2,0.1-0.4,0.2-0.5,0.4c-0.2,0.1-0.3,0.2-0.5,0.3l-0.4,0.3
					c-0.2,0.1-0.4,0.3-0.5,0.4c-0.2,0.1-0.3,0.2-0.5,0.4h-0.1c1.6-0.2,3-0.9,4.4-1.9C27.5,8,29.4,6.8,31.9,5.5z"/>
				<path d="M25.3,42.9c-1.3,0.1-2.6,0.3-3.8,0.6c-0.4,0.1-0.8,0.3-1.2,0.5c1.4,0.8,2.9,1.4,4.5,2C24.8,45,25,44,25.3,42.9z"/>
			</g>
			<path d="M24.3,14.7c1-0.8,2-1.6,2.9-2.3l0.1-0.1c0.9-0.7,1.8-1.5,2.7-2.2c1.7-1.3,3.5-2.7,6.1-2.9c1.7-0.1,3.3,0.3,4.6,1.2
				c2.4,1.7,4.4,3.3,6.2,4.8c-1.8-1.6-3.8-3.3-5.8-5c-0.7-0.6-1.5-1-2.3-1.3c-1.8-0.6-3.6-0.4-5.5,0.6c-2.3,1.1-4.4,2.5-6.8,4.2
				s-5.1,2.3-7.9,2l-0.2,0.1c-0.2,0.1-0.3,0.3-0.5,0.4c-0.1,0.1-0.3,0.3-0.4,0.4l-0.3,0.3c-0.2,0.2-0.3,0.3-0.5,0.5
				c-0.1,0.1-0.3,0.3-0.4,0.4L16,16.1c-0.2,0.2-0.3,0.3-0.5,0.5c-0.1,0.1-0.3,0.3-0.4,0.4l-0.2,0.2c0,0.1-0.1,0.1-0.1,0.2
				c0.2,0,0.4,0,0.6,0C18.5,17.7,21.5,16.8,24.3,14.7z"/>
			<path d="M27.6,36.8c0.3-0.6,0.7-1.3,1.1-1.9c0,0,0,0-0.1,0c-0.4,0-0.8,0-1.2,0c-1.2,0-2.3-0.2-3.2-0.5c-2.5-0.9-4.3-2.8-4.8-5.2
				c-0.5-2.2,0.2-4.5,1.9-6.2l0.2,0.2L21.3,23c3.3-3.4,6.8-6.8,10.6-9.9c2.6-2.1,5.6-2.4,8.6-0.8c2.1,1.2,3.9,2.4,5.4,3.7
				c1.4,1.2,2.4,2.7,2.9,4.3c0.3,1,0.4,2,0.1,2.8l0,0c1.1-0.1,2.2-0.1,3.3,0c-1.1-2.3-2.7-4.3-5-6.3c-2.2-1.8-4.5-3.7-7.5-5.9
				C37.9,9.4,36,9.3,34,10.5c-1.8,1.1-3.5,2.5-5.2,3.9l-0.2,0.1c-0.4,0.3-0.8,0.7-1.2,1c-1.8,1.5-4.4,3.4-7.6,4.1
				c-1.6,0.4-3.2,0.5-4.8,0.3c-0.9-0.1-1.7-0.1-2.5,0.1c-0.1,0.1-0.2,0.3-0.3,0.4c-0.1,0.2-0.3,0.3-0.4,0.5l-0.2,0.3
				c-0.1,0.2-0.3,0.4-0.4,0.6c-0.1,0.2-0.2,0.4-0.4,0.5l-0.2,0.3c-0.1,0.2-0.3,0.4-0.4,0.6C10,23.6,9.9,23.8,9.8,24l-0.2,0.4
				c-0.1,0.2-0.2,0.4-0.4,0.6c-0.1,0.2-0.2,0.4-0.3,0.6L8.7,26c-0.1,0.2-0.2,0.4-0.3,0.6S8.2,27,8.1,27.1L8,27.2l-0.2-0.1L8,27.2
				l-0.1,0.2c-0.1,0.2-0.2,0.4-0.3,0.6c-0.1,0.2-0.2,0.4-0.3,0.6L7.1,29c-0.1,0.2-0.2,0.4-0.3,0.6c-0.1,0.2-0.2,0.4-0.3,0.6
				l-0.2,0.4c0,0.1-0.1,0.1-0.1,0.2L6.1,31l0.1,0.1c1.5,2.3,3.3,4.5,5.4,6.5l0.1,0.1c0.1,0.1,0.2,0.2,0.3,0.3l0.1,0.1l0.4,0.4
				c0.2-0.5,0.4-1,0.6-1.3c1.1-1.8,2.6-2.5,4.8-2.2l0,0c1.1,0.2,2.2,0.5,3.2,0.8c1.3,0.4,2.5,0.7,3.8,0.8
				C25.8,36.7,26.7,36.8,27.6,36.8z"/>
			<path d="M27.5,32.7c1.1,0,2.1-0.1,3.1-0.4c3.7-4.4,8.8-7.6,14.7-8.8c0.1,0,0.1-0.1,0.2-0.1c1.3-0.5,1.6-1.2,1.1-2.6
				c-0.4-1.2-1.2-2.3-2.2-3.2c-1.3-1.2-2.9-2.3-4.9-3.3c-1-0.5-1.8-0.8-2.5-0.8c-0.1,0-0.2,0-0.3,0c-1.6,0.1-2.9,0.7-4.3,2.1
				c-1.3,1.2-2.6,2.4-3.8,3.6L28,19.8c-0.9,0.9-1.8,1.7-2.7,2.6c-0.2,0.2-0.5,0.4-0.7,0.7l-0.1,0.1c-0.7,0.6-1.3,1.1-1.8,1.8
				c-1.2,1.6-1.4,3-0.8,4.5c1,2.1,2.9,3.4,5.5,3.4L27.5,32.7z M36.3,17.3c1.2-0.1,2.3,0.2,3.2,1c1.1,0.9,1.4,2.1,0.8,3.2
				c-1.5,3.2-3.8,5.1-6.9,5.9c-0.3,0.1-0.6,0.1-0.8,0.1c-0.7,0-1.3-0.2-1.8-0.6c-0.7-0.6-1.1-1.5-1.1-2.6
				C29.8,21.4,33.5,17.5,36.3,17.3z"/>
		</g>
		<g>
			<path d="M18.5,13.6l-0.2,0.1c-0.2,0.1-0.3,0.3-0.5,0.4c-0.1,0.1-0.3,0.3-0.4,0.4l-0.3,0.3c-0.2,0.2-0.3,0.3-0.5,0.5
				c-0.1,0.1-0.3,0.3-0.4,0.4L15.9,16c-0.2,0.2-0.3,0.3-0.5,0.5c-0.1,0.1-0.3,0.3-0.4,0.4l-0.2,0.2c0,0.1-0.1,0.1-0.1,0.2
				c0.2,0,0.4,0,0.6,0c3.2,0.3,6.1-0.6,8.9-2.8c1-0.8,2-1.6,2.9-2.3l0.1-0.1c0.9-0.7,1.8-1.5,2.7-2.2C31.6,8.6,33.4,7.2,36,7
				c1.7-0.1,3.3,0.3,4.6,1.2C43,9.9,45,11.5,46.8,13C45,11.4,43,9.7,41,8c-0.7-0.6-1.5-1-2.3-1.3c-1.8-0.6-3.6-0.4-5.5,0.6
				c-2.3,1.1-4.4,2.5-6.8,4.2S21.3,13.9,18.5,13.6z"/>
			<g>
				<path d="M55.1,23.4c0.5,0.1,1.1,0.2,1.6,0.3c-0.4-1.2-1-2.3-1.9-3.2c-1-1-2-1.9-3.1-2.9c1.1,1.2,2,2.6,2.7,4.1
					C54.8,22.3,55,22.8,55.1,23.4z"/>
				<path d="M26.5,39.6c-2.4,0-4.8-0.6-6.9-1.3c-0.8-0.2-1.6-0.4-2.3-0.5c-1-0.2-1.4,0-2,0.9c-0.3,0.6-0.6,1.2-0.7,1.8
					c1.1,0.9,2.3,1.7,3.6,2.5c1.2-1.1,2.7-1.7,4.6-1.9c1.1-0.1,2.2-0.2,3.4-0.3C26.2,40.4,26.4,40,26.5,39.6z"/>
			</g>
		</g>
	</g>
	<g>
		<path d="M56.5,37.9l-4.4,2.8L48.5,43l-0.1,0.1c-0.6,0.3-1.1,0.8-1.5,1.4c-1.4,2-1,4.7,0.8,6.3l0.7-0.9c0-0.1,0-0.1,0-0.2v-2.9
			c0-0.2,0.2-0.4,0.4-0.4s0.4,0.2,0.4,0.4v1.9l4.1-5.9c0.1-0.2,0.4-0.2,0.6-0.1c0.2,0.1,0.2,0.4,0.1,0.6l-2,2.9l1.4-0.6
			c0.2-0.1,0.5,0,0.6,0.2s0,0.5-0.2,0.6l-2.6,1.1l-2.7,3.8c2.1,1.2,4.8,0.6,6.2-1.4c0.4-0.6,0.6-1.2,0.8-1.9v-0.1l0.9-4.2l1.1-5.1
			C57.5,37.9,57,37.6,56.5,37.9z"/>
	</g>
</g>
<g>
	<g>
		<g>
			<path class="st1" d="M8,42.9c-0.7-0.8-1.3-1.7-1.9-2.6l-0.1,2l-4.7,4.4c0,0.3-0.1,0.6-0.1,0.9C1.1,48.5,1,49.4,1,50.3
				C1,58,2.9,65.6,6.4,72.4c0.1-0.1,0.3-0.2,0.4-0.3l1-26.1l-2.5,2.5c0.1,0.2,0.1,0.5,0.1,0.8c0,0.5-0.2,1-0.6,1.4s-0.9,0.5-1.4,0.5
				c-1.1,0-1.9-1-1.9-2.1c0-0.5,0.2-1,0.6-1.4s0.9-0.6,1.4-0.5c0.2,0,0.4,0.1,0.6,0.1L8,43.6V42.9z"/>
			<path class="st1" d="M3.4,35.7c-0.1,0.4-0.3,0.8-0.4,1.2l-0.1,3l-0.8,0.7c-0.2,1.2-0.5,2.4-0.7,3.7l2.9-2.7l0.1-3.8
				C4.1,37.1,3.7,36.4,3.4,35.7z"/>
			<g>
				<path class="st1" d="M55.4,75.7c0,1.1-0.9,2.1-2.1,2.1c-0.2,0-0.5,0-0.7-0.1l-4.2,4.2V98c0,0,0,0,0.1,0c0.5,0,1,0,1.5,0
					c0.2,0,0.4,0,0.6,0V84.2l7.7-7.7v-1.9c-0.9,0.4-1.9,0.7-2.9,0.9C55.4,75.6,55.4,75.6,55.4,75.7z"/>
				<path class="st1" d="M48,76.4l-3.1,3.1v18.4c0.6,0,1.2,0.1,1.8,0.1l0,0V81.2l4.6-4.7c0-0.1,0-0.1-0.1-0.2
					c-0.3,0-0.6,0.1-0.9,0.1C49.6,76.4,48.8,76.4,48,76.4z"/>
				<path class="st1" d="M41.1,77.4v19.9h0.3c0.6,0.1,1.2,0.2,1.9,0.3v-19l2.5-2.5c-1-0.1-2.1-0.3-3-0.5L41.1,77.4z"/>
				<path class="st1" d="M77,50.7c0.6,0,1.1,0.3,1.4,0.8h6.9l4.9,4.9h6c0.3-2.3,0.4-4.3,0.4-6.1c0-2-0.2-4.2-0.6-6.7L93.2,46
					l-0.4,6.4c0.4,0.3,0.7,0.8,0.6,1.3c0,0.4-0.2,0.8-0.5,1S92.2,55,91.8,55c-0.7-0.1-1.1-0.7-1.1-1.4c0-0.6,0.4-1.1,0.9-1.3
					l0.4-6.9l3.7-3.3c-0.1-0.8-0.7-3.7-1-5.4c-0.3,0-0.5,0-0.8-0.1l-0.1,2.2c0.3,0.3,0.5,0.7,0.5,1.1c0,0.4-0.2,0.7-0.5,1
					c-0.3,0.2-0.6,0.4-1,0.3c-0.8,0-1.4-0.7-1.3-1.5c0-0.6,0.4-1,0.9-1.2l0.1-2c-0.5,0-0.9,0-1.2,0l-0.5,8.2l-3.1,2.8
					c0,0.2,0.1,0.3,0.1,0.5c0,0.4-0.2,0.7-0.5,1c-0.3,0.2-0.6,0.4-1,0.3c-0.4,0-0.7-0.2-1-0.5c-0.2-0.3-0.4-0.6-0.3-1
					c0-0.4,0.2-0.7,0.5-1c0.3-0.2,0.6-0.4,1-0.3c0.1,0,0.3,0,0.4,0.1l2.8-2.5l0.5-7.6c-4.6,0-7.6,0.8-11.4,1.9
					c-1.9,0.6-3.9,1.4-5.8,2.4c1,2.5,1.6,5.1,1.8,7.9c0.1,1.7,0,3.4-0.2,5.1h7c0.3,0,0.6,0.3,0.6,0.6S81.9,55,81.6,55h-7.2
					c0,0.2-0.1,0.4-0.1,0.6c0.2,0.1,0.4,0.4,0.5,0.6h6.9l4.9,4.9h8.6c0-0.1,0.1-0.3,0.1-0.4c0.1-0.2,0.1-0.4,0.1-0.6h-2.6h-0.1h-5.1
					l-3-2.9c-0.2,0.1-0.3,0.1-0.5,0.1c-0.8,0-1.4-0.6-1.4-1.4c0-0.8,0.6-1.4,1.4-1.4s1.4,0.6,1.4,1.4c0,0.1,0,0.3-0.1,0.4l2.6,2.6
					h7.6c0.1-0.3,0.1-0.6,0.1-0.9v-0.2h-6.3l-4.9-4.9h-6.4c-0.2,0.4-0.7,0.7-1.2,0.7c-0.4,0-0.8-0.2-1-0.5c-0.3-0.3-0.4-0.7-0.3-1.1
					C75.8,51.2,76.3,50.7,77,50.7z"/>
				<path class="st1" d="M73,61.1h5.6c0.3,0,0.6,0.3,0.6,0.6s-0.3,0.6-0.6,0.6h-6.1L72.1,62c-0.3,0.5-0.5,1-0.8,1.5h12.3L82,62
					c-0.2,0.1-0.3,0.1-0.5,0.1c-0.8,0-1.4-0.6-1.4-1.4c0-0.8,0.6-1.4,1.4-1.4s1.4,0.6,1.4,1.4c0,0.1,0,0.3-0.1,0.4l2.6,2.3h9.3
					c0.1-0.3,0.2-0.6,0.2-1l0.1-0.2h-2.1h-0.1h-6.6l-4.9-4.9h-6.4c-0.2,0.4-0.7,0.7-1.2,0.7c-0.3,0.9-0.6,1.8-1,2.7L73,61.1z"/>
				<path class="st1" d="M60,73.9v3.3l-7.7,7.7v13c8.1-0.6,15.8-3.2,22.5-7.5L72.7,90c-0.2,0.2-0.4,0.4-0.6,0.5
					c-0.9,0.6-2.2,0.2-2.7-0.7c-0.3-0.5-0.3-1-0.2-1.5s0.5-0.9,0.9-1.2c0.5-0.3,1-0.3,1.5-0.2c0.5,0.1,0.9,0.5,1.2,0.9
					c0.1,0.2,0.2,0.4,0.2,0.6l3.5,0.8c1.7-1.2,3.2-2.4,4.5-3.6l-2.8,1.6l-10.1-2.6l-8.4,4.9c0,0.7-0.3,1.5-1,1.8
					c-0.9,0.6-2.2,0.2-2.7-0.7c-0.6-0.9-0.2-2.2,0.7-2.7c0.7-0.4,1.6-0.4,2.2,0.1l8.9-5.3l10.1,2.6l7.1-4.2c1-1.2,1.9-2.3,2.6-3.4
					l-9.2,5.4l-6.1-1.5c-0.2,0.2-0.3,0.4-0.6,0.5c-0.5,0.3-1,0.3-1.5,0.2c-0.5-0.1-0.9-0.5-1.2-0.9c-0.3-0.5-0.3-1-0.2-1.5
					c0.1-0.5,0.5-0.9,0.9-1.2c0.9-0.6,2.2-0.2,2.7,0.7c0.1,0.2,0.2,0.4,0.2,0.6l5.5,1.4l11.3-6.6c2-3.3,3.5-6.7,4.6-10h-2.1L85,69.7
					h-7.3l-3.4,3.2c0,0.1,0.1,0.3,0.1,0.4c0,0.8-0.6,1.4-1.4,1.4s-1.4-0.6-1.4-1.4s0.6-1.4,1.4-1.4c0.2,0,0.3,0,0.5,0.1l3.7-3.6H85
					l5.2-3.6H70.6C68,68.6,64.3,71.8,60,73.9z M68.3,69l3-2.9h13c0.3,0,0.6,0.3,0.6,0.6c0,0.3-0.3,0.6-0.6,0.6H71.8l-2.6,2.6
					c0,0.1,0.1,0.3,0.1,0.4c0,0.8-0.6,1.4-1.4,1.4s-1.4-0.6-1.4-1.4s0.6-1.4,1.4-1.4C68,68.9,68.2,69,68.3,69z"/>
			</g>
			<g>
				<path class="st1" d="M37.1,73.6v2.2c0,0.5-0.4,0.8-0.8,0.8c-0.5,0-0.8-0.4-0.8-0.8v-3.1c-0.7-0.4-1.3-0.8-1.9-1.3v5.4l6,8.5
					V74.7C38.6,74.3,37.8,74,37.1,73.6z"/>
				<path class="st1" d="M31.8,70.1c-3.1-2.7-5.6-6.1-7.2-10c-0.5-0.4-0.8-0.9-0.8-1.6c0-0.1,0-0.3,0-0.4c-0.4-1.3-0.7-2.5-0.9-3.9
					c-2.2-0.9-4.3-2.1-6.4-3.4V55l4.7,5.3c0.2-0.1,0.4-0.1,0.6-0.1c0.5,0,1,0.2,1.4,0.6c0.4,0.4,0.5,0.9,0.5,1.4s-0.2,1-0.6,1.4
					c-0.4,0.4-0.9,0.6-1.4,0.5c-0.5,0-1-0.2-1.4-0.6c-0.4-0.4-0.5-0.9-0.5-1.4c0-0.3,0.1-0.5,0.2-0.8l-5.2-5.8v-0.1l0.2-5.8
					c-2-1.5-3.8-3.2-5.5-5l-1,27.5c0.7,0.3,1.1,1.1,1.1,1.9c0,0.7-0.5,1.4-1.2,1.7c0.7,1.1,1.5,2.2,2.3,3.3l0.8-20.4
					c-0.7-0.3-1.1-1.1-1.1-1.9c0-1.1,1-2,2.1-1.9c0.5,0,1,0.2,1.4,0.6c0.4,0.4,0.5,0.9,0.5,1.4c0,0.8-0.5,1.5-1.2,1.8l-1,22.4
					c0.6,0.7,1.2,1.3,1.7,1.9l0.6-0.6c-0.1-0.2-0.1-0.5-0.1-0.8c0-1.1,0.9-1.9,2-1.9h0.1c0.5,0,1,0.2,1.4,0.6s0.5,0.9,0.5,1.4
					s-0.2,1-0.6,1.4s-0.9,0.5-1.4,0.5c-0.2,0-0.4-0.1-0.6-0.1l-0.7,0.7c0.5,0.5,1.1,1,1.6,1.5l0.3,0.2l4.7-4.4l0.4-9.7
					c-0.7-0.4-1.1-1.1-1-1.8c0-1.1,1-2,2.1-1.9c0.5,0,1,0.2,1.4,0.6s0.5,0.9,0.5,1.4c0,0.8-0.6,1.5-1.3,1.8l-0.4,10.4l-5.1,4.7
					c0.6,0.5,1.2,0.9,1.8,1.4l0,0l1.8-1.7c-0.1-0.2-0.1-0.5-0.1-0.7c0-1.1,1-2,2.1-1.9c0.5,0,1,0.2,1.4,0.6s0.5,0.9,0.5,1.4
					s-0.2,1-0.6,1.4s-0.9,0.5-1.4,0.5c-0.2,0-0.5-0.1-0.7-0.1l-1.6,1.5c5.5,3.9,11.6,6.6,18.2,7.9v-8.9L32,77.4v-7.3H31.8z"/>
			</g>
		</g>
		<g>
			<path class="st2" d="M66.1,14.6c-1.3-0.4-2.8-0.8-4.2-0.9c-2.9-0.3-5.4-1.4-8.2-3.5L52,8.8c-2.6-2-5.1-3.9-7.4-6.1l-0.8,0.1
				c-0.1,0-0.3,0-0.4,0C43.7,3,44,3.3,44.2,3.5l0.2,0.2c2.3,2.2,5,4.7,7.7,6.9c2,1.7,4.7,3.7,7.8,4.9c3.4,1.3,5.1,3.7,5.1,7.4
				c0,1.2,0.1,2.6,0.4,4c0.3,1.2,0.9,2.2,1.7,3.1c1.6,1.7,3.4,3,5.3,4.2l2-0.5c-2.8-1.2-5.3-3.9-6-6.8c-0.5-1.9-0.3-3.7-0.1-5
				c0.2-1.6,0.4-3.3-0.1-4.9C67.8,15.6,67.2,14.9,66.1,14.6z"/>
			<path class="st2" d="M75.4,31.6c2,0.6,4.3,0.1,6.2-1.4l0.4-0.3c0.3-0.2,0.6-0.4,0.8-0.7c1.8-1.6,4-2.8,6.6-3.6
				c-0.1-0.2-0.3-0.5-0.4-0.7L88.7,25c-0.5,0.1-1,0.2-1.4,0.3l-1.7,0.3c-1.4,0.3-2.8,0.5-4.1,0.9c-1.5,0.5-2.9,0.3-3.9-0.4
				c-1.1-0.8-1.7-2.3-1.7-4.1c-0.4-3.1,0.7-6.1,3.2-8.5c-1.9-1.6-3.9-3-5.9-4.2l-0.4-0.2l0,0c-0.1,0-0.2-0.1-0.2-0.1l-0.4-0.2
				c-0.1,0-0.2-0.1-0.3-0.1c-0.5-0.3-1-0.6-1.5-0.8l-0.3-0.1c-0.4-0.2-0.9-0.4-1.3-0.6c-0.1-0.1-0.2-0.1-0.3-0.2l-0.2-0.1
				c-0.3-0.2-0.7-0.3-1-0.5c-0.1-0.1-0.3-0.1-0.4-0.2c-0.7,0.2-1.4,0.3-2,0.3c-0.7,0-1.5-0.1-2.2-0.3c-1.8-0.4-3.6-1.2-5.1-1.9
				l-0.5-0.2c-1.3-0.6-2.5-1-3.7-1.3c-0.1,0-0.1,0-0.2-0.1h-0.1l0,0h-0.2c-0.2,0-0.4,0-0.5,0c-0.4,0-0.8-0.1-1.2-0.1H51
				c-0.1,0-0.2,0-0.4,0c-1,0-1.8,0-2.6,0c1.9,1.8,4,3.4,6.6,5.2c0.9,0.6,1.7,1.3,2.6,1.9c0.9,0.7,2,1.2,3.4,1.4
				c0.6,0.1,1.2,0.2,1.8,0.3h0.1c1.5,0.3,3.1,0.5,4.6,1c1.8,0.6,2.9,1.8,3.5,3.7c0.7,2.2,0.5,4.3,0.2,5.9c-0.3,1.9-0.2,3.4,0.3,4.9
				C71.6,29.3,73.3,31,75.4,31.6z"/>
			<path class="st2" d="M80.7,15c-2.1,2-3,4.3-2.7,6.7l0,0c0,1.3,0.3,2.2,0.8,2.6c0.4,0.3,1,0.3,1.9,0.1c1.8-0.4,3.4-0.8,4.9-1.1
				c0.5-0.1,1.1-0.2,1.6-0.3h0.1c0.1,0,0.3-0.1,0.4-0.1C85.6,20,83.3,17.4,80.7,15z"/>
			<path class="st2" d="M82,32.7c0.1,0,0.2,0,0.4,0c0.5,0,1.1,0,1.7,0h0.3c0.3,0,0.6,0,0.8,0c0.1-0.1,0.1-0.2,0.2-0.2
				c0.1-0.1,0.2-0.2,0.3-0.4c1.4-1.8,3.1-3.2,5.1-4.2c-0.1-0.2-0.2-0.3-0.2-0.5l-0.2,0.1c-2.4,0.7-4.7,2-7.1,4.1
				C82.8,32.1,82.4,32.4,82,32.7z"/>
			<path class="st2" d="M87.9,33c1.4,0.2,2.8,0.6,4,1l0.1,0.1c0.6,0.2,1.1,0.3,1.5,0.5c-0.5-1.5-1.1-3-1.9-4.5
				C90.3,30.7,89,31.7,87.9,33z"/>
			<path class="st2" d="M36.4,22.1c0.3-0.5,0.3-0.7-0.4-1.1c-0.4-0.2-0.7-0.4-1-0.4h-0.1h-0.1c-1.8,0.2-4.6,3.1-4.7,4.9
				c0,0.2,0,0.5,0.2,0.7s0.5,0.2,0.9,0.1l0,0C33.4,25.8,35,24.4,36.4,22.1z"/>
			<g>
				<path class="st2" d="M30,6.7c4-2.1,7.8-1.7,11.2,1.2c4.6,3.9,9.2,7.8,13.3,12.1c1.7,1.7,2.6,3.6,2.9,5.7
					c2.2,0.8,4.3,1.9,6.2,3.2C63.2,28,62.9,27,62.8,26c0-0.4-0.1-0.9-0.1-1.3v-0.2c-0.1-1.2-0.2-2.4-0.4-3.5
					c-0.3-1.1-0.8-1.8-1.6-2.3c-0.8-0.4-1.6-0.8-2.4-1.2l0,0c-1.2-0.5-2.3-1.1-3.4-1.8c-3.7-2.4-6.8-5.2-10.2-8.4l-0.8-0.7
					c-1.4-1.3-2.5-2.4-3.9-3l0,0c-0.2,0-0.3,0.1-0.5,0.1S39.1,3.8,39,3.8l-0.6,0.1C38.2,3.9,38,4,37.7,4c-0.2,0-0.4,0.1-0.5,0.1
					l-0.6,0.1c-0.2,0.1-0.4,0.1-0.6,0.2c-0.2,0-0.3,0.1-0.5,0.2L35,4.8c-0.2,0.1-0.4,0.1-0.7,0.2c-0.2,0.1-0.3,0.1-0.5,0.2l-0.5,0.2
					c-0.2,0.1-0.4,0.1-0.7,0.2c-0.2,0.1-0.3,0.1-0.5,0.2L31.6,6c-0.2,0.1-0.4,0.2-0.6,0.2c-0.2,0.1-0.4,0.1-0.5,0.2L30,6.6
					c-0.2,0.1-0.4,0.2-0.6,0.3C29.2,7,29,7.1,28.9,7.1l-0.5,0.2c-0.2,0.1-0.4,0.2-0.6,0.3c-0.2,0.1-0.3,0.2-0.5,0.3l-0.5,0.2
					c-0.4-0.1-0.6,0-0.8,0.1c-0.2,0.1-0.3,0.2-0.5,0.3L25,8.8c-0.2,0.1-0.4,0.2-0.6,0.3s-0.3,0.2-0.5,0.3l-0.5,0.3
					C23.2,9.8,23,9.9,22.9,10c-0.2,0.1-0.3,0.2-0.5,0.3L22,10.6c-0.2,0.1-0.4,0.2-0.5,0.4c-0.2,0.1-0.3,0.2-0.5,0.3l-0.4,0.3
					c-0.2,0.1-0.4,0.3-0.5,0.4c-0.2,0.1-0.3,0.2-0.5,0.4h-0.1c1.6-0.2,3-0.9,4.4-1.9C25.7,9.2,27.6,8,30,6.7z"/>
				<path class="st2" d="M23.4,44.1c-1.3,0.1-2.6,0.3-3.8,0.6c-0.4,0.1-0.8,0.3-1.2,0.5c1.4,0.8,2.9,1.4,4.5,2
					C23,46.2,23.2,45.1,23.4,44.1z"/>
			</g>
			<path class="st2" d="M22.4,15.8c1-0.8,2-1.6,2.9-2.3l0.1-0.1c0.9-0.7,1.8-1.5,2.7-2.2c1.7-1.3,3.5-2.7,6.1-2.9
				c1.7-0.1,3.3,0.3,4.6,1.2c2.4,1.7,4.4,3.3,6.2,4.8c-1.8-1.6-3.8-3.3-5.8-5c-0.7-0.6-1.5-1-2.3-1.3c-1.8-0.6-3.6-0.4-5.5,0.6
				c-2.3,1.1-4.4,2.5-6.8,4.2s-5.1,2.3-7.9,2l-0.2,0.1c-0.2,0.1-0.3,0.3-0.5,0.4c-0.1,0.1-0.3,0.3-0.4,0.4L15.3,16
				c-0.2,0.2-0.3,0.3-0.5,0.5c-0.1,0.1-0.3,0.3-0.4,0.4l-0.3,0.3c-0.2,0.2-0.3,0.3-0.5,0.5c-0.1,0.1-0.3,0.3-0.4,0.4L13,18.4
				c0,0.1-0.1,0.1-0.1,0.2c0.2,0,0.4,0,0.6,0C16.7,18.9,19.6,18,22.4,15.8z"/>
			<path class="st2" d="M25.8,38c0.3-0.6,0.7-1.3,1.1-1.9c0,0,0,0-0.1,0c-0.4,0-0.8,0-1.2,0c-1.2,0-2.3-0.2-3.2-0.5
				c-2.5-0.9-4.3-2.8-4.8-5.2c-0.5-2.2,0.2-4.5,1.9-6.2l0.2,0.2l-0.1-0.2c3.3-3.4,6.8-6.8,10.6-9.9c2.6-2.1,5.6-2.4,8.6-0.8
				c2.1,1.2,3.9,2.4,5.4,3.7c1.4,1.2,2.4,2.7,2.9,4.3c0.3,1,0.4,2,0.1,2.8l0,0c1.1-0.1,2.2-0.1,3.3,0c-1.1-2.3-2.7-4.3-5-6.3
				c-2.2-1.8-4.5-3.7-7.5-5.9c-1.9-1.4-3.7-1.5-5.8-0.3c-1.8,1.1-3.5,2.5-5.2,3.9l-0.2,0.1c-0.4,0.3-0.8,0.7-1.2,1
				c-1.8,1.5-4.4,3.4-7.6,4.1c-1.6,0.4-3.2,0.5-4.8,0.3c-0.9-0.1-1.7-0.1-2.5,0.1c-0.1,0.1-0.2,0.3-0.3,0.4
				c-0.1,0.2-0.3,0.3-0.4,0.5l-0.2,0.3c-0.1,0.2-0.3,0.4-0.4,0.6c-0.1,0.2-0.2,0.4-0.4,0.5L8.7,24c-0.1,0.2-0.3,0.4-0.4,0.6
				C8.2,24.8,8.1,25,8,25.1l-0.2,0.4c-0.1,0.2-0.2,0.4-0.4,0.6c-0.1,0.2-0.2,0.4-0.3,0.6L6.9,27c-0.1,0.2-0.2,0.4-0.3,0.6
				c-0.1,0.2-0.2,0.4-0.3,0.5l-0.1,0.2L6,28.2l0.2,0.1L6,28.6c-0.1,0.2-0.2,0.4-0.3,0.6c-0.1,0.2-0.2,0.4-0.3,0.6l-0.2,0.4
				c-0.1,0.2-0.2,0.4-0.3,0.6c-0.1,0.2-0.2,0.4-0.3,0.6l-0.2,0.4c0,0.1-0.1,0.1-0.1,0.2l-0.1,0.2l0.1,0.1c1.5,2.3,3.3,4.5,5.4,6.5
				L9.9,39c0.1,0.1,0.2,0.2,0.3,0.3l0.1,0.1l0.4,0.4c0.2-0.5,0.4-1,0.6-1.3c1.1-1.8,2.6-2.5,4.8-2.2l0,0c1.1,0.2,2.2,0.5,3.2,0.8
				c1.3,0.4,2.5,0.7,3.8,0.8C23.9,37.9,24.8,38,25.8,38z"/>
			<path class="st2" d="M25.7,33.9c1.1,0,2.1-0.1,3.1-0.4c3.7-4.4,8.8-7.6,14.7-8.8c0.1,0,0.1-0.1,0.2-0.1c1.3-0.5,1.6-1.2,1.1-2.6
				c-0.4-1.2-1.2-2.3-2.2-3.2c-1.3-1.2-2.9-2.3-4.9-3.3c-1-0.5-1.8-0.8-2.5-0.8c-0.1,0-0.2,0-0.3,0c-1.6,0.1-2.9,0.7-4.3,2.1
				c-1.3,1.2-2.6,2.4-3.8,3.6L26.2,21c-0.9,0.9-1.8,1.7-2.7,2.6c-0.2,0.2-0.5,0.4-0.7,0.7l-0.1,0.1c-0.7,0.6-1.3,1.1-1.8,1.8
				c-1.2,1.6-1.4,3-0.8,4.5c1,2.1,2.9,3.4,5.5,3.4L25.7,33.9z M34.5,18.4c1.2-0.1,2.3,0.2,3.2,1c1.1,0.9,1.4,2.1,0.8,3.2
				c-1.5,3.2-3.8,5.1-6.9,5.9c-0.3,0.1-0.6,0.1-0.8,0.1c-0.7,0-1.3-0.2-1.8-0.6c-0.7-0.6-1.1-1.5-1.1-2.6
				C28,22.6,31.7,18.7,34.5,18.4z"/>
		</g>
		<g>
			<path class="st3" d="M16.7,14.7l-0.2,0.1c-0.2,0.1-0.3,0.3-0.5,0.4c-0.1,0.1-0.3,0.3-0.4,0.4l-0.3,0.3c-0.2,0.2-0.3,0.3-0.5,0.5
				c-0.1,0.1-0.3,0.3-0.4,0.4L14,17.3c-0.2,0.2-0.3,0.3-0.5,0.5c-0.1,0.1-0.3,0.3-0.4,0.4l-0.2,0.2c0,0.1-0.1,0.1-0.1,0.2
				c0.2,0,0.4,0,0.6,0c3.2,0.3,6.1-0.6,8.9-2.8c1-0.8,2-1.6,2.9-2.3l0.1-0.1c0.9-0.7,1.8-1.5,2.7-2.2c1.7-1.3,3.5-2.7,6.1-2.9
				c1.7-0.1,3.3,0.3,4.6,1.2c2.4,1.7,4.4,3.3,6.2,4.8c-1.8-1.6-3.8-3.3-5.8-5c-0.7-0.6-1.5-1-2.3-1.3c-1.8-0.6-3.6-0.4-5.5,0.6
				c-2.3,1.1-4.4,2.5-6.8,4.2C22.1,14.4,19.5,15.1,16.7,14.7z"/>
			<g>
				<path class="st3" d="M53.3,24.6c0.5,0.1,1.1,0.2,1.6,0.3c-0.4-1.2-1-2.3-1.9-3.2c-1-1-2-1.9-3.1-2.9c1.1,1.2,2,2.6,2.7,4.1
					C52.9,23.5,53.1,24,53.3,24.6z"/>
				<path class="st3" d="M24.7,40.7c-2.4,0-4.8-0.6-6.9-1.3c-0.8-0.2-1.6-0.4-2.3-0.5c-1-0.2-1.4,0-2,0.9c-0.3,0.6-0.6,1.2-0.7,1.8
					c1.1,0.9,2.3,1.7,3.6,2.5c1.2-1.1,2.7-1.7,4.6-1.9c1.1-0.1,2.2-0.2,3.4-0.3C24.4,41.5,24.5,41.1,24.7,40.7z"/>
			</g>
		</g>
	</g>
	<g>
		<path class="st2" d="M54.7,39.1l-4.4,2.8l-3.6,2.3l-0.1,0.1C46,44.6,45.4,45,45,45.6c-1.4,2-1,4.7,0.8,6.3l0.7-0.9
			c0-0.1,0-0.1,0-0.2v-2.9c0-0.2,0.2-0.4,0.4-0.4s0.4,0.2,0.4,0.4v1.9l4.1-5.9c0.1-0.2,0.4-0.2,0.6-0.1c0.2,0.1,0.2,0.4,0.1,0.6
			l-2,2.9l1.4-0.6c0.2-0.1,0.5,0,0.6,0.2s0,0.5-0.2,0.6l-2.6,1.1l-2.7,3.8c2.1,1.2,4.8,0.6,6.2-1.4c0.4-0.6,0.6-1.2,0.8-1.9V49
			l0.9-4.2l1.1-5.1C55.7,39.1,55.2,38.7,54.7,39.1z"/>
	</g>
</g>
</svg>
